[{
   "record" : [
      [
         "001A",
         "",
         "0",
         "2049:22-01-19"
      ],
      [
         "001B",
         "",
         "0",
         "1999:21-02-20",
         "t",
         "06:39:49.000"
      ],
      [
         "001D",
         "",
         "0",
         "2049:22-01-19"
      ],
      [
         "001U",
         "",
         "0",
         "utf8"
      ],
      [
         "001X",
         "",
         "0",
         "0"
      ],
      [
         "002@",
         "",
         "0",
         "Oav"
      ],
      [
         "002C",
         "",
         "a",
         "Text",
         "b",
         "txt"
      ],
      [
         "002D",
         "",
         "a",
         "Computermedien",
         "b",
         "c"
      ],
      [
         "002E",
         "",
         "a",
         "Online-Ressource",
         "b",
         "cr"
      ],
      [
         "003@",
         "",
         "0",
         "026641259"
      ],
      [
         "004U",
         "",
         "0",
         "urn:nbn:de:gbv:3:1-844344"
      ],
      [
         "006M",
         "",
         "0",
         "VD18 11243864"
      ],
      [
         "006Y",
         "",
         "0",
         "gvk1046490257"
      ],
      [
         "007G",
         "",
         "i",
         "GBV",
         "0",
         "1046490257"
      ],
      [
         "007S",
         "",
         "0",
         "VD18 11243864"
      ],
      [
         "008@",
         "",
         "b",
         "RedVD18-DE-3"
      ],
      [
         "009@",
         "",
         "b",
         "vd18"
      ],
      [
         "009A",
         "",
         "b",
         "XA-DE",
         "c",
         "ULB Sachsen-Anhalt Halle",
         "a",
         "Ic 172 (1/2) (4)"
      ],
      [
         "010@",
         "",
         "a",
         "ger"
      ],
      [
         "010E",
         "",
         "e",
         "rda"
      ],
      [
         "011@",
         "",
         "a",
         "2019",
         "n",
         "[2019]",
         "r",
         "1757"
      ],
      [
         "016A",
         "",
         "0",
         "cr"
      ],
      [
         "017C",
         "",
         "S",
         "1",
         "u",
         "http://nbn-resolving.de/urn:nbn:de:gbv:3:1-844344"
      ],
      [
         "019@",
         "",
         "a",
         "XA-DE"
      ],
      [
         "021A",
         "",
         "a",
         "D. Joh. Salom. Semlers kurze Vorstellung wider die neue dreifache Paraphrasin über das Hohe Lied"
      ],
      [
         "022A",
         "",
         "a",
         "Kurze Vorstellung wider die neue dreifache Paraphrasin über das Hohe Lied"
      ],
      [
         "028A",
         "",
         "9",
         "01093202X",
         "V",
         "Tpv1",
         "7",
         "gnd/118764470",
         "w",
         "piz",
         "A",
         "Semler",
         "D",
         "Johann Salomo",
         "E",
         "1725",
         "M",
         "1791",
         "B",
         "VerfasserIn",
         "4",
         "aut"
      ],
      [
         "028C",
         "",
         "9",
         "010965998",
         "V",
         "Tpv1",
         "7",
         "gnd/116473207",
         "w",
         "piz",
         "A",
         "Gebauer",
         "D",
         "Johann Justinus",
         "E",
         "1710",
         "M",
         "1772",
         "B",
         "Verlag",
         "4",
         "pbl",
         "B",
         "DruckerIn",
         "4",
         "prt"
      ],
      [
         "033A",
         "",
         "p",
         "Halle, Saale",
         "n",
         "Universitäts- und Landesbibliothek Sachsen-Anhalt"
      ],
      [
         "034D",
         "",
         "a",
         "1 Online-Ressource (64 Seiten)"
      ],
      [
         "036E",
         "",
         "a",
         "VD18 digital"
      ],
      [
         "037A",
         "",
         "a",
         "Die Illustration ist eine Druckermarke auf dem Titelblatt"
      ],
      [
         "037H",
         "",
         "a",
         "TIFF, Vers.6.0, 300 dpi, 24 bit (Farbe), Digitalisierungsvorlage: Primärausgabe"
      ],
      [
         "037I",
         "",
         "a",
         "Nutzungsrecht: Universitäts- und Landesbibliothek Sachsen-Anhalt, Halle (Saale)"
      ],
      [
         "039I",
         "",
         "i",
         "Elektronische Reproduktion von",
         "l",
         "Semler, Johann Salomon, 1725-1791",
         "t",
         "D. Joh. Salom. Semlers kurze Vorstellung wider die neue dreifache Paraphrasin über das Hohe Lied",
         "d",
         "Halle",
         "e",
         "Gebauer",
         "f",
         "1757",
         "h",
         "64 Seiten : Illustration ; 8°",
         "C",
         "GBV",
         "6",
         "218783744"
      ],
      [
         "044S",
         "",
         "9",
         "010881786",
         "V",
         "Tsv",
         "a",
         "Streitschrift:theol."
      ],
      [
         "046H",
         "",
         "a",
         "Vorlageform der Veröffentlichungsangabe: \"Halle, bey Johann Justinus Gebauer 1757.\""
      ],
      [
         "046X",
         "",
         "a",
         "la",
         "z",
         "ULB Sachsen-Anhalt, Halle (Saale)"
      ],
      [
         "047A",
         "",
         "a",
         "Bestand: DE-28"
      ],
      [
         "047C",
         "",
         "a",
         "dreifache Hohelied",
         "A",
         "GBV"
      ]
   ],
   "_id" : "026641259"
}]
