[
  {
    "_id": "80318929X",
    "record": [
      [
        "001@",
        "",
        "0",
        "65"
      ],
      [
        "001A",
        "",
        "0",
        "0003:13-11-14"
      ],
      [
        "001B",
        "",
        "0",
        "1999:10-03-19",
        "t",
        "04:30:05.000"
      ],
      [
        "001D",
        "",
        "0",
        "0003:13-11-14"
      ],
      [
        "001U",
        "",
        "0",
        "utf8"
      ],
      [
        "001X",
        "",
        "0",
        "0"
      ],
      [
        "002@",
        "",
        "0",
        "Oau"
      ],
      [
        "002D",
        "",
        "a",
        "Computermedien",
        "b",
        "c"
      ],
      [
        "002E",
        "",
        "a",
        "Online-Ressource",
        "b",
        "cr"
      ],
      [
        "003@",
        "",
        "0",
        "80318929X"
      ],
      [
        "003O",
        "",
        "a",
        "OCoLC",
        "0",
        "935746800"
      ],
      [
        "004U",
        "",
        "0",
        "urn:nbn:de:gbv:3:5-6541"
      ],
      [
        "006Y",
        "",
        "0",
        "gbvprint148428851"
      ],
      [
        "007G",
        "",
        "i",
        "GBV",
        "0",
        "80318929X"
      ],
      [
        "009A",
        "",
        "b",
        "XA-DE",
        "c",
        "ULB Sachsen-Anhalt, Halle (Saale)",
        "a",
        "D Mb 326, 4Öʿ"
      ],
      [
        "010@",
        "",
        "a",
        "lat"
      ],
      [
        "011@",
        "",
        "a",
        "1819"
      ],
      [
        "011B",
        "",
        "a",
        "2010"
      ],
      [
        "016A",
        "",
        "0",
        "cr"
      ],
      [
        "017C",
        "",
        "u",
        "http://nbn-resolving.de/urn:nbn:de:gbv:3:5-6541",
        "x",
        "R",
        "3",
        "Volltext",
        "5",
        "34"
      ],
      [
        "019@",
        "",
        "a",
        "XA-RU",
        "a",
        "XA-DXDE"
      ],
      [
        "021A",
        "",
        "a",
        "Novae symbolae ad rem numariam Muhammedanorum ex museis pflugiano atque mannteufeliano petropoli nec non nejelowiano kasani",
        "d",
        "accedunt quinque tabulae lapide expressae",
        "h",
        "edidit C. M. Fraehn ..."
      ],
      [
        "028A",
        "",
        "9",
        "140048421",
        "V",
        "Tpv1",
        "7",
        "gnd/104228458",
        "3",
        "160987768",
        "w",
        "piz",
        "A",
        "Fraehn",
        "D",
        "C. M.",
        "E",
        "1782",
        "M",
        "1851"
      ],
      [
        "032C",
        "",
        "a",
        "Online-Ausg."
      ],
      [
        "033A",
        "",
        "p",
        "Petropoli",
        "n",
        "Mayer"
      ],
      [
        "033A",
        "",
        "p",
        "Halis Saxonum",
        "n",
        "Hemmerde et Schwetschke"
      ],
      [
        "033A",
        "",
        "p",
        "Halis Saxonum",
        "n",
        "Gebauer"
      ],
      [
        "033B",
        "01",
        "p",
        "Halle, Saale",
        "n",
        "Universitäts- und Landesbibliothek Sachsen-Anhalt"
      ],
      [
        "033J",
        "",
        "9",
        "078856485",
        "V",
        "Tpv1",
        "7",
        "gnd/117430919",
        "3",
        "216286808",
        "w",
        "piz",
        "A",
        "Schwetschke",
        "D",
        "Karl August",
        "E",
        "1756",
        "M",
        "1839"
      ],
      [
        "033P",
        "",
        "p",
        "Halle, Saale",
        "n",
        "Universitäts- und Landesbibliothek Sachsen-Anhalt"
      ],
      [
        "033Q",
        "",
        "a",
        "Online-Ressource (Text)"
      ],
      [
        "034D",
        "",
        "a",
        "VI, 47 S., [5] Bl"
      ],
      [
        "034I",
        "",
        "a",
        "4°"
      ],
      [
        "034M",
        "",
        "a",
        "5 Ill"
      ],
      [
        "036L",
        "",
        "a",
        "Vorderer Orient/Nordafrika digital aus der Universitäts- und Landesbibliothek Sachsen-Anhalt"
      ],
      [
        "037I",
        "",
        "a",
        "Nutzungsrecht: Universitäts- und Landesbibliothek Sachsen-Anhalt, Halle (Saale)"
      ],
      [
        "039D",
        "",
        "i",
        "Druckausg.",
        "9",
        "148428851",
        "R",
        "Aau",
        "V",
        "Tpv1",
        "7",
        "gnd/104228458",
        "3",
        "160987768",
        "w",
        "piz",
        "A",
        "Fraehn",
        "D",
        "C. M.",
        "E",
        "1782",
        "M",
        "1851",
        "t",
        "Novae symbolae ad rem numariam Muhammedanorum ex museis pflugiano atque mannteufeliano petropoli nec non nejelowiano kasani",
        "d",
        "Petropoli",
        "e",
        "Mayer",
        "f",
        "1819",
        "h",
        "VI, 47 S., [5] Bl"
      ],
      [
        "044K",
        "",
        "9",
        "106283499",
        "V",
        "Tsvz",
        "7",
        "gnd/4027743-4",
        "3",
        "20897220X",
        "a",
        "Islam"
      ],
      [
        "044K",
        "",
        "9",
        "106222198",
        "V",
        "Tsv1",
        "7",
        "gnd/4040629-5",
        "3",
        "209041498",
        "a",
        "Münze"
      ],
      [
        "044S",
        "",
        "9",
        "09663152X",
        "V",
        "Tsv",
        "a",
        "Geldwesen"
      ],
      [
        "045Q",
        "01",
        "9",
        "106404598",
        "V",
        "Tkv",
        "a",
        "15.13",
        "j",
        "Numismatik",
        "j",
        "Sphragistik"
      ],
      [
        "045V",
        "",
        "a",
        "6,23"
      ],
      [
        "046H",
        "",
        "a",
        "Vorlageform des Erscheinungsvermerks im Kolophon: Halis Saxonum, Ex Officina Gebaueri Et Filii"
      ],
      [
        "046H",
        "",
        "a",
        "Vorlageform der Veröffentlichungsangabe: Prostant Petropoli, Apud Guil. Mayer, Bibliopolam Academicum, Et Halis Saxonum, Apud Hemmerde Et Schwetschke, ..."
      ],
      [
        "046W",
        "",
        "a",
        "IMD-Felder maschinell generiert (GBV)"
      ],
      [
        "046X",
        "",
        "a",
        "la",
        "z",
        "ULB Sachsen-Anhalt, Halle (Saale)"
      ],
      [
        "101@",
        "",
        "a",
        "65",
        "c",
        "PICA"
      ],
      [
        "201B",
        "01",
        "0",
        "30-08-17",
        "t",
        "15:36:51.000"
      ],
      [
        "201U",
        "01",
        "0",
        "utf8"
      ],
      [
        "202D",
        "01",
        "0",
        "30-08-17",
        "b",
        "2533",
        "a",
        "0003/0010"
      ],
      [
        "203@",
        "01",
        "0",
        "1509992030"
      ],
      [
        "208@",
        "01",
        "a",
        "13-11-14",
        "b",
        "x"
      ],
      [
        "245Z",
        "01",
        "a",
        "ssg2.7",
        "x",
        "00"
      ]
    ]
  }
]
