"ppn","vd18_nr","type","printer","printer_gnd","publisher","place","date","title"
"025779060","90541219","Ofv","Johann Jakob Gebauer","116473169","Gebauer","Halle","","Welcher das in den neun ersten Heften des Botanikers in der kompendiösen Bibliothek angefangene klassificirte Verzeichniß der in Deutschland gefundenen wildwachsenden Gewächse enthält"
"024978159","90449576","Ofv","Johann Justinus Gebauer","116473207","Gebauer","Halle|||Halle, Saale","1750",""
"02468404X","90335511","Ofv","Johann Justinus Gebauer","116473207","Gebauer","Halle","1751",""
"024684031","90335503","Ofv","Johann Justinus Gebauer","116473207","Gebauer","Halle","1751",""
"024684023","9033549X","Ofv","Johann Justinus Gebauer","116473207","Gebauer","Halle","1752",""
"025898469","90569393","Ofv","Johann Justinus Gebauer","116473207","Gebauer","Halle","1753","Comprenant Les Tomes IV. V. Et VI. De L'Edition De France"
"025898450","90569385","Ofv","Johann Justinus Gebauer","116473207","Gebauer","Halle","1753","Comprenant III Tomes De L'Edition De France"
"00949006X","90272269","Ofv","Johann Justinus Gebauer","116473207","Gebauer","Halle","1753",""
"025898485","90569415","Ofv","Johann Justinus Gebauer","116473207","Gebauer","Halle","1754","Comprenant Les Tomes X. XI. Et XII. De L'Edition De France"
"025898477","90569407","Ofv","Johann Justinus Gebauer","116473207","Gebauer","Halle","1754","Comprenant Les Tomes VII. VIII. Et IX. De L'Edition De France"
"00931718X","90131819","Ofv","","","Gebauer","Halle","1754","Erster Theil von ihrem Ursprung bis an den Tod der Königin Elisabet 1602."
"009267255","9009817X","Ofv","Johann Justinus Gebauer","116473207","Gebauer","Halae","1754","/ ... D. Mart. MDCCLIV. In Academia Fridericiana Regia Ervditorvm Examnini Svbiiciet Carol. Avgvstvs Strvensee. Halensis"
"009265449","90096878","Ofv","","","Gebauer","Halle","1754",""
"009265430","9009686X","Ofv","","","Gebauer","Halle","1754",""
"009265341","90096800","Ofv","Johann Justinus Gebauer","116473207","Gebauer","Halae","1754","/ ... Ad Diem Aprilis MDCCLIV. ... Pvblico Placidoqve Ervditorvm Examini Svbiiciet Gotthilf Gvstavvs Vhde, Mezlicha Magdebvrg. S. S. Theol. Cvltor."
"009265325","90096789","Ofv","Johann Justinus Gebauer","116473207","Gebauer","Halae","1754","/ ...Ad Diem Aprilis MDCCLIV. ... Pvblico Placidoqve Ervditorvm Examini Svbiiciet Gotthilf Gvstavvs Vhde, Mezlicha Magdebvrg. S. S. Theol. Cvltor."
"009239707","90069358","Ofv","","","Gebauer","Halle","1754",""
"025898507","90569431","Ofv","Johann Justinus Gebauer","116473207","Gebauer","Halle","1755","Comprenant Le Tome XVI. De L'Edition De France, Accompagné D'Un Indice Général"
"025898493","90569423","Ofv","Johann Justinus Gebauer","116473207","Gebauer","Halle","1755","Comprenant Les Tomes XIII. XIV. Et XV. De L'Edition De France"
"009490086","90272277","Ofv","Johann Justinus Gebauer","116473207","Gebauer","Halle","1755",""
"009427449","9023216X","Ofv","Johann Justinus Gebauer","116473207","Gebauer","Halae Magdeburgicae","1755",""
"009265457","90096886","Ofv","","","Gebauer","Halle","1755",""
"02641127X","90670752","Ofv","Johann Justinus Gebauer","116473207","Gebauer","Halle","1757",""
"009265465","90096894","Ofv","","","Gebauer","Halle","1757",""
"026411318","90670787","Ofv","Johann Justinus Gebauer","116473207","Gebauer","Halle","1758","Worin auf eines unchristlichen und eingebildeten Christiani Sinceri ganz unnützes Schreiben nützliche und für unsre Kirche höchstwichtige Antwort gegeben wird"
"026411288","90670760","Ofv","Johann Justinus Gebauer","116473207","Gebauer","Halle","1758","Enthaltend eine historische und theol. Erleuterung des alten Ausspruchs oratio, meditatio, tentatio faciunt theologum"
"009265473","90096908","Ofv","","","Gebauer","Halle","1759",""
"009141901","80334946","Ofv","","","Gebauer","Halle","1759",""
"009141898","80334938","Ofv","","","Gebauer","Halle","1759",""
"00911999X","80089526","Ofv","","","Gebauer","Halle","1759",""
"009119981","8008950X","Ofv","","","Gebauer","Halle","1759",""
"009119965","80089496","Ofv","","","Gebauer","Halle","1760",""
"009294287","90115295","Ofv","","","Gebauer und Stettin","Halle","1761",""
"009265481","90096916","Ofv","","","Gebauer","Halle","1761",""
"024695416","90398866","Ofv","Johann Immanuel Gebauer","1037512014","Gebauer","Halle","1762",""
"009294295","90115309","Ofv","","","Gebauer und Stettin","Halle","1762",""
"00926549X","90096924","Ofv","","","Gebauer","Halle","1762",""
"009121439","80098924","Ofv","","","Gebauer und Stettin","Halle","1762","Erster Theil von ihrem Ursprung bis an den Tod der Königin Elisabet 1602."
"009294309","90115317","Ofv","","","Gebauer und Stettin","Halle","1763",""
"009153594","80462065","Ofv","","","Gebauer","Halle","1763",""
"009153586","80462057","Ofv","","","Gebauer","Halle","1763",""
"024687383","90361490","Ofv","Johann Justinus Gebauer|||","","Gebauer","Halle","1764",""
"009294325","90115333","Ofv","","","Gebauer und Stettin","Halle","1764",""
"009294317","90115325","Ofv","","","Gebauer und Stettin","Halle","1764",""
"009153608","80462073","Ofv","","","Gebauer","Halle","1764",""
"024687421","90361539","Ofv","Johann Justinus Gebauer","","Gebauer","Halle","1765",""
"009294333","90115341","Ofv","","","Gebauer und Stettin","Halle","1765",""
"009153616","80462081","Ofv","","","Gebauer","Halle","1765",""
"024687464","90361571","Ofv","Johann Justinus Gebauer","","Gebauer","Halle","1766","... Nebst vollständigen Registern"
"009153632","80462103","Ofv","","","Gebauer","Halle","1766",""
"009153624","8046209X","Ofv","","","Gebauer","Halle","1766",""
"00932772X","90139321","Ofv","","","Gebauer","Halle","1767",""
"009327673","90139291","Ofv","","","Gebauer","Halle","1767",""
"009132686","80253105","Ofv","","","Gebauer","Halle","1767","Neue Historie ; Bd. 1"
"009327800","90139372","Ofv","","","Gebauer","Halle","1768",""
"009327754","90139348","Ofv","","","Gebauer","Halle","1768",""
"009153659","8046212X","Ofv","","","Gebauer","Halle","1768",""
"009153640","80462111","Ofv","","","Gebauer","Halle","1768",""
"009132724","80253121","Ofv","","","Gebauer","Halle","1768","Neue Historie ; Bd. 3"
"009132708","80253113","Ofv","","","Gebauer","Halle","1768","Neue Historie ; Bd. 2"
"009327843","90139402","Ofv","","","Gebauer","Halle","1769",""
"009327835","90139399","Ofv","","","Gebauer","Halle","1769",""
"009265511","90096940","Ofv","","","Gebauer","Halle","1769",""
"009265503","90096932","Ofv","","","Gebauer","Halle","1769",""
"009132767","80253148","Ofv","","","Gebauer","Halle","1769","Neue Historie ; Bd. 5"
"009132740","8025313X","Ofv","","","Gebauer","Halle","1769","Neue Historie ; Bd. 4"
"009327886","90139437","Ofv","","","Gebauer","Halle","1770",""
"009327878","90139429","Ofv","","","Gebauer","Halle","1770",""
"00926552X","90096959","Ofv","","","Gebauer","Halle","1770",""
"009132805","80253164","Ofv","","","Gebauer","Halle","1770","Neue Historie ; Bd. 7"
"009132783","80253156","Ofv","","","Gebauer","Halle","1770","Neue Historie ; Bd. 6"
"009327894","90139445","Ofv","","","Gebauer","Halle","1771",""
"009318240","90132629","Ofv","","","Gebauer","Halle","1771",""
"009135138","80272916","Ofv","","","Gebauer","Halle","1771",""
"00913512X","80272908","Ofv","","","Gebauer","Halle","1771",""
"009132848","80253180","Ofv","","","Gebauer","Halle","1771","Neue Historie ; Bd. 9"
"009132821","80253172","Ofv","","","Gebauer","Halle","1771","Neue Historie ; Bd. 8"
"024951315","90426444","Ofv","Marie Sophie Gebauer|||Johann Jakob Gebauer","1045265640|||116473169","Gebauer","Halle","1772",""
"009327908","90139453","Ofv","","","Gebauer","Halle","1772",""
"009132864","80253199","Ofv","","","Gebauer","Halle","1772","Neue Historie ; Bd. 10"
"024951331","90426452","Ofv","Marie Sophie Gebauer|||Johann Jakob Gebauer","1045265640|||116473169","Gebauer","Halle","1773",""
"009132902","80253210","Ofv","","","Gebauer","Halle","1773","Neue Historie ; Bd. 12"
"009132880","80253202","Ofv","","","Gebauer","Halle","1773","Neue Historie ; Bd. 11"
"024951358","90426460","Ofv","Marie Sophie Gebauer|||Johann Jakob Gebauer","1045265640|||116473169","Gebauer","Halle","1774",""
"009232214","90059867","Ofv","","","Gebauer","Halle","1774",""
"009232206","90059859","Ofv","","","Gebauer","Halle","1774",""
"009232192","90059840","Ofv","","","Gebauer","Halle","1774",""
"009232184","90059832","Ofv","","","Gebauer","Halle","1774",""
"009232176","90059824","Ofv","","","Gebauer","Halle","1774",""
"009232168","90059816","Ofv","","","Gebauer","Halle","1774",""
"00923215X","90059808","Ofv","","","Gebauer","Halle","1774",""
"009232141","90059794","Ofv","","","Gebauer","Halle","1774",""
"009232133","90059786","Ofv","","","Gebauer","Halle","1774",""
"009232125","90059778","Ofv","","","Gebauer","Halle","1774",""
"009232117","9005976X","Ofv","","","Gebauer","Halle","1774",""
"009232109","90059751","Ofv","","","Gebauer","Halle","1774",""
"009212582","90031709","Ofv","","","Gebauer","Halle","1774",""
"009132945","80253237","Ofv","","","Gebauer","Halle","1774","Neue Historie ; Bd. 14"
"009132929","80253229","Ofv","","","Gebauer","Halle","1774","Neue Historie ; Bd. 13"
"026568268","90730232","Ofv","Johann Justinus Gebauer Erben|||Johann Jakob Gebauer","6146495-8|||116473169","J. J. Gebauers Witwe||Joh. Jacob Gebauer","Halle","1775",""
"009212590","90031717","Ofv","","","Gebauer","Halle","1775",""
"009180400","90011813","Ofv","Johann Justinus Gebauer Erben|||Johann Jakob Gebauer","6146495-8|||116473169","Gebauer","Halle","1775","Mit Kupfern"
"009132961","80253245","Ofv","","","Gebauer","Halle","1775","Neue Historie ; Bd. 15"
"026568276","90730275","Ofv","Johann Justinus Gebauer Erben|||Johann Jakob Gebauer","6146495-8|||116473169","J. J. Gebauers Witwe||Joh. Jacob Gebauer","Halle","1776",""
"024951374","90426479","Ofv","Marie Sophie Gebauer|||Johann Jakob Gebauer","1045265640|||116473169","Gebauer","Halle","1776",""
"009212604","90031725","Ofv","","","Gebauer","Halle","1776",""
"009180427","90011821","Ofv","Johann Jakob Gebauer","116473169","Gebauer","Halle","1776","Mit Kupfern"
"009212612","90031733","Ofv","","","Gebauer","Halle","1777",""
"009133003","80253261","Ofv","","","Gebauer","Halle","1777","Neue Historie ; Bd. 17"
"009132988","80253253","Ofv","","","Gebauer","Halle","1777","Neue Historie ; Bd. 16"
"026608642","90746589","Ofv","Johann Jakob Gebauer","116473169","Gebauer","Halle","1778",""
"026608634","90746546","Ofv","Johann Jakob Gebauer","116473169","Gebauer","Halle","1778",""
"025413007","90198441","Ofv","","","Gebauer","Halle","1778",""
"024617164","11524634","Ofv","Johann Jakob Gebauer","","Gebauer","Halae","1778","Epistolarum Historico-Ecclesiasticarum Seculo XVI. A Celeberrimis Viris Scriptarum Semicenturia : Ex Autographis Et Apographis Fide Dignis Descripsit Ac Primum Edidit"
"009212639","9003175X","Ofv","","","Gebauer","Halle","1778",""
"009212620","90031741","Ofv","","","Gebauer","Halle","1778",""
"009187618","90015630","Ofv","Johann Jakob Gebauer","116473169","Gebauer","Halae","1778","De Editionibvs Textvs Originalis"
"009133046","80253288","Ofv","","","Gebauer","Halle","1778","Neue Historie ; Bd. 19"
"00913302X","8025327X","Ofv","","","Gebauer","Halle","1778","Neue Historie ; Bd. 18"
"025413023","90198468","Ofv","","","Gebauer","Halle","1779","Anhang zu den Materialien zu einer neuen Erklärung des Hohenliedes"
"025413015","9019845X","Ofv","","","Gebauer","Halle","1779",""
"009212655","90031776","Ofv","","","Gebauer","Halle","1779",""
"009212647","90031768","Ofv","","","Gebauer","Halle","1779",""
"009133062","80253296","Ofv","","","Gebauer","Halle","1779","Neue Historie ; Bd. 20"
"009124748","8013162X","Ofv","","","Gebauer","Halle","1779",""
"024681547","90320174","Ofv","Johann Jakob Gebauer","","Gebauer","Halae","1780","Epistolarum Historico-Ecclesiasticarum Seculo XVI. et XVII. A Celeberrimis Viris Scriptarum Semicenturia Altera : Ex Autographis Et Apographis Fide Dignis Descripsit, Editit Ac Notulis Illustravit"
"009212663","90031784","Ofv","","","Gebauer","Halle","1780",""
"009124780","80131794","Ofv","","","Gebauer","Halle","1780",""
"009124772","80131786","Ofv","","","Gebauer","Halle","1780",""
"026028247","90621727","Ofv","Johann Jakob Gebauer","116473169","Gebauer","Halle","1781",""
"026028239","90624483","Ofv","Johann Jakob Gebauer","116473169","Gebauer","Halle","1781",""
"009212671","90031792","Ofv","","","Gebauer","Halle","1781",""
"009209255","90027833","Ofv","","","Gebauer","Halle","1781",""
"009209247","90027825","Ofv","","","Gebauer","Halle","1781",""
"009187650","90015657","Ofv","Johann Jakob Gebauer","116473169","Gebauer","Halae","1781","De Versionibvs Graecis"
"009187634","90015649","Ofv","Johann Jakob Gebauer","116473169","Gebauer","Halae","1781","De Versionibvs Orientalibvs"
"009124764","80131662","Ofv","","","Gebauer","Halle","1781",""
"009212701","90031822","Ofv","","","Gebauer","Halle","1782",""
"009212698","90031814","Ofv","","","Gebauer","Halle","1782",""
"00921268X","90031806","Ofv","","","Gebauer","Halle","1782",""
"009209271","9002785X","Ofv","","","Gebauer","Halle","1782",""
"009209263","90027841","Ofv","","","Gebauer","Halle","1782",""
"009124756","80131638","Ofv","","","Gebauer","Halle","1782",""
"025440861","90270118","Ofv","","","Gebauer","Halle","1783",""
"009486364","90270118","Ofv","Johann Jakob Gebauer","116473169","Gebauer","Halle","1783",""
"00921271X","90031830","Ofv","","","Gebauer","Halle","1783",""
"009187693","90015673","Ofv","Johann Jakob Gebauer","116473169","Gebauer","Halae","1783",""
"009142223","80338232","Ofv","","","Gebauer","Halle","1783",""
"009129065","80211968","Ofv","","","Gebauer","Halle","1783",""
"009113169","8001951X","Ofv","","","Gebauer","Halle","1783","Von den Schnecken"
"024934348","90376846","Ofv","Johann Jakob Gebauer","116473169","Gebauer","Halle","1784",""
"00948549X","90269624","Ofv","Johann Jakob Gebauer","116473169","Gebauer","Halle","1784",""
"009212736","90031857","Ofv","","","Gebauer","Halle","1784",""
"009212728","90031849","Ofv","","","Gebauer","Halle","1784",""
"009113177","80019528","Ofv","","","Gebauer","Halle","1784","Zweyter Band"
"025255452","90482751","Ofv","Johann Jakob Gebauer","116473169","Gebauer","Halle","1785",""
"009212752","90031873","Ofv","","","Gebauer","Halle","1785",""
"009212744","90031865","Ofv","","","Gebauer","Halle","1785",""
"009187715","90015681","Ofv","Johann Jakob Gebauer","116473169","Gebauer","Halae","1785",""
"00914224X","80338275","Ofv","","","Gebauer","Halle","1785",""
"02544087X","90270126","Ofv","","","Gebauer","Halle","1786",""
"025255460","90482743","Ofv","Johann Jakob Gebauer","116473169","Gebauer","Halle","1786",""
"024934356","90376862","Ofv","Johann Jakob Gebauer","116473169","Gebauer","Halle","1786",""
"009486380","90270126","Ofv","Johann Jakob Gebauer","116473169","Gebauer","Halle","1786",""
"009234756","90063007","Ofv","","","Gebauer","Halle","1786",""
"009212779","9003189X","Ofv","","","Gebauer","Halle","1786",""
"009212760","90031881","Ofv","","","Gebauer","Halle","1786",""
"009113185","80019536","Ofv","","","Gebauer","Halle","1786","Dritter und letzter Band"
"009221611","90043057","Ofv","Johann Jakob |Gebauer","","Gebauer","Halle","1787","bis auf Rudolf von Habsburg"
"009133089","8025330X","Ofv","","","Gebauer","Halle","1787","Neue Historie ; Bd. 21"
"00922162X","90043065","Ofv","Johann Jakob |Gebauer","","Gebauer","Halle","1788","bis auf Albrecht den Zweyten"
"009133100","80253326","Ofv","","","Gebauer","Halle","1788","Neue Historie ; Bd. 23"
"009133097","80253318","Ofv","","","Gebauer","Halle","1788","Neue Historie ; Bd. 22"
"009221638","90043073","Ofv","Johann Jakob |Gebauer","","Gebauer","Halle","1789","bis auf den Schmalkaldischen Krieg"
"009215360","90035682","Ofv","","","Gebauer","Halle","1789","Vom Abgange des Fränkischen Kaiserstammes an, bis zur Erwählung Rudolf's von Habsburg zum Könige von Teutschland. 1125 bis 1273."
"009215352","90035674","Ofv","","","Gebauer","Halle","1789","Von den ältesten Zeiten an, bis zum Abgange des Fränkischen Kaiserstammes im J. C. 1125."
"009143963","80349854","Ofv","","","Gebauer","Halle","1789",""
"009143955","80349846","Ofv","","","Gebauer","Halle","1789",""
"009133127","80253342","Ofv","","","Gebauer","Halle","1789","Neue Historie ; Bd. 25"
"009133119","80253334","Ofv","","","Gebauer","Halle","1789","Neue Historie ; Bd. 24"
"005389496","10401199","Ofv","Johann Jakob Gebauer","116473169","Gebauer","Halle","1789",""
"009221646","90043081","Ofv","Johann Jakob |Gebauer","","Gebauer","Halle","1790","bis auf den dreyßigjährigen Krieg"
"009215387","90035712","Ofv","","","Gebauer","Halle","1790","Von der Erwählung Rudolf's von Habsburg zum Könige von Teutschland an, bis zum Ende der Regierung Friederich des Dritten. 1273 bis 1493."
"009215379","90035704","Ofv","","","Gebauer","Halle","1790","Von der Erwählung Rudolf's von Habsburg zum Könige von Teutschland an, bis zum Ende der Regierung Friederich des Dritten. 1273 bis 1493."
"009212787","90031903","Ofv","","","Gebauer","Halle","1790",""
"009187731","9001569X","Ofv","Johann Jakob Gebauer","116473169","Gebauer","Halae","1790",""
"009133143","80253369","Ofv","","","Gebauer","Halle","1790","Neue Historie ; Bd. 27"
"009133135","80253350","Ofv","","","Gebauer","Halle","1790","Neue Historie ; Bd. 26"
"025439340","90315294","Ofv","","","Gebauer","Halle","1791",""
"025439332","90315286","Ofv","","","Gebauer","Halle","1791",""
"009221654","9004309X","Ofv","Johann Jakob |Gebauer","","Gebauer","Halle","1791","Geschichte des dreyßigjährigen Kriegs"
"009215417","90035747","Ofv","","","Gebauer","Halle","1791","Maximilian der Erste"
"009215409","90035739","Ofv","","","Gebauer","Halle","1791","Von der Erwählung Rudolf's von Habsburg zum Könige von Teutschland an, bis zum Ende der Regierung Friederich des Dritten. 1273 bis 1493."
"009215395","90035720","Ofv","","","Gebauer","Halle","1791","Von der Erwählung Rudolf's von Habsburg zum Könige von Teutschland an, bis zum Ende der Regierung Friederich des Dritten. 1273 bis 1493."
"009212795","90031911","Ofv","","","Gebauer|||Macklot","Halle|||Frankfurt","1791","1600 - 1609"
"025439359","90315308","Ofv","","","Gebauer","Halle","1792",""
"009221662","90043103","Ofv","Johann Jakob |Gebauer","","Gebauer","Halle","1792","bis zum nimwegischen Frieden"
"009215433","90035763","Ofv","","","Gebauer","Halle","1792","Ferdinand der Erste"
"009215425","90035755","Ofv","","","Gebauer","Halle","1792","Karl der Fünfte"
"009212809","9003192X","Ofv","","","Gebauer|||Macklot","Halle|||Frankfurt","1792","1609 - 1614"
"009486267","90270061","Ofv","Johann Jakob Gebauer","116473169","Gebauer","Gotha||Halle","1793",""
"009221670","90043111","Ofv","Johann Jakob |Gebauer","","Gebauer","Halle","1793","Bis zum Tode Kaiser Josephs I."
"009215441","90035771","Ofv","","","Gebauer","Halle","1793","Maximilian der Zweite"
"009212817","90031938","Ofv","","","Gebauer|||Macklot","Halle|||Frankfurt","1793","1615 - 1620"
"025260189","9047337X","Ofv","Johann Jakob Gebauer","116473169","Gebauer","Halle","1794",""
"009382372","90202694","Ofv","","","","","1794",""
"009215468","90035801","Ofv","","","Gebauer","Halle","1794","Die ersten zwanzig Jahre der Regierung Rudolf des Zweiten"
"00921545X","90035798","Ofv","","","Gebauer","Halle","1794","Die ersten zwanzig Jahre der Regierung Rudolf des Zweiten"
"009212825","90031946","Ofv","","","Gebauer|||Macklot","Halle|||Frankfurt","1794","1621 - 1628"
"009486283","9027007X","Ofv","Johann Jakob Gebauer","116473169","Gebauer","Eisenach||Halle","1795",""
"009486046","90269942","Ofv","Johann Jakob Gebauer","116473169","Gebauer","Eisenach||Halle","1795",""
"009382402","90202724","Ofv","","","Gebauer","Halle","1795",""
"009382399","90202716","Ofv","","","Gebauer","Halle","1795",""
"009382380","90202708","Ofv","","","","","1795",""
"009382143","9020252X","Ofv","","","Gebauer","Halle","1795",""
"009302794","90121090","Ofv","","","Gebauer","Halle","1795",""
"009212833","90031954","Ofv","","","Gebauer|||Macklot","Halle|||Frankfurt","1795","1629 - 1634"
"009486062","90269950","Ofv","Johann Jakob Gebauer","116473169","Gebauer","Eisenach||Halle","1796",""
"024464376","90390555","Ofv","Johann Jakob Gebauer","116473169","Gebauer","Halle","1797",""
"009486321","90270096","Ofv","Johann Jakob Gebauer","116473169","Gebauer","Eisenach||Halle","1797",""
"009486305","90270088","Ofv","Johann Jakob Gebauer","116473169","Gebauer","Eisenach||Halle","1797",""
"02446435X","90390547","Ofv","Johann Jakob Gebauer","116473169","Gebauer","Halle","1798",""
"009212841","90031962","Ofv","","","Gebauer|||Macklot","Halle|||Frankfurt","1798","1635 - 1641"
"025260197","90473388","Ofv","Johann Jakob Gebauer","116473169","Gebauer","Halle","1799",""
"009425063","90230485","Ofv","Johann Jakob Gebauer","116473169","Gebauer","Halle","1799",""
"00942508X","90230493","Ofv","Johann Jakob Gebauer","116473169","Gebauer","Halle","1800",""
"024464392","90390563","Ofv","Johann Jakob Gebauer","116473169","Gebauer","Halle","1801",""
"024464430","9039058X","Ofv","Johann Jakob Gebauer","116473169","Gebauer","Halle","1804",""
"024464414","90390571","Ofv","Johann Jakob Gebauer","116473169","Gebauer","Halle","1804",""
"02552996X","90519272","Ofv","","","Universitätsbibliothek","Rostock","2016",""
"025529951","90519264","Ofv","","","Universitätsbibliothek","Rostock","2016",""
"025499831","90509773","Ofv","","","Universitätsbibliothek","Rostock","2016",""
"026054094","90636155","Ofv","","","Niedersächsische Staats- und Universitätsbibliothek","Göttingen","2017",""
"026054086","90636147","Ofv","","","Niedersächsische Staats- und Universitätsbibliothek","Göttingen","2017",""
"026022680","90623487","Ofv","","","Niedersächsische Staats- und Universitätsbibliothek","Göttingen","2017",""
"026022672","90623398","Ofv","","","Niedersächsische Staats- und Universitätsbibliothek","Göttingen","2017",""
"026422115","90692195","Ofv","","","Niedersächsische Staats- und Universitätsbibliothek","Göttingen","2018","Alte Historie"
"026636182","90751493","Ofv","","","Universitäts- und Landesbibliothek Sachsen-Anhalt","Halle, Saale","2019","Vom Fest der h. Dreieinigkeit bis zum Ende des Jahrs"
"026636174","90751485","Ofv","","","Universitäts- und Landesbibliothek Sachsen-Anhalt","Halle, Saale","2019","Vom ersten Advent bis Trinitatis"
"026635933","90751353","Ofv","","","Universitäts- und Landesbibliothek Sachsen-Anhalt","Halle, Saale","2019","Vom Fest der heiligen Dreieinigkeit bis zu Ende des Jahrs"
"026635925","90751345","Ofv","","","Universitäts- und Landesbibliothek Sachsen-Anhalt","Halle, Saale","2019","Vom ersten Advent bis Trinitatis"
"026635720","90751205","Ofv","","","Universitäts- und Landesbibliothek Sachsen-Anhalt","Halle, Saale","2019","Vom Fest der h. Dreieinigkeit bis zum Ende des Jahrs, nebst einem Anhange und Registern"
"026635712","90751191","Ofv","","","Universitäts- und Landesbibliothek Sachsen-Anhalt","Halle, Saale","2019","Vom ersten Advent bis Trinitatis"
