"ppn","vd18_nr","type","printer","printer_gnd","publisher","place","date","title"
"025610457","90541219","Afv","Johann Jakob Gebauer","116473169","Gebauer","Halle","","Welcher das in den neun ersten Heften des Botanikers in der kompendiösen Bibliothek angefangene klassificirte Verzeichniß der in Deutschland gefundenen wildwachsenden Gewächse enthält"
"026525631","90741889","Afv","Johann Justinus Gebauer","116473207","Gebauer","Halle","1737",""
"026525623","90741870","Afv","Johann Justinus Gebauer","116473207","Gebauer","Halle im Magdeburgischen","1737",""
"026522667","90711998","Afv","Johann Justinus Gebauer","116473207","Gebauer","Halle im Magdeburgischen","1739","D. Martin Luthers Gründliche und Erbauliche Auslegung des Ersten Buchs Mosis"
"026522675","90712005","Afv","Johann Justinus Gebauer","116473207","Gebauer","Halle im Magdeburgischen","1740","Welcher die Predigten über das erste B. Mosis, nebst dem, was der sel. Lutherus vom andern Buch Mosis bis zum Psalter ausgelegt, enthält"
"026522721","9071203X","Afv","Johann Justinus Gebauer","116473207","Gebauer","Halle im Magdeburgischen","1741","Welcher die Auslegungen des Evangelisten Matthäi, Lucä und Johannis bis zum 14. Capitel desselben enthält"
"026522713","90712021","Afv","Johann Justinus Gebauer","116473207","Gebauer","Halle","1741","Welcher die Auslegungen derer grossen und kleinen Propheten enthält"
"026522683","90712013","Afv","Johann Justinus Gebauer","116473207","Gebauer","Halle","1741","Welcher die Erklärung derer einzeln Psalmen, zu unterschiedenen Zeiten von ihm verfertiget worden und besonders im Druck heraus gekommen, nebst der Auslegung des Predigers und Hohen Lieds Salomonis, enthält"
"026522772","90712102","Afv","Johann Justinus Gebauer","116473207","Gebauer","Halle im Magdeburgischen","1742","Welcher den Zweyten Theil von der Kirchenpostill, nemlich die Auslegungen derer Episteln auf alle Sonn- und hohe Festtage, wie auch Diejenigen Predigten über verschiedene Evangelische und Epistolische Texte, so weder in der Kirchen- noch Haus-Postill befindlich, enthält"
"026522764","90712099","Afv","Johann Justinus Gebauer","116473207","Gebauer","Halle im Magdeburgischen","1742","Welcher den Ersten Theil von der Kirchenpostill, nemlich die Auslegungen derer Evangelien auf alle Sonn- Fest- und Aposteltage enthält"
"02652273X","90712048","Afv","Johann Justinus Gebauer","116473207","Gebauer","Halle im Magdeburgischen","1742","Welcher die Auslegungen des Evang. Johannis, vom 14. bis zum 20. Cap. wie auch des 15. und 16. Capitels der Apostelgeschicht, des 7. und 15. Cap. der 1. Epistel an die Corinther, und denn die ausführliche Erklärung der Epistel an die Galater enthält"
"026523078","9071220X","Afv","Johann Justinus Gebauer","116473207","Gebauer","Halle im Magdeburgischen","1743","Welcher die Colloquia oder Tischreden, so von Johann Aurifaber mit Fleiß zusammen getragen, und nach den Hauptstücken der Christlichen Lehre und Glaubens verfasset worden, enthält"
"026522780","90712110","Afv","Johann Justinus Gebauer","116473207","Gebauer","Halle","1743","Welcher Die Doppelte Hauspostill, oder Erklärung der Evangelien auf alle Sonn-, Fest- und Aposteltage enthält"
"026522748","90712056","Afv","Johann Justinus Gebauer","116473207","Gebauer","Halle im Magdeburgischen","1743","Welcher die kürzere Erklärung der Epistel an die Galater und die übrigen exegetischen Schriften erbaulich ausgelegt enthält"
"026522802","90712129","Afv","Johann Justinus Gebauer","116473207","Gebauer","Halle im Magdeburgischen","1744","Welcher die Vorreden, auch historische und philologische Schriften enthält, denen die lateinische Bibelversion wegen ihrer besondern Seltenheit beygefüget ist"
"026522756","90712080","Afv","Johann Justinus Gebauer","116473207","Gebauer","Halle im Magdeburgischen","1744","Welcher Die Catechetischen Schriften nach der Ordnung des Catechismi enthält"
"02652287X","90712153","Afv","Johann Justinus Gebauer","116473207","Gebauer","Halle im Magdeburgischen","1745","Welcher die zur Reformationshistorie gehörige Documente von 1538. bis 1546. wie auch diejenigen, welche die Streitigkeiten der Reformirten betreffen, enthält"
"026522861","90712145","Afv","Johann Justinus Gebauer","116473207","Gebauer","Halle","1745","Welcher Die zur Reformationshistorie gehörige Documenten von 1525. bis 1537. enthält, nebst einem Vorbericht von dem Ursprung und Fortgang der Reformation"
"026522810","90712137","Afv","Johann Justinus Gebauer","116473207","Gebauer","Halle","1745","Welcher die zur Reformationshistorie gehörige Documenten von 1517. bis 1524. enthält"
"026522918","9071217X","Afv","Johann Justinus Gebauer","116473207","Gebauer","Halle im Magdeburgischen","1746","Welcher dessen übrige Streitigkeiten mit den Papisten enthält"
"02652290X","90712161","Afv","Johann Justinus Gebauer","116473207","Gebauer","Halle im Magdeburgischen","1746","Welcher die Streitigkeiten mit den Papisten enthält"
"026522950","90712188","Afv","Johann Justinus Gebauer","116473207","Gebauer","Halle im Magdeburgischen","1747","Welcher die Schriften wider die Sacramentirer, Fanaticos, Juden und Türken enthält, nebst einer historischen Einleitung in selbige"
"023873450","90044312","Afv","","","Gebauer","Halle","1747",""
"023873469","90044320","Afv","","","Gebauer","Halle","1748",""
"026523019","90712196","Afv","Johann Justinus Gebauer","116473207","Gebauer","Halle im Magdeburgischen","1749","Welcher die Briefe des seligen Mannes und eine Nachlese enthält"
"024432822","90449576","Afv","Johann Justinus Gebauer","116473207","Gebauer","Halle|||Halle, Saale","1750",""
"023873477","90044339","Afv","","","Gebauer","Halle","1750",""
"026523116","90712226","Afv","Johann Justinus Gebauer","116473207","Gebauer","Halle","1751",""
"02443289X","90335511","Afv","Johann Justinus Gebauer","116473207","Gebauer","Halle","1751",""
"024432881","90335503","Afv","Johann Justinus Gebauer","116473207","Gebauer","Halle","1751",""
"026577690","90735765","Afv","","","bey Johann Justinus Gebauer","Halle","1752","Vom Fest der heiligen Dreieinigkeit bis zu Ende des Jahrs, nebst einem Anhange und Registern"
"026577674","90735757","Afv","","","bey Johann Justinus Gebauer","Halle","1752","Vom ersten Advent bis Trinitatis"
"026577658","90735722","Afv","","","bey Johann Justinus Gebauer","Halle","1752","Vom Fest der h. Dreieinigkeit bis zum Ende des Jahrs, nebst einem Anhange und Registern"
"02657764X","90735714","Afv","","","bey Johann Justinus Gebauer","Halle","1752","Vom ersten Advent bis Trinitatis"
"024432873","9033549X","Afv","Johann Justinus Gebauer","116473207","Gebauer","Halle","1752",""
"023849487","9006934X","Afv","","","Gebauer","Halle","1752",""
"026523094","90712218","Afv","Johann Justinus Gebauer","116473207","Gebauer","Halle im Magdeburgischen","1753","Welcher das Hauptregister nebst einigen Zusätzen enthält"
"025714295","90569393","Afv","Johann Justinus Gebauer","116473207","Gebauer","Halle","1753","Comprenant Les Tomes IV. V. Et VI. De L'Edition De France"
"025710591","90569385","Afv","Johann Justinus Gebauer","116473207","Gebauer","Halle","1753","Comprenant III Tomes De L'Edition De France"
"009490051","90272269","Afv","Johann Justinus Gebauer","116473207","Gebauer","Halle","1753",""
"026636190","90751507","Afv","","","bey Johann Justinus Gebauer","Halle","1754","Vom ersten Advent bis Trinitatis"
"02663614X","90751485","Afv","","","bey Johann Justinus Gebauer","Halle","1754","Vom ersten Advent bis Trinitatis"
"026635879","90751353","Afv","","","bey Johann Justinus Gebauer","Halle","1754","Vom Fest der heiligen Dreieinigkeit bis zu Ende des Jahrs"
"026635852","90751345","Afv","","","bey Johann Justinus Gebauer","Halle","1754","Vom ersten Advent bis Trinitatis"
"025714317","90569407","Afv","Johann Justinus Gebauer","116473207","Gebauer","Halle","1754","Comprenant Les Tomes VII. VIII. Et IX. De L'Edition De France"
"025688502","90569415","Afv","Johann Justinus Gebauer","116473207","Gebauer","Halle","1754","Comprenant Les Tomes X. XI. Et XII. De L'Edition De France"
"023854081","90131819","Afv","","","Gebauer","Halle","1754","Erster Theil von ihrem Ursprung bis an den Tod der Königin Elisabet 1602"
"023849517","90069358","Afv","","","Gebauer","Halle","1754",""
"023183551","90096878","Afv","","","Gebauer","Halle","1754",""
"023183543","9009686X","Afv","","","Gebauer","Halle","1754",""
"009267247","9009817X","Afv","Johann Justinus Gebauer","116473207","Gebauer","Halae","1754","/ ... D. Mart. MDCCLIV. In Academia Fridericiana Regia Ervditorvm Examnini Svbiiciet Carol. Avgvstvs Strvensee. Halensis"
"009265333","90096800","Afv","Johann Justinus Gebauer","116473207","Gebauer","Halae","1754","/ ... Ad Diem Aprilis MDCCLIV. ... Pvblico Placidoqve Ervditorvm Examini Svbiiciet Gotthilf Gvstavvs Vhde, Mezlicha Magdebvrg. S. S. Theol. Cvltor."
"009265317","90096789","Afv","Johann Justinus Gebauer","116473207","Gebauer","Halae","1754","/ ...Ad Diem Aprilis MDCCLIV. ... Pvblico Placidoqve Ervditorvm Examini Svbiiciet Gotthilf Gvstavvs Vhde, Mezlicha Magdebvrg. S. S. Theol. Cvltor."
"026636204","90751515","Afv","","","bey Johann Justinus Gebauer","Halle","1755","Vom Fest Trinitatis bis zu Ende des Jahrs"
"026636158","90751493","Afv","","","bey Johann Justinus Gebauer","Halle","1755","Vom Fest der h. Dreieinigkeit bis zum Ende des Jahrs"
"026635666","90751205","Afv","","","bey Johann Justinus Gebauer","Halle","1755","Vom Fest der h. Dreieinigkeit bis zum Ende des Jahrs, nebst einem Anhange und Registern"
"026635658","90751191","Afv","","","bey Johann Justinus Gebauer","Halle","1755","Vom ersten Advent bis Trinitatis"
"025714341","90569431","Afv","Johann Justinus Gebauer","116473207","Gebauer","Halle","1755","Comprenant Le Tome XVI. De L'Edition De France, Accompagné D'Un Indice Général"
"025714333","90569423","Afv","Johann Justinus Gebauer","116473207","Gebauer","Halle","1755","Comprenant Les Tomes XIII. XIV. Et XV. De L'Edition De France"
"02318356X","90096886","Afv","","","Gebauer","Halle","1755",""
"009490078","90272277","Afv","Johann Justinus Gebauer","116473207","Gebauer","Halle","1755",""
"009427430","9023216X","Afv","Johann Justinus Gebauer","116473207","Gebauer","Halae Magdeburgicae","1755",""
"023873485","90044347","Afv","","","Gebauer","Halle","1756",""
"02631309X","90670752","Afv","Johann Justinus Gebauer","116473207","Gebauer","Halle","1757",""
"023183578","90096894","Afv","","","Gebauer","Halle","1757",""
"026313111","90670787","Afv","Johann Justinus Gebauer","116473207","Gebauer","Halle","1758","Worin auf eines unchristlichen und eingebildeten Christiani Sinceri ganz unnützes Schreiben nützliche und für unsre Kirche höchstwichtige Antwort gegeben wird"
"026313103","90670760","Afv","Johann Justinus Gebauer","116473207","Gebauer","Halle","1758","Enthaltend eine historische und theol. Erleuterung des alten Ausspruchs oratio, meditatio, tentatio faciunt theologum"
"025529862","90519272","Afv","","","bey Johann Justinus Gebauer","Halle","1758",""
"025529838","90519264","Afv","","","bey Johann Justinus Gebauer","Halle","1758",""
"023190671","80334946","Afv","","","Gebauer","Halle","1759",""
"023190663","80334938","Afv","","","Gebauer","Halle","1759",""
"023183586","90096908","Afv","","","Gebauer","Halle","1759",""
"022862064","80089526","Afv","","","Gebauer","Halle","1759",""
"022862048","8008950X","Afv","","","Gebauer","Halle","1759",""
"02286203X","80089496","Afv","","","Gebauer","Halle","1760",""
"023873493","90044355","Afv","","","Gebauer","Halle","1761",""
"023183594","90096916","Afv","","","Gebauer","Halle","1761",""
"023178817","90115295","Afv","","","Gebauer und Stettin","Halle","1761",""
"024695408","90398866","Afv","Johann Immanuel Gebauer","1037512014","Gebauer","Halle","1762",""
"023183608","90096924","Afv","","","Gebauer","Halle","1762",""
"023178825","90115309","Afv","","","Gebauer und Stettin","Halle","1762",""
"022868372","80098924","Afv","","","Gebauer und Stettin","Halle","1762","Erster Theil von ihrem Ursprung bis an den Tod der Königin Elisabet 1602"
"023222689","80462065","Afv","","","Gebauer","Halle","1763",""
"023222670","80462057","Afv","","","Gebauer","Halle","1763",""
"023178833","90115317","Afv","","","Gebauer und Stettin","Halle","1763",""
"023222697","80462073","Afv","","","Gebauer","Halle","1764",""
"02317885X","90115333","Afv","","","Gebauer und Stettin","Halle","1764",""
"023178841","90115325","Afv","","","Gebauer und Stettin","Halle","1764",""
"020840179","90361490","Afv","Johann Justinus Gebauer","","Gebauer","Halle","1764",""
"023873507","90044363","Afv","","","Gebauer","Halle","1765",""
"023222700","80462081","Afv","","","Gebauer","Halle","1765",""
"023178868","90115341","Afv","","","Gebauer und Stettin","Halle","1765",""
"020840187","90361539","Afv","Johann Justinus Gebauer","","Gebauer","Halle","1765",""
"026330016","90692195","Afv","","","bey Johann Justinus Gebauer","Halle","1766","Alte Historie"
"023222727","80462103","Afv","","","Gebauer","Halle","1766",""
"023222719","8046209X","Afv","","","Gebauer","Halle","1766",""
"020840195","90361571","Afv","Johann Justinus Gebauer","","Gebauer","Halle","1766","... Nebst vollständigen Registern"
"023166983","90139321","Afv","","","Gebauer","Halle","1767",""
"023166975","90139291","Afv","","","Gebauer","Halle","1767",""
"023080868","80253105","Afv","","","Gebauer","Halle","1767","Neue Historie ; Bd. 1"
"023222743","8046212X","Afv","","","Gebauer","Halle","1768",""
"023222735","80462111","Afv","","","Gebauer","Halle","1768",""
"023167009","90139372","Afv","","","Gebauer","Halle","1768",""
"023166991","90139348","Afv","","","Gebauer","Halle","1768",""
"023080884","80253121","Afv","","","Gebauer","Halle","1768","Neue Historie ; Bd. 3"
"023080876","80253113","Afv","","","Gebauer","Halle","1768","Neue Historie ; Bd. 2"
"023183624","90096940","Afv","","","Gebauer","Halle","1769",""
"023183616","90096932","Afv","","","Gebauer","Halle","1769",""
"023167025","90139402","Afv","","","Gebauer","Halle","1769",""
"023167017","90139399","Afv","","","Gebauer","Halle","1769",""
"023080906","80253148","Afv","","","Gebauer","Halle","1769","Neue Historie ; Bd. 5"
"023080892","8025313X","Afv","","","Gebauer","Halle","1769","Neue Historie ; Bd. 4"
"023183632","90096959","Afv","","","Gebauer","Halle","1770",""
"023167041","90139437","Afv","","","Gebauer","Halle","1770",""
"023167033","90139429","Afv","","","Gebauer","Halle","1770",""
"023080922","80253164","Afv","","","Gebauer","Halle","1770","Neue Historie ; Bd. 7"
"023080914","80253156","Afv","","","Gebauer","Halle","1770","Neue Historie ; Bd. 6"
"023861436","90132629","Afv","","","Gebauer","Halle","1771",""
"02316705X","90139445","Afv","","","Gebauer","Halle","1771",""
"023104155","80272916","Afv","","","Gebauer","Halle","1771",""
"023104147","80272908","Afv","","","Gebauer","Halle","1771",""
"023080949","80253180","Afv","","","Gebauer","Halle","1771","Neue Historie ; Bd. 9"
"023080930","80253172","Afv","","","Gebauer","Halle","1771","Neue Historie ; Bd. 8"
"026651904","90668480","Afv","","","bey J. Just. Gebauers Witwe und J. Jac. Gebauer","Halle","1772","Der Feldbau"
"024951307","90426444","Afv","Marie Sophie Gebauer|||Johann Jakob Gebauer","1045265640|||116473169","Gebauer","Halle","1772",""
"023167068","90139453","Afv","","","Gebauer","Halle","1772",""
"023080957","80253199","Afv","","","Gebauer","Halle","1772","Neue Historie ; Bd. 10"
"024951323","90426452","Afv","Marie Sophie Gebauer|||Johann Jakob Gebauer","1045265640|||116473169","Gebauer","Halle","1773",""
"023080973","80253210","Afv","","","Gebauer","Halle","1773","Neue Historie ; Bd. 12"
"023080965","80253202","Afv","","","Gebauer","Halle","1773","Neue Historie ; Bd. 11"
"02495134X","90426460","Afv","Marie Sophie Gebauer|||Johann Jakob Gebauer","1045265640|||116473169","Gebauer","Halle","1774",""
"023864567","90031709","Afv","","","Gebauer","Halle","1774",""
"023823917","90059867","Afv","","","Gebauer","Halle","1774",""
"023823909","90059859","Afv","","","Gebauer","Halle","1774",""
"023823895","90059840","Afv","","","Gebauer","Halle","1774",""
"023823887","90059832","Afv","","","Gebauer","Halle","1774",""
"023823879","90059824","Afv","","","Gebauer","Halle","1774",""
"023823860","90059816","Afv","","","Gebauer","Halle","1774",""
"023823852","90059808","Afv","","","Gebauer","Halle","1774",""
"023823844","90059794","Afv","","","Gebauer","Halle","1774",""
"023823836","90059786","Afv","","","Gebauer","Halle","1774",""
"023823828","90059778","Afv","","","Gebauer","Halle","1774",""
"02382381X","9005976X","Afv","","","Gebauer","Halle","1774",""
"023823801","90059751","Afv","","","Gebauer","Halle","1774",""
"02308099X","80253237","Afv","","","Gebauer","Halle","1774","Neue Historie ; Bd. 14"
"023080981","80253229","Afv","","","Gebauer","Halle","1774","Neue Historie ; Bd. 13"
"02656694X","90730232","Afv","Johann Justinus Gebauer Erben|||Johann Jakob Gebauer","6146495-8|||116473169","J. J. Gebauers Witwe||Joh. Jacob Gebauer","Halle","1775",""
"023864575","90031717","Afv","","","Gebauer","Halle","1775",""
"023081007","80253245","Afv","","","Gebauer","Halle","1775","Neue Historie ; Bd. 15"
"009180397","90011813","Afv","Johann Justinus Gebauer Erben|||Johann Jakob Gebauer|||Marie Sophie Gebauer","6146495-8|||116473169|||1045265640","Gebauer","Halle","1775","Mit Kupfern"
"026567016","90730275","Afv","Johann Justinus Gebauer Erben|||Johann Jakob Gebauer","6146495-8|||116473169","J. J. Gebauers Witwe||Joh. Jacob Gebauer","Halle","1776",""
"024951366","90426479","Afv","Marie Sophie Gebauer|||Johann Jakob Gebauer","1045265640|||116473169","Gebauer","Halle","1776",""
"023864583","90031725","Afv","","","Gebauer","Halle","1776",""
"009180419","90011821","Afv","Johann Jakob Gebauer","116473169","Gebauer","Halle","1776","Mit Kupfern"
"026054051","90636147","Afv","","","bey Johann Jacob Gebauer","Halle","1777",""
"025499785","90509773","Afv","","","bey Johann Jacob Gebauer","Halle","1777",""
"023864591","90031733","Afv","","","Gebauer","Halle","1777",""
"023081023","80253261","Afv","","","Gebauer","Halle","1777","Neue Historie ; Bd. 17"
"023081015","80253253","Afv","","","Gebauer","Halle","1777","Neue Historie ; Bd. 16"
"026608596","90746589","Afv","Johann Jakob Gebauer","116473169","Gebauer","Halle","1778",""
"026608588","90746546","Afv","Johann Jakob Gebauer","116473169","Gebauer","Halle","1778",""
"02605406X","90636155","Afv","","","bey Johann Jacob Gebauer","Halle","1778",""
"023946148","90198441","Afv","","","Gebauer","Halle","1778",""
"023864613","9003175X","Afv","","","Gebauer","Halle","1778",""
"023864605","90031741","Afv","","","Gebauer","Halle","1778",""
"02308104X","80253288","Afv","","","Gebauer","Halle","1778","Neue Historie ; Bd. 19"
"023081031","8025327X","Afv","","","Gebauer","Halle","1778","Neue Historie ; Bd. 18"
"02101616X","11524634","Afv","Johann Jakob Gebauer","","Gebauer","Halae","1778","Epistolarum Historico-Ecclesiasticarum Seculo XVI. A Celeberrimis Viris Scriptarum Semicenturia : Ex Autographis Et Apographis Fide Dignis Descripsit Ac Primum Edidit"
"00918760X","90015630","Afv","Johann Jakob Gebauer","116473169","Gebauer","Halae","1778","De Editionibvs Textvs Originalis"
"023946164","90198468","Afv","","","Gebauer","Halle","1779","Anhang zu den Materialien zu einer neuen Erklärung des Hohenliedes"
"023946156","9019845X","Afv","","","Gebauer","Halle","1779",""
"02386463X","90031776","Afv","","","Gebauer","Halle","1779",""
"023864621","90031768","Afv","","","Gebauer","Halle","1779",""
"023081058","80253296","Afv","","","Gebauer","Halle","1779","Neue Historie ; Bd. 20"
"022885080","8013162X","Afv","","","Gebauer","Halle","1779",""
"023946970","90320174","Afv","Johann Jakob Gebauer","","Gebauer","Halae","1780","Epistolarum Historico-Ecclesiasticarum Seculo XVI. et XVII. A Celeberrimis Viris Scriptarum Semicenturia Altera : Ex Autographis Et Apographis Fide Dignis Descripsit, Editit Ac Notulis Illustravit"
"023864648","90031784","Afv","","","Gebauer","Halle","1780",""
"022885250","80131794","Afv","","","Gebauer","Halle","1780",""
"022885242","80131786","Afv","","","Gebauer","Halle","1780",""
"026026538","90624483","Afv","Johann Jakob Gebauer","116473169","Gebauer","Halle","1781",""
"025882228","90621727","Afv","Johann Jakob Gebauer","116473169","Gebauer","Halle","1781",""
"023864656","90031792","Afv","","","Gebauer","Halle","1781",""
"023861495","90027833","Afv","","","Gebauer","Halle","1781",""
"023861487","90027825","Afv","","","Gebauer","Halle","1781",""
"022885129","80131662","Afv","","","Gebauer","Halle","1781",""
"009187642","90015657","Afv","Johann Jakob Gebauer","116473169","Gebauer","Halae","1781","De Versionibvs Graecis"
"009187626","90015649","Afv","Johann Jakob Gebauer","116473169","Gebauer","Halae","1781","De Versionibvs Orientalibvs"
"023864680","90031822","Afv","","","Gebauer","Halle","1782",""
"023864672","90031814","Afv","","","Gebauer","Halle","1782",""
"023864664","90031806","Afv","","","Gebauer","Halle","1782",""
"023861517","9002785X","Afv","","","Gebauer","Halle","1782",""
"023861509","90027841","Afv","","","Gebauer","Halle","1782",""
"022885099","80131638","Afv","","","Gebauer","Halle","1782",""
"023864699","90031830","Afv","","","Gebauer","Halle","1783",""
"023194189","80338232","Afv","","","Gebauer","Halle","1783",""
"022915966","80211968","Afv","","","Gebauer","Halle","1783",""
"022812474","8001951X","Afv","","","Gebauer","Halle","1783","Von den Schnecken : Nebst drey Kupfertafeln"
"009486356","90270118","Afv","Johann Jakob Gebauer","116473169","Gebauer","Halle","1783",""
"009187685","90015673","Afv","Johann Jakob Gebauer","116473169","Gebauer","Halae","1783",""
"02445608X","90376846","Afv","Johann Jakob Gebauer","116473169","Gebauer","Halle","1784",""
"023864710","90031857","Afv","","","Gebauer","Halle","1784",""
"023864702","90031849","Afv","","","Gebauer","Halle","1784",""
"022812482","80019528","Afv","","","Gebauer","Halle","1784","Zweyter Band : Nebst vier Kupfertafeln"
"009485481","90269624","Afv","Johann Jakob Gebauer","116473169","Gebauer","Halle","1784",""
"025312316","90482751","Afv","Johann Jakob Gebauer","116473169","Gebauer","Halle","1785",""
"023864737","90031873","Afv","","","Gebauer","Halle","1785",""
"023864729","90031865","Afv","","","Gebauer","Halle","1785",""
"023194227","80338275","Afv","","","Gebauer","Halle","1785",""
"009187707","90015681","Afv","Johann Jakob Gebauer","116473169","Gebauer","Halae","1785",""
"025312324","90482743","Afv","Johann Jakob Gebauer","116473169","Gebauer","Halle","1786",""
"02445611X","90376862","Afv","Johann Jakob Gebauer","116473169","Gebauer","Halle","1786",""
"023864753","9003189X","Afv","","","Gebauer","Halle","1786",""
"023864745","90031881","Afv","","","Gebauer","Halle","1786",""
"023827688","90063007","Afv","","","Gebauer","Halle","1786",""
"022812490","80019536","Afv","","","Gebauer","Halle","1786","Dritter und letzter Band : Nebst zwey Kupfertafeln"
"009486372","90270126","Afv","Johann Jakob Gebauer","116473169","Gebauer","Halle","1786",""
"023081066","8025330X","Afv","","","Gebauer","Halle","1787","Neue Historie ; Bd. 21"
"022723692","80396089","Afv","","","Gebauer","Halle","1787","Allgemeine Einleitung. Kenntniß des Pflanzenkörpers, seiner Theile und seines Lebens. Wissenschaftliche Behandlung des Pflanzenreichs"
"015710025","90043057","Afv","","","Gebauer","Halle","1787","bis auf Rudolf von Habsburg"
"026209403","90622189","Afv","","","bey Johann Jacob Gebauer","Halle","1788","Epochen der Ideen von einem Geist, von Gott und der menschlichen Seele. System und Aechtheit der beiden Pythagoreer, Ocellus und Timäus"
"023081082","80253326","Afv","","","Gebauer","Halle","1788","Neue Historie ; Bd. 23"
"023081074","80253318","Afv","","","Gebauer","Halle","1788","Neue Historie ; Bd. 22"
"022723706","80396097","Afv","","","Gebauer","Halle","1788","Merkwürdige Arten der Gewächse nach ihren Aehnlichkeiten geordnet. Anbau und Benutzung"
"015710033","90043065","Afv","","","Gebauer","Halle","1788","bis auf Albrecht den Zweyten"
"023867256","90035682","Afv","","","Gebauer","Halle","1789","Vom Abgange des Fränkischen Kaiserstammes an, bis zur Erwählung Rudolf's von Habsburg zum Könige von Teutschland. 1125 bis 1273"
"023867248","90035674","Afv","","","Gebauer","Halle","1789","Von den ältesten Zeiten an, bis zum Abgange des Fränkischen Kaiserstammes im J. C. 1125"
"023256869","9060136X","Afv","","","bey Johann Jacob Gebauer","Halle","1789",""
"023207264","80349854","Afv","","","Gebauer","Halle","1789",""
"023207256","80349846","Afv","","","Gebauer","Halle","1789",""
"023081104","80253342","Afv","","","Gebauer","Halle","1789","Neue Historie ; Bd. 25"
"023081090","80253334","Afv","","","Gebauer","Halle","1789","Neue Historie ; Bd. 24"
"015710041","90043073","Afv","","","Gebauer","Halle","1789","bis auf den Schmalkaldischen Krieg"
"005389488","10401199","Afv","Johann Jakob Gebauer","116473169","Gebauer","Halle","1789",""
"023867272","90035712","Afv","","","Gebauer","Halle","1790","Von der Erwählung Rudolf's von Habsburg zum Könige von Teutschland an, bis zum Ende der Regierung Friederich des Dritten. 1273 bis 1493. : Geschichte vom Tode Karl des Vierten an, bis zur Erwählung Friederich des Dritten. 1378 bis 1440"
"023867264","90035704","Afv","","","Gebauer","Halle","1790","Von der Erwählung Rudolf's von Habsburg zum Könige von Teutschland an, bis zum Ende der Regierung Friederich des Dritten. 1273 bis 1493. : Geschichte von Rudolf's Thronbesteigung an, bis zum Ende der Regierung Karl des Vierten. 1273 bis 1378"
"023864761","90031903","Afv","","","Gebauer","Halle","1790",""
"023081120","80253369","Afv","","","Gebauer","Halle","1790","Neue Historie ; Bd. 27"
"023081112","80253350","Afv","","","Gebauer","Halle","1790","Neue Historie ; Bd. 26"
"01571005X","90043081","Afv","","","Gebauer","Halle","1790","bis auf den dreyßigjährigen Krieg"
"009187723","9001569X","Afv","Johann Jakob Gebauer","116473169","Gebauer","Halae","1790",""
"026210576","90643348","Afv","","","bey Johann Jacob Gebauer","Halle","1791","Taf. I-VI. Fig. 1-140"
"026019132","90623398","Afv","","","bey Johann Jacob Gebauer","Halle","1791",""
"02394997X","90315294","Afv","","","Gebauer","Halle","1791",""
"023949961","90315286","Afv","","","Gebauer","Halle","1791",""
"023867302","90035747","Afv","","","Gebauer","Halle","1791","Maximilian der Erste : 1493 - 1519"
"023867299","90035739","Afv","","","Gebauer","Halle","1791","Von der Erwählung Rudolf's von Habsburg zum Könige von Teutschland an, bis zum Ende der Regierung Friederich des Dritten. 1273 bis 1493. : Staatsverfassung während dieser Periode"
"023867280","90035720","Afv","","","Gebauer","Halle","1791","Von der Erwählung Rudolf's von Habsburg zum Könige von Teutschland an, bis zum Ende der Regierung Friederich des Dritten. 1273 bis 1493. : Geschichte während der Regierung des Kaisers Friederich des Dritten. 1440 bis 1493"
"023865490","90033159","Afv","","","Gebauer","Halle","1791",""
"02386477X","90031911","Afv","","","Gebauer|||Macklot","Halle|||Frankfurt","1791","1600 - 1609"
"023256877","90601378","Afv","","","bey Johann Jacob Gebauer","Halle","1791",""
"023042060","90534824","Afv","","","bei Johann Jacob Gebauer","Halle","1791","Geschichte der Neusten Weltbegebenheiten seit dem Jahre 1740"
"023042052","90534832","Afv","","","bei Johann Jacob Gebauer","Halle","1791","Geschichte der Drei Neuern Jahrhunderte bis zum Jahre 1740"
"015710068","9004309X","Afv","","","Gebauer","Halle","1791","Geschichte des dreyßigjährigen Kriegs"
"026019140","90623487","Afv","","","bey Johann Jacob Gebauer","Halle","1792",""
"023949988","90315308","Afv","","","Gebauer","Halle","1792",""
"023867329","90035763","Afv","","","Gebauer","Halle","1792","Ferdinand der Erste : 1558 - 1564"
"023867310","90035755","Afv","","","Gebauer","Halle","1792","Karl der Fünfte : 1519 - 1558. Nebst einem Anhange"
"023865504","90033167","Afv","","","Gebauer","Halle","1792",""
"023864788","9003192X","Afv","","","Gebauer|||Macklot","Halle|||Frankfurt","1792","1609 - 1614"
"015731189","90563050","Afv","","","bei Johann Jacob Gebauer","Halle","1792",""
"015710076","90043103","Afv","","","Gebauer","Halle","1792","bis zum nimwegischen Frieden"
"02527239X","9005363X","Afv","","","Nemnich ; Müller|||Gebauer","Hamburg|||Halle","1793","[A - Can]"
"025271881","90053648","Afv","","","Nemnich ; Müller|||Gebauer","Hamburg|||Halle","1793","Cap - Fus"
"023877731","9005363X","Afv","","","Nemnich ; Müller|||Gebauer","Hamburg|||Halle","1793","[A - Can]"
"023867337","90035771","Afv","","","Gebauer","Halle","1793","Maximilian der Zweite : 1564 - 1576"
"023864796","90031938","Afv","","","Gebauer|||Macklot","Halle|||Frankfurt","1793","1615 - 1620"
"015731197","90563069","Afv","","","bei Johann Jacob Gebauer","Halle","1793",""
"015710084","90043111","Afv","","","Gebauer","Halle","1793","Bis zum Tode Kaiser Josephs I"
"009486259","90270061","Afv","Johann Jakob Gebauer","116473169","Gebauer","Gotha||Halle","1793",""
"026646323","90680669","Afv","","","Bey Licentiat Nemnich|||Bey Johann Jacob Gebauer|||bey Adam Friedrich Böhme|||gedruckt von Conrad Müller","Zu Finden Hamburg|||Und Halle|||Leipzig|||Hamburg","1794","A - K : Nebst einer vorangehenden allgemeinen Literatur"
"025305824","9047337X","Afv","Johann Jakob Gebauer","116473169","Gebauer","Halle","1794",""
"025272403","90053656","Afv","","","Nemnich ; Müller|||Gebauer","Hamburg|||Halle","1794","G - N"
"023867353","90035801","Afv","","","Gebauer","Halle","1794","Die ersten zwanzig Jahre der Regierung Rudolf des Zweiten : 1576 - 1597. Andere Hälfte: L - Z"
"023867345","90035798","Afv","","","Gebauer","Halle","1794","Die ersten zwanzig Jahre der Regierung Rudolf des Zweiten : 1576 - 1597. Erste Hälfte: A - K"
"02386480X","90031946","Afv","","","Gebauer|||Macklot","Halle|||Frankfurt","1794","1621 - 1628"
"02293166X","9066065X","Afv","","","bey Johann Jacob Gebauer","Gotha und Halle","1794",""
"016610326","90202694","Afv","","","Gebauer","Halle","1794",""
"015731200","90563077","Afv","","","bei Johann Jacob Gebauer","Halle","1794",""
"02527189X","90053664","Afv","","","Nemnich ; Müller|||Gebauer","Hamburg|||Halle","1795","O - Z"
"023864818","90031954","Afv","","","Gebauer|||Macklot","Halle|||Frankfurt","1795","1629 - 1634"
"023180897","90121090","Afv","","","Gebauer","Halle","1795",""
"016610369","90202724","Afv","","","Gebauer","Halle","1795",""
"016610350","90202716","Afv","","","Gebauer","Halle","1795",""
"016610342","9020252X","Afv","","","Gebauer","Halle","1795",""
"016610334","90202708","Afv","","","Gebauer","Halle","1795",""
"009486275","9027007X","Afv","Johann Jakob Gebauer","116473169","Gebauer","Eisenach||Halle","1795",""
"009486038","90269942","Afv","Johann Jakob Gebauer","116473169","Gebauer","Eisenach||Halle","1795",""
"026645300","90680685","Afv","","","Bey Licentiat Nemnich|||Bey Johann Jacob Gebauer|||bey Adam Friedrich Böhme|||gedruckt von Conrad Müller","Zu Finden Hamburg|||Und Halle|||Leipzig|||Hamburg","1796","L - Z"
"022931678","90660668","Afv","","","bey Johann Jacob Gebauer","Gotha und Halle","1796",""
"009486054","90269950","Afv","Johann Jakob Gebauer","116473169","Gebauer","Eisenach||Halle","1796",""
"026523868","90712390","Afv","Johann Jakob Gebauer","116473169","Gebauer","Halle","1797","A - H"
"024464368","90390555","Afv","Johann Jakob Gebauer","116473169","Gebauer","Halle","1797",""
"022931686","90660676","Afv","","","bey Johann Jacob Gebauer","Gotha und Halle","1797",""
"009486313","90270096","Afv","Johann Jakob Gebauer","116473169","Gebauer","Eisenach||Halle","1797",""
"009486291","90270088","Afv","Johann Jakob Gebauer","116473169","Gebauer","Eisenach||Halle","1797",""
"026652277","9068074X","Afv","","","Bey Licentiat Nemnich|||Bey Johann Jacob Gebauer|||bey Adam Friedrich Böhme|||gedruckt von Conrad Müller","Zu Finden Hamburg|||Und Halle|||Leipzig|||Hamburg","1798","1) Holländischer Index. 2) Dänischer Index. 3) Schwedischer Index. 4) Englischer Index. 5) Französischer Index. 6) Italiänischer Index. 7) Spanischer Index. 8) Portugiesischer Index. 9) Anhang zur Literatur. 10) Anhang zum Hauptwerk. 11) Anhang zum dänischen Index. 12) Anhang zum englischen Index. 13) Anhang zum italiänischen Index. 14) Anhang zum spanischen Index"
"026523876","90712404","Afv","Johann Jakob Gebauer","116473169","Gebauer","Halle","1798","I - M"
"024464341","90390547","Afv","Johann Jakob Gebauer","116473169","Gebauer","Halle","1798",""
"023864826","90031962","Afv","","","Gebauer|||Macklot","Halle|||Frankfurt","1798","1635 - 1641"
"026523906","90712412","Afv","Johann Jakob Gebauer","116473169","Gebauer","Halle","1799","N - Seee"
"025712713","90568818","Afv","Johann Jakob Gebauer","116473169","Gebauer","Halae","1799","Promethevs Vinctvs Et Septem Adversvs Thebas"
"025305832","90473388","Afv","Johann Jakob Gebauer","116473169","Gebauer","Halle","1799",""
"023737727","90610393","Afv","","","bei Johann Jacob Gebauer","Halle","1799",""
"009425055","90230485","Afv","Johann Jakob Gebauer","116473169","Gebauer","Halle","1799",""
"026523922","90712420","Afv","Johann Jakob Gebauer","116473169","Gebauer","Halle","1800","Seef - Z"
"026264900","90678583","Afv","Johann Jakob Gebauer","116473169","Gebauer","Halae Magdeburgicae","1800",""
"025712772","90568834","Afv","Johann Jakob Gebauer","116473169","Gebauer","Halae","1800","In Persas Et Agamemnonem"
"009425071","90230493","Afv","Johann Jakob Gebauer","116473169","Gebauer","Halle","1800",""
"026264919","90678591","Afv","Johann Jakob Gebauer","116473169","Gebauer","Halae Magdeburgicae","1801",""
"025712764","90568826","Afv","Johann Jakob Gebauer","116473169","Gebauer","Halae","1801","Persae et Agamemnon"
"024464384","90390563","Afv","Johann Jakob Gebauer","116473169","Gebauer","Halle","1801",""
"026198401","90610407","Afv","","","bei Johann Jacob Gebauer","Halle","1803",""
"024464422","9039058X","Afv","Johann Jakob Gebauer","116473169","Gebauer","Halle","1804",""
"024464406","90390571","Afv","Johann Jakob Gebauer","116473169","Gebauer","Halle","1804",""
