"ppn","vd18_nr","type","printer","printer_gnd","publisher","place","date","title"
"005973570","10812180","Aav","Johann Justinus Gebauer","116473207","Gebauer","Halle","1735","Des sel. Hn. D. Mart. Luthers Kleiner Catechismus, ohne und mit der Auslegung, Nebenst denen Frage-Stücken und Haus-Tafel für die Christliche Gemeine, welchen aus Liebe und Hochachtung"
"00593429X","10781420","Aav","Johann Justinus Gebauer","116473207","[Gebauer]","[Halle]","1735","Blahoslawené Paměti Pána Doktora Martina Luthera Katechysmus menssj bez a s Wýkladem, ..."
"006972152","11525584","Aav","Johann Justinus Gebauer","116473207","Gebauer","Halle im Magdeburgischen","1736","Joh. Daniel Intelmanns, Stadt-Buchhalters, und bey der Kunst-Rechnungs- lieb- und übenden Societät des Inclinirenden, Arithmetischer Wegweiser, Oder nach Ehst- und Liefländischer Handlung gründlich eingerichtetes Erstes Revalsches Rechenbuch"
"005977266","10815171","Aav","Johann Justinus Gebauer","116473207","Gebauer","W Halli","1736","Naučenj O Začatku Křestanského Žiwota, w čtyrech časikách obsažené ..."
"005940915","10786686","Aav","Johann Justinus Gebauer","116473207","Gebauer","Halle im Magdeburgischen","1736","Der gesegnete Gebrauch Der Kirchen-Postill des sel. Lutheri"
"005934125","10781315","Aav","Johann Justinus Gebauer","116473207","Gebauer","Halle im Magedeburgischen","1736","D. Martini Lutheri Trostreiche Erklärung Der Letzten Reden Christi, Welche nach eingesetztem Abendmahl Als Holdselige und recht tröstliche Worte zur Stärckung seiner Jünger aus seinem Munde geflossen Und Joh. 14.15. und 16. aufgeschrieben sind, Nebst dem Hohen Priesterl. Gebet Christi Johann am 17. Und einer Beylage aus Gal. I, 4. ... Wie auch einem dreyfachen Register"
"00590076X","10756035","Aav","","","Gebauer","Halle","1736","Der bey Ergreiffung des Verdienstes Christi unter vielem Kampf Gestärckte Glaube, wurde am Oster-Dienstage 1736. nach Anleitung des ordentlichen Fest-Evangelii der Christlichen Gemeine in Morungen in einer Predigt vorgestellet, und nachhero auf Hohe Veranlassung dem Druck übergeben"
"005181666","10294651","Aav","Johann Justinus Gebauer","116473207","Gebauer","Halle","1736","Gegründete und durch die Erfahrung bestättigte Vorschläge von der Leichtesten und deutlichsten Lehr-Art in einer öffentlichen Stadt-Schule"
"004835654","10097376","Aav","Johann Justinus Gebauer","116473207","Gebauer","w Halli","1736","Krátký Wýtah Učenj Krestianského o Bohu, a o Cžłowéku"
"005256429","10330798","Aav","Johann Justinus Gebauer","116473207","Gebauer","Halle im Magdeburgischen","1737","D. Martin Luthers Vollständige Auslegung der Epistel St. Pauli an die Galater"
"004814916","10084665","Aav","Johann Justinus Gebauer","116473207","Gebauer","Halle im Magdeburgischen","1737","D. Martin Luthers Aus dem ersten Exemplar in 4to 1530. aufs neue mitgetheilter Widerruf Vom Fege-Feuer"
"024349224","10780785","Aav","Johann Justinus Gebauer Erben","6146495-8","Gebauer","Halle im Magdeburgischen","1738","An dem Tage, Da die Tugend mit verdientem Lohne prangt, Und Herr Schmidt Die Lodemannin, Seiner Wünsche Ziel, erlangt, Will mit Jlfelds Charitinnen auf ein Hochzeit-Carmen sinnen C. F. von Lobenthal"
"021170959","11665017","Aav","Johann Justinus Gebauer","","Gebauer","Halle","1739","Die Rechte Gestalt der Wahren Freyheit"
"005992087","10826726","Aav","Waisenhaus","2133444-4","Gebauer","Halae Magdeburgicae","1739","Monvmentvm Svpremvm Memoriae Theologi Pietate Pariter Atqve Doctrina Admodvm Insigis Viri Svmme Reverendi Amplissimiqve Ioannis Anastasii Freylinghavsen Ad D. Vlrici Pastoris Div Meritissimi Gymnasii Scholarchae Spectatissimi ... Qvvm XIII Calend. Mart. MDCCXXXVIIII Fvnvs Beati Viri Christiano Ritv Dvrectvr Consecratvm Ab Inspectoribvs Praeceptoribvs Et Alvmnis Scholae Latinae Orphanotrophei"
"005882559","10742867","Aav","Johann Justinus Gebauer","116473207","Gebauer","Halle im Magdeburgischen","1739","Als Ein Hochgeschätzter Freund Vom Geschlecht der Wehrten Frommen Sich Zur lieben Ehgattin eine Berlischkinn genommen, wiedmete Dem Neuen Paare Schuld und Pflicht und Wunsch und Reim Ein ergebner Anverwandter Johann Wilhelm Ludwig Gleim. LL. C."
"004791223","10069895","Aav","Johann Justinus Gebauer","116473207","Gebauer","Halle","1739","Vier Gespräche Eines Evangel. Predigers, Mit einem Juden"
"02529217X","10086676","Aav","Johann Justinus Gebauer","116473207","Gebauer","Halle im Magdeburgischen","1740","Bey dem Absterben Der Hochedlen und Tugendreichen Frauen Sabina Catharina Frickin, gebohrnen Bornemannin"
"00948504X","90269403","Aav","Johann Justinus Gebauer","116473207","Gebauer","Halle im Magdeburgischen","1740","Das schmerzliche Absterben Der Hoch- Wohl- Gebohrnen Frauen, Frauen Annen Sab. Christophorin Freyin von Seckendorf Geb. von Krosigk, Welches Den 15. May 1740. Jn der Kayserlichen Residenz-Stadt Wien erfolgte, Beklagen ... Der seligst Verstorbenen Betrübter Bruder und Schwester, Carl Gebhard Vollrath von Krosigk. Helena Lucretia von Krosigk"
"005908876","10761780","Aav","Johann Justinus Gebauer","116473207","[Gebauer]","[Halle]","1740","Uusi Testamenti"
"025293869","1077517X","Aav","Johann Justinus Gebauer","116473207","Gebauer","Halle","1741","Als des Hoch-Edelgebohrnen und Hochgelahrten Herrn, Herrn Johann Junckers, Der Arzneygelahrtheit Doctoris, und öffentlichen Lehrers auf hiesiger Friedrichs-Universität, liebgewesenes jüngstes  Söhnlein Johann Wilhelm Juncker, Den 13. Nov. 1741 sanft verschied, Und den 15. darauf zur Erden bestattet wurde, wolte sein schuldigstes Beyleid ergebenst bezeugen C. D. B."
"025293737","10746072","Aav","Johann Justinus Gebauer","116473207","Gebauer","Halle","1741","Bei der Beerdigung Des Wohledlen und Wohlgelahrten Herrn Hn. Christian Daniel Beurers aus Nürnberg der Arzneigelahrtheit Candidati suchten Demselben hiedurch die letzte Pflicht wehmüthig zu erweisen einige des Selig Verstorbenen vertraute Feunde aus dem unter der Aufsicht Sr. Hochedelgebohrnen des Herrn Prof. Junkers sich übenden Collegio Clinico L. F. H., M. J. B., M.  G. F. S.,  G. L. G., J. W. T., C. B. H., H. F. D. , P. N. N. Den 11. Decembr. 1741"
"020129165","10217789","Aav","Johann Christian Grunert|||Johann Justinus Gebauer","","Grunert und Gebauer","Halle","1741","Oeffentliche Jubelzeugnisse, welche, bey dem von einigen Buchdruckern zu Halle den 25 Jul. 1740 Erneuerten Andenken der vor dreyhundert Jahren erfundenen Buchdruckerkunst, von der Hochlöbl. Friedrichsunversität und andern gelehrten Gönnern feyerlichst abgeleget worden"
"009401393","90215834","Aav","Johann Justinus Gebauer","116473207","Gebauer","Halle","1741","Sr. Magnificentz Dem Hochwürdigen in Gott andächtigen und Hochgelahrten Herrn Herrn D. Joachim Langen Hochberühmten ordentlichen Professor und Senior der Theologischen Facultät auf der Königl. Preuß. Friedrichsuniversität ... Wollten bey der dritten Ubernehmung des Prorectorats ihre gehorsamste Ergebenheit bezeigen Jnspektor und Seniores wie auch sämtliche Mitglieder des Königl. Seminar. Theol."
"009280952","90107330","Aav","Johann Justinus Gebauer","116473207","Gebauer","Halle Magdeburgicae","1741","Als der Wohlgebohrne Hochgelahrte und Hocherfahrne Herr, Herr Friedrich Hoffmann, Sr. Königl. Majestät in Preussen Hochbetrauter Geheimbder Rath und Leib-Medicus ... Den 3ten Mertz im Jahr 1741. Sein 82stes Geburts-Fest vergnügt feyerte, Sollte dazu aufrichtigst Glück wünschen Sr. Wohlgebohrnen gehorsamst verbundensten Diener Johann Gottlob Krüger."
"005992001","10826688","Aav","Johann Justinus Gebauer","116473207","Gebauer","Halae","1741","Monvmentvm Amoris Qvod Nvptiis Werderiano Waltherianis d. Ivl. MDCCXXXXI. Feliciter Celebratis Grata Mente Posvit Vrbanvs Levin Gabriel Lvedecke Ivrivm Cvltor"
"005923441","10772928","Aav","","","Gedruckt bey Johann Justinus Gebauer","Halle","1741","Das von Werder- und Walthersche Hochzeitfest in einer Ode besungen"
"025293834","10773312","Aav","Johann Justinus Gebauer","116473207","Gebauer","Halle","1742","Als Der Wohlgebohrne, Hochgelahrte und Hocherfahrne Herr,  Herr D. Friedrich Hoffmann, Sr. Königl. Maj. in Preussen Hochbetrauter geheimbder Rath und Leibmedicus ... den 12. Nov. dieses 1742. Jahres im Herrn selig entschlafen, und den 18ten darauf in sein Begräbnis gesencket wurde, bezeigte in folgender Trauerode ihre gehorsamste Schuldigkeit Die Magdeburgische Provincialtischgesellschaft"
"006010555","10842330","Aav","Officina Gebaueriana|||Johann Justinus Gebauer","104526539X|||116473207","Gebauer","Halle","1742","Bey der Schütze und Gutjahrischen in Wernigerode vergnügt vollzogenen ehelichen Verbindung suchten ihrer Ergebenheit und Liebe darzuthun innenbenannte Vettern"
"005954258","10797092","Aav","Johann Justinus Gebauer","116473207","Gebauer","Halle","1742","Schäfer-Gedicht auf die Bornemann und Beckersche in Elbingerode vergnügt vollzogene eheliche Verbindung"
"005951984","10795448","Aav","Johann Justinus Gebauer","116473207","Gebauer","Halle","1742","Verstand kommt nicht vor Jahren: ein altes Sprichwort, in Absicht auf die Erziehung der Jugend erläutert und angewandt"
"005221730","10314369","Aav","Johann Justinus Gebauer","116473207","Gebauer","Halle","1742","Kurtze und einfältige jedoch gründliche und Erbauliche Gedancken von der Wahren Bekehrung eines Menschen zu Gott"
"004832701","10095691","Aav","Johann Justinus Gebauer","116473207","Gebauer","Halle","1742","Bei der Bornemann und Beckerschen in Elbingerode vergnügt vollzogenen ehelichen Verbindung suchte seine Ergebenheit zu bezeigen ein verpflichteter Vetter und Diener Christian Ernst von Windheim"
"005914280","10765484","Aav","Johann Justinus Gebauer","116473207","[Gebauer]","Halle","1743","Den schmerzlichen Verlust eines treuen Freundes wolte Bey dem seligen Abschied Des Hochedlen und Hochgelahrten Herrn Herrn Georg Sarganecks des Pädagogii Regii wohlverdienten Inspectoris Adjuncti mit bethränter Feder beklagen Und zugleich Den höchstbetrübten Hochwerthen Angehörigen das glückliche Ende der Gerechten zum Trost darstellen"
"004791258","10069909","Aav","Johann Justinus Gebauer","116473207","Gebauer","Halle","1743","Bey dem glücklichen Eintritt des 1743sten Jahres Wolten Dem Hochwürdigen in Gott andächtigen und Hochgelahrten Herrn Herrn D. Joachim Langen Der Heil. Schrift ordentlichen und ältesten Lehrer auf der Friedrichsuniversität, des Seminar Theol. hochverdienten Direktor, ... dazu glückwünschen Jnspektor und Seniores des Königl. Seminar. Theol."
"025299719","10742166","Aav","Johann Justinus Gebauer","116473207","Gebauer","Halle","1744","Denckmal der Liebe, Welches seinem treuen Gehülfen am Werke Gottes, Dem Hoch-Wohl-Ehrwürdigen und Hochgelahrten Herrn, Herrn Leopold Frantz Friedr. Lehr, Wohl-verdienten Diacono bey der Evangelisch-Lutherischen Gemeinde in Cöthen; Nachdem Derselbe den 26. Januarii 1744. zu Magdeburg im Herrn selig entschlafen war, Unter Bezeugung seines aufrichtigen Mitleidens gegen die Hochbetrübte Frau Wittwe und übrige Angehörige"
"021570868","13970194","Aav","Johann Justinus Gebauer","","Gebauer","Halae Magdebvrgicae","1744","Lineae Gratulatoriae Ad Dissertationem De Phthisi Consummata Sine Tussi Nomilissimi Domini Candidati Georgii Friderici Fabri"
"020330243","10146210","Aav","Johann Justinus Gebauer","","Gebauer","Halae Hermundorum","1744","Viris Praenobilissimis Amicis Suis Longe Aestumatissimis Viro Johanni Menoni Poetker Wismariensi Et Viro Danieli Nettelbladt Rostochiensi Honores Doctorales Gratulaturus Quaedam De Utilitate Et Necessitate Iurisiurandi In Republica Succincte Disseret Rudolph. Joh. Wilh. Thym LL. Cultor"
"016012801","12209457","Aav","","","Gebauer","Halle","1744","Als Herr Ludwig Weber heute kriegt den Doctor-Huth zur Beute"
"005990432","10825436","Aav","Johannes Christophorus Gebauer||| Typis Viduae Joh. Christoph. Gebauer","1064596061|||1064597637","Gebauer","Hanoviæ","1744","Specimen Juris Naturalis Officia Hominis Naturalia Erga Posteros Exhibens"
"00545493X","10439218","Aav","Johannes Christophorus Gebauer||| Typis Viduae Joh. Christoph. Gebauer","1064596061|||1064597637","Gebauer","Hanoviæ","1744","Specimen Juris Naturalis Officia Hominis Naturalia Erga Mortuos Complectens"
"004817028","10085874","Aav","Jean Aunant|||Johann Christoph Gebauer","116382643|||1037637690","Selbstverl.|||Gebauer","Hanau","1744","L'Art De Planter Et De Cultiver Les Meuriers Blancs"
"00475185X","10043071","Aav","Johann Justinus Gebauer","116473207","Gebauer","[Halle, Saale]","1745","M. Georg David Kypkens Abhandlung von den nicht veralteten Kleidern der Israeliten in der Wüsten"
"021171785","11665742","Aav","Johann Justinus Gebauer","","Gebauer","Halle","1746","Schreiben, darinn die Pflicht eines Geschichtschreibers, in der Lebens-Beschreibung eines Gelehrten, bey dessen Vermählung sich weitläuftiger aufzuhalten, gezeiget wird"
"020913869","11434732","Aav","Johann Justinus Gebauer","","Gebauer","Halle","1746","Als der Allerdurchlauchtigste, Großmächtigste Fürst ... Friedrich August König in Pohlen ... Herzog zu Sachsen ... am 16. Junii 1746. in der Stadt Querfurth die Erbhuldigung einnehmen liessen, sollten ... Ehrfurcht bezeigen Bürgermeister und Rath daselbst"
"016282329","12424919","Aav","","","Gebauer","Halle","1746","Kurtze Nachricht und Anweisung von der Wirckung und Gebrauch einiger bewährten Medicamenten, Welche zugleich zu einem Haus- und Reise-Apotheckchen gar nützlich und hinlänglich sind"
"007354509","11853956","Aav","Johann Justinus Gebauer","116473207","Gebauer","[Halle, Saale]","1746","Der Hohe Adel Derer vom Creutze Christen genannt"
"005911230","10763414","Aav","","","Gebauer","Halae Magdeb.","1746","Dissertatio Inavgvralis Medica De Qvadrvplici Haemorrhagiarvm Natvralivm Respectv"
"025293168","10782672","Aav","Johann Justinus Gebauer","116473207","Gebauer","Halle","1747","Dem glorwürdigen Angedenken des grösten Feldherrn unserer Zeit, des weyland Durchlauchtigsten Fürsten und Herrn,  Herrn Leopold, ältesten regierenden Fürsten zu Anhalt, Hertzogen zu Sachsen, Engern und Westphalen,  ... Wolte, als das sterbliche Theil Sr. Hochfürstl. Durchl. mit allen einem so grossen Feldherrn gebührenden Kriegsehrenbezeugungen in die Hochfürstliche Gruft  beygesetzet worden, dieses unterthänigste Denckmal aufrichten S. L. E. de Marées, Archidiac. bey der Schloß- und Stadtkirche zu Dessau"
"008763801","14824310","Aav","Johann Justinus Gebauer","116473207","Gebauer","Halle","1747","Siegm. Jac. Baumgartens Erleuterungen der im christl. Concordienbuch enthaltenen symbolischen Schriften der evangelischlutherischen Kirche"
"007158289","11696761","Aav","Johann Justinus Gebauer","116473207","Gebauer","Halle","1747","Die richtige Mittelstrasse in der Gnadenlehre der evangelischlutherischen Kirche"
"006242391","11000082","Aav","Johann Justinus Gebauer","116473207","Gebauer","Halae","1747","Nvminis Favente Gratia Avgvsti Monarchae Friderici Qvinti Potentissimi Regis Daniae, Norwegiae Vandalorvm Gothorvmqve ... Cetera Temporibvs Regio Diademate Cingendis Geminvm Daniae Palladivm Oratione Solemni Inclytae Fridericianae Magistratv Academico Conspirante Advmbratvm In Avditorio Pvblico Die [ ] Mensis [ ] A. P. S. CIƆIƆCCXLVII Civivm Svorvm Danorvm, Holsatorvm Atqve Oldenbvrgensivm Nomine"
"005978033","10815651","Aav","Johann Justinus Gebauer","116473207","Gebauer","Halle","1747","Die Königlichen Tugenden bey der Huldigung des Allerdurchlauchtigsten, Großmächtigsten Königs und Herrn, Herrn Friederich des Fünften Königs zu Dännemark, Norwegen der Wenden und Gothen ... in nachfolgender Cantate vorgestellet von denen auf der Friedrichsuniversität in Halle studierenden sämtlichen Dänischen, Holsteinischen und Oldenburgischen allerunterthänigsten Landeskindern"
"005978017","10815643","Aav","Johann Justinus Gebauer","116473207","Gebauer","Halle","1747","Ode auf die höchsterwünschte Krönung des Allerdurchlauchtigsten, Großmächtigsten Königs und Herrn Herrn Friederich des Fünften Königs zu Dännemark, Norwegen der Wenden und Gothen ... Welche Seiner Königlichen Majestät den 28sten August 1747 übergeben sämtliche in Halle studirende Dänische, Holsteinische und Oldenburgische allerunterthänigste Landeskinder"
"005927862","10776451","Aav","Johann Justinus Gebauer","116473207","Gebauer","Halle","1747","Catechetischer Unterricht vor Kinder; Welche zum würdigen Genuß des heiligen Abendmahls zubereitet werden"
"005893887","10750991","Aav","Johann Justinus Gebauer","116473207","Gebauer","Halle","1747","Christliches Concordienbuch"
"005891930","10749616","Aav","Johann Justinus Gebauer","116473207","Gebauer","Halle","1747","Johann Samuel Carln Medicinische und moralische Einleitung in die Natur-Ordnung"
"00478197X","10064362","Aav","Johann Justinus Gebauer","116473207","Gebauer","Halle","1747","Vertheidigung der Leibnitzischen Monaden und einfachen Dinge wider den Angriff des Herrn Justi"
"025337327","10067302","Aav","Johann Justinus Gebauer","116473207","Gebauer","Halle","1748","Bey der Wilhelmi- und Rüdigerischen Eheverbindung, Welche den 27 Februar. 1748 zu Wernigerode vergnügt vollzogen worden, sollte seinen ergebensten Glückwunsch abstatten"
"025299638","10775447","Aav","Johann Justinus Gebauer","116473207","Gebauer","Halle","1748","Bey der vergnügten Eheverbindung des Hochwohlehrwürdigen und Hochgelarten Herrn Hrn. Michael Gottlieb Kalisch, Wohlverdienten Predigers bey der Gemeine zu Goerzig, Mit der Hochedelgebornen und Tugendsamen Jungfer Jfr. Marie Philippine Dahlerin, welches den 6 Aug. 1748 glücklich vollzogen wurde, wolten ihre Betrachtung über Röm. 5,1.2 anstellen und zugleich dem hochgeschätzten Brautpaar von Herzen Glück wünschen"
"023020326","11375124","Aav","","","Gebauer","Halle","1748","Kurz gefassete historische Beschreibung des ehemaligen berühmten Augustinerclosters auf dem Petersberge"
"015319369","10878521","Aav","Johann Justinus Gebauer","116473207","Gebauer","Halae Magdeb","1748","De Vita Iacobi Bvrckhard Commentarivs"
"007437226","11922818","Aav","Officina Gebaueriana|||Johann Justinus Gebauer","104526539X|||116473207","Gebauer","Halle","1748","Der höchstbeglückte Zustand eines vor Gott gerechtfertigten Sünders"
"00715724X","11695986","Aav","","","bey Johann Justinus Gebauer","Halle","1748","Gedanken über die Betrachtung von der Bestimmung des Menschen"
"006052770","10871284","Aav","Johann Justinus Gebauer","116473207","Gebauer","Halae Magdebvrg.","1748","Librorvm Ad Hvmaniora Stvdia, Litterariam, Civilem Atqve Ecclesiasticam Historiam Potissimvm Pertinentivm Catalogvs In IV. Partes Distribvtvs Comparavit Eos Sibi Jacob. Bvrckhard, Sereniss. Brvnsvic. Lvnebvrg. Dvcis Consiliar. Avl. Et Bibliothecarivs."
"005913489","10764887","Aav","","","gedruckt bey Johann Justinus Gebauer","Halle","1748","Als der Hochwohlehrwürdige und Hochwohlgelahrte Herr, Herr J. C. Fuchs, Wohlverdienter Lehrer des Evangelii bey der Gemeine Jesu Christi zu Grossen-Germersleben, Sich nach göttlicher Fügung mit der Wohledlen, Viel- Ehr und Tugendbegabten Frau, Frau E. C. Wefern, geb. Posin, ehelich verband, sollten, nachdem diese Vebindung am 4ten August dieses Jahrs durch priesterlichen Segen versiegelt wurde ... ihre kindliche Ergebenheit bezeugen, Dero gehorsamste Söhne J. C. Fuchs, der G. G. Beflissener, J. L. Fuchs, B. R. Befl. C. F. Fuchs, der G. G. Beflissener"
"005413400","10415084","Aav","Johann Justinus Gebauer","116473207","Gebauer","Halle","1748","Ein Wort der Vermahnung und des Trostes an das Hertz eines aus dem Judenthum zu Christo bekehrten Rabbi bey dessen dem 20 Aug. 1748 in der Kirche zu St. Ulrich  in Halle geschehenen Taufe, unter vieler Bewegung der gegenwärtigen Taufzeugen und Zuhörer  geleget, und benebst der gantzen Taufhandlung dem Druck überlassen"
"025603906","90540247","Aav","","","gedruckt bey Johann Justinus Gebauer.","Halle","1749","Die Ehrfurcht weyht der Durchlauchtigsten Fürstin und Frauen Frauen Johanna Elisabeth Verwittweten Fürstin zu Anhalt ... bey höchst Deroselben am 24sten des Weinmonats des 1749sten Jahres glücklichsterlebten Geburtsfeste diesen freudigsten Glückwunsch durch Desoselben unterthänigsten Knecht Andreas Heinrich Töpffer d.H.G.G.B."
"02435323X","10841865","Aav","Johann Justinus Gebauer","116473207","Gebauer","Halae","1749","Academiae Fridericianae Prorector Ioan. Ioach. Langivs Mathem. Et Philos. Prof. Pvbl. Ord. Academiar Imper. Natvrae Cvriosor Et Regiae Scientiarvm Berolin. Collega Vna Cvm Cancellario, Directore Et Professoribvs Reliqvis Natalem Iesv Domini Indicit Commentatione De Genealogia Christi"
"021119015","1161773X","Aav","Johann Friedrich Grunert|||Saale> Lehmannische Schriften <Halle|||Johann Justinus Gebauer|||Johann Christian <I.>. Hendel","","Grunert|||Lehmann|||Gebauer|||Litteris Hendelianis","Halle","1749","Das Grünende und Fruchtbare Alter Eines Gerechten, wurde, zum gesegneten Andencken des weiland Wohlgebornen und Weitberühmten Iuris Consulti, Herrn, Herrn D. Just Henning Böhmers, ... Welcher den 23sten Aug. 1749 ... das Zeitliche mit dem Ewigen verwechselte, ... in einer Gedächtnißpredigt vorgestellet"
"021045380","11550945","Aav","Johann Justinus Gebauer","","Gebauer","Halle","1749","Caspar Wilhelm von Borck Weyland Königl. Preuß. Staats- und Krieges-Ministre [et]c. Versuch einer gebundenen Uebersetzung des Marcus Annäus Lucanus vom Bürgerlichen oder Pharsalischen Kriege"
"016670752","12749338","Aav","","","bey Johann Justinus Gebauer","Halle","1749","M. Paul Hoppens Pfarrers in Löwen Erbauliche Betrachtung des hohen Adels derer vom Creuze Christen genannt"
"014074435","1439250X","Aav","Johann Justinus Gebauer","116473207","Gebauer","Halle","1749","D. Siegmund Jacob Baumgartens Auslegung des Briefes Pauli an die Römer"
"007445644","11930217","Aav","Johann Justinus Gebauer","116473207","Gebauer","Halle","1749","Das Bild eines Rechtschaffenen Lehrers in einer Antrittspredigt Am Sonntage des Advents im Jahr 1748 über das ordentliche Evangelium Matth. XI, 2-10"
"00618023X","10958770","Aav","Johann Justinus Gebauer","116473207","Gebauer","Halae","1749","Notitiam Splendidissimae Lexici Hesychiani Editionis"
"00603652X","10859861","Aav","Johann Justinus Gebauer","116473207","Gebauer","Halle","1749","Denkmal zweyer frühzeitig verlornen einzigen Söhne"
"005215730","10311394","Aav","Johann Justinus Gebauer","116473207","Gebauer","Halle","1749","Siegm. Jac. Baumgartens Nachrichten von einigen schätzbaren Handschriften der zahlreichen Bibliothek des weiland hochberümten Kanzlers von  Ludwig, die zum Verkauf noch vorrätig sind"
"026286084","90683366","Aav","","","Gedruckt bey Johann Justinus Gebauer","[Halle]","1750","Auf die Verheirathung der Demoiselle Anna Cäcilia Helmern, an Herrn Daniel Gotthard Schmidt, in Hamburg"
"025762729","90581903","Aav","Johann Justinus Gebauer||| Officina Gebaueriana","116473207|||104526539X","Gebauer","Halle","1750","Kurtzgefaßte Paßions-Geschichte der Marterwoche Jesu Christi"
"020992491","11503262","Aav","Johann Justinus Gebauer","","Gebauer","Halle","1750","Johann Melchior Gözens Predigers an der Steph. Kirche in Aschersleben Prüfung einiger Stellen aus dem bekanten Buche Les Moeurs oder die Sitten, insonderheit der von dem Verfasser desselben vorgeschlagenen Trostgründe wider die Furcht des Todes"
"015591611","11874333","Aav","Johann Justinus Gebauer","116473207","Gebauer","Halae Magdeburgicae","1750","Catalogvs Librorvm Ex Omni Scientiarvm Genere Praestantissimorvm Theologico- Ivridico- Medico- Historico- Philosophico- Philologico- Miscellaneorvm Tam Impressorvm Qvam Manvscriptorvm Ex Parte Rariorvm Pvblicae Lege Halae Magdebvrgicae D. 13. sqq. Ivlii MDCCL. Pro Parata Pecvnia Divendendorvm"
"014074419","14392496","Aav","Johann Justinus Gebauer","116473207","Gebauer","Halle","1750","D. Siegmund Jacob Baumgartens Auslegung des Briefes Jacobi"
"009200304","90022297","Aav","Johann Justinus Gebauer","116473207","Gebauer","Halle","1750","Die Zeit des Abscheidens Pauli wolten als der ... Herr Hermann Reinhard Pauli Sr. Königl. Majestät in Preussen Hochverordneter erster Hofprediger ... im Jahr 1750 den 5. Febr. ... entschlafen ... in folgender Trauerode beklagen ... die zeitige Aebtißin und sämtliche Fräulein des Frey-Weltlichen Fräuleinstifts"
"009182195","9001281X","Aav","Johann Justinus Gebauer","116473207","Gebauer","Halle","1750","Ein, im Sterben, unerschrockener Frommer, nach dem Beyspiele des den 5ten Februar. 1750 selig verstorbenen ... Herrn Herrmann Reinhold Pauli, Königl. Preußl. Hof-Predigers ... abgebildet"
"009182136","9001278X","Aav","Johann Justinus Gebauer","116473207","Gebauer","Halle","1750","Den bedaurens-würdigen Verlust des ... Herrn Hermann Reinhold Pauli Sr. Königl. Maj. in Preussen Hochverordneten Hof-Predigers ... welcher den 5ten Februarii 1750 durch den zeitlichen Tod in die frohe Ewigkeit versetzt worden beklagten des Wohlseligen Collegen und sämtliche Mitglieder des Evangelisch-Reformirten Presbyterii bey der Schloß- und Dom-Gemeinde alhier"
"00918211X","90012771","Aav","Johann Justinus Gebauer","116473207","Gebauer","Halle","1750","Der gegründete Glaube eines Knechtes Gottes mit seiner ungemeinen Freudigkeit im Sterben, wurde zum gesegneten Andencken des ... Herrn Herrmann Reinhold Pauli, Seiner Königlichen Majestät in Preussen Hochverordneten Hofpredigers und Inspectoris der Evangelisch-Reformierten Kirchen und Schulen Hallischer Diöces ... welcher den 5. Februar. 1750 durch den zeitlichen Tod in die frohe Ewigkeit versetzet worden, in einer Gedächtniß-Predigt ... vorgestellet"
"007279434","11794496","Aav","","","bey Johann Justinus Gebauer","Halle","1750","Heilsame Wahrheiten in Sechs und zwantzig Predigten über Einige Kernsprüche der heiligen Schrift"
"007158556","11696974","Aav","","","bei Johann Justinus Gebauer","Halle","1750","Versuch eines Lehrgebäudes der Ebräischen Sprache"
"007148976","11689579","Aav","Johann Justinus Gebauer","116473207","Gebauer","Halle","1750","Abhandlung von der schweren Sünde der Religionsspöttery"
"005943000","10788417","Aav","Johann Justinus Gebauer","116473207","Gebauer","Halle","1750","Kurtzgefaßte Paßions-Geschichte der Marterwoche Jesu Christi"
"005936284","1078294X","Aav","Johann Justinus Gebauer","116473207","Gebauer","Halle","1750","Versuch in der Moralischen Weltweisheit"
"00592359X","10773045","Aav","Johann Justinus Gebauer","116473207","Gebauer","Halle","1750","Das beste und seligste Erbtheil der Gläubigen an dem hohen Beyspiel der weyland Durchlauchtigsten Fürstin und Frau Frau Anna Friderica, Fürstin zu Anhalt, Herzogin zu Sachsen, Engern und Westphalen, Gräfin zu Ascanien, gebornen Reichsgräfin von Promnitz ... Welche den 31. Martii 1750 ... höchstselig entschlaffen, und Deroselben entseelten Gebeine den 10. Augusti dieses Jahrs in dem Fürstl. Gewölbe zu Cöthen mit Christfürstl. Cerimonien beygesetzet worden; in einer Sonntags drauf ... war der 16. Aug. gehaltenen Gedächtnispredigt über Ps. 16, 5. 6. vorgestellet von Christian Gottlieb Hoefer, Pst. zu Badegast"
"00518164X","10294643","Aav","Johann Justinus Gebauer","116473207","Gebauer","A Hale","1750","Pensées Hazardées Sur Quelques Prejuges A L'Égard Des Humanitez Dediées A Sa Magnificence Monsieur Baumgarten Docteur Et Professeur En Theologie Haut Celebre, Cet. Cet."
"02664715X","1267589X","Aav","","","bey Johann Justinus Gebauer","Halle","1751","Christian Friederich Helwings des Gymnasiums zu Lemgo Rectoren Versuch einer Einleitung in die gesamte Moral"
"023136839","11130571","Aav","","","Gebauer","Halle","1751","Wahrhaftige Geschichte der seligen Frau Catharina von Bora, D. Martin Luthers Ehegattin"
"021270139","10567062","Aav","Johann Justinus Gebauer","","Gebauer","Halle","1751","Erbauliche Nachricht von dem Leben und Tode der ... Louisen Elisabeth gebohrnen Herzogin von Würtenberg vermählten Herzogin zu Sachsen Merseburg als einer grossen Bekennerin der evangelischen Wahrheit"
"021243816","10542191","Aav","Johann Justinus Gebauer","","Gebauer","Halle","1751","Historische und Moralische Abhandlung von dem Gelehrten Bücherfluche"
"00673877X","11348569","Aav","Johann Justinus Gebauer","116473207","Gebauer","Halle","1751","Antrits-Predigt über das ordentliche Evgangelium am 1. Sonntage des Advents Matth. 21, v. 1-9. von der Willigen Aufnahme eines mit seinem Jesu anziehenden Dieners des Evangelii, bey Seinem Anzuge bey denen Christlichen Gemeinen Donndorf, Closter-Donndorf und Kleinrode ... gehalten, und dem Druck übergeben"
"006738753","11348550","Aav","Johann Justinus Gebauer","116473207","Gebauer","Halle","1751","Abschieds-Predigt über Apostelg. 21. v. 12. 13.14. von der Gottgelassenen Ergebenheit in den Willen Gottes bey dem Abzuge eines Dieners des Evangelii"
"006469345","1114730X","Aav","Johann Justinus Gebauer","116473207","Gebauer","Halle","1751","Historische und dogmatische Anmerkungen über das Lehrgebäude des Herrn von Loen in der Schrift die einzige wahre Religion"
"006406947","11106352","Aav","Johann Justinus Gebauer","116473207","Gebauer","Halae Magdeb.","1751","Nova Ad Commentarivm De Vita Jacobi Bvrckhardi Analecta"
"006131646","10927123","Aav","","","bey Johann Justinus Gebauer","Halle","1751","Johann George Kirchners, Adjuncti und Predigers bey der Kirche zur L. Frauen, Kurtze Paßionsbetrachtungen über das Lied: Wenn meine Sünd mich kräncken [et]c."
"005205719","10306706","Aav","Johann Justinus Gebauer","116473207","Gebauer","Halae","1751","Dissertatio Theologica De Gavdio In Spiritv Sancto Tanqvam Genvino Verae Religionis Christianae Criterio"
"023030798","1023179X","Aav","","","bey Johann Justinus Gebauer","Halle","1752","George Friedrich Meiers der Weltweisheit öffentlichen ordentlichen Lehrers und der Academie der Wissenschaften in Berlin Mitgliedes Vernunftlehre"
"021278733","10575170","Aav","Johann Justinus Gebauer","","Gebauer","Halle","1752","George Friedrich Meiers ordentlichen Lehrers der Weltweisheit und der berlinischen Academie der Wissenschaften Mitgliedes Auszug aus der Vernunftlehre"
"021273251","10570047","Aav","Johann Justinus Gebauer","","Gebauer","Halae","1752","Quinti Horatii Flacci Odarum Libri V"
"00660448X","11244763","Aav","Johann Justinus Gebauer","116473207","Gebauer","Halae","1752","Sig. Iacobi Bavmgarten Commentatio In Versionem Theotiscam Symboli Athanasiani Qva Pentecoste"
"006604463","11244755","Aav","Johann Justinus Gebauer","116473207","Gebauer","Halae","1752","Sig. Iacobi Bavmgarten Commentatio In Qvatvor Symbola Theotisca Qva Solemnia Paschae"
"006584039","11229640","Aav","Johann Justinus Gebauer","116473207","Gebauer","Halle","1752","Chronologische Tafeln der Algemeinen Historie"
"005230764","10318720","Aav","Johann Justinus Gebauer","116473207","Gebauer","Halle","1752","Kurtzer Begriff der Ordnung des Heils"
"025293702","11298707","Aav","Johann Justinus Gebauer","116473207","Gebauer","Halle","1753","Vom Tode des Gerechten sangen bei dem Grabe des Hochedlen und Wohlgelahrten Herrn Herrn  August Friedrich Meidefind, ihres werthgeschätzten Freundes, einige Landes-Leute und gute Freunde: J. F. Schmidt. J. J. Jung. P. C. Lüdecke. C. L. Schäffer. J. C. Heinecke. A. B. Köppe. J. A. Paulli. F. G. Waldmann. J. Timm. C. M. Heinzelmann. E. C. Nolten. J. A. Hübner"
"024730254","1009265X","Aav","Johann Justinus Gebauer","116473207","Gebauer","Halae","1753","Reverendissimo Domino Doctori Bavmgarten, S. S. Theologiae Professori Famigeratissimo, Reliqva, Reliqva, Maecenati, Et Praeceptori Svo Exoptatissimo Gratvm Animvm Testatvr, Vitamqve Longaevam Adprecatvr"
"021968063","11299436","Aav","Johann Justinus Gebauer","","Gebauer","Halle","1753","Jacob Vernets, Professors der freyen Künste zu Genf, Abhandlung von der Wahrheit der Christlichen Religion"
"021249512","10547592","Aav","Johann Justinus Gebauer","","Gebauer","Halle","1753","Vollständiges Mineralien-Cabinet von 6000 Stück Metallen, Ertzen, Drusen, Mineralien, Kräuter- und Fisch-Schiefern, auch andern Petrefactis"
"00910254X","15580962","Aav","Johann Justinus Gebauer","116473207","Gebauer","Halle","1753","Dem Hochwohlgebohrnen Herrn, Herrn Richard Heinrich Von Flemming, Hochansehnlichem Landesdirectorn Des Flemmingschen Kraises, Erbherrn Avf Bentz, U.S.W. Bezeugte Bei Desselben Den 3/14ten Merz 1753 Ruhmwürdigst Zurückgelegten 88Sten Jahre Seine Ergebenheit, Und Widmet, Nach Glücklich Überstandnen Unglücksfællen, Desselben Hohem Hause, Für Die Ihm Und Den Seinen Erzeigte Freundschaft Seine Ganze Zærtlichkeit"
"007416113","11904984","Aav","Johann Justinus Gebauer","116473207","Gebauer","Halle","1753","Dem Hochwohlgebohrnen Herrn, Herrn Richard Heinrich Von Flemming, Hochansehnlichem Landesdirectorn Des Flemmingschen Kraises, Erbherrn Auf Bentz, U.S.W. Bezeugte Bei Desselben Den 3/14ten Merz 1753 Ruhmwürdigst Zurückgelegten 88Sten Jahre Seine Ergebenheit, Und Widmet, Nach Glücklich Überstandnen Unglücksfællen, Desselben Hohem Hause, Für Die Ihm Und Den Seinen Erzeigte Freundschaft Seine Ganze Zærtlichkeit"
"007355211","1185457X","Aav","Johann Justinus Gebauer","116473207","Gebauer","Halle","1753","Die Wundervolle und Heilbringende Geburt des Sohnes Gottes"
"006640796","11271701","Aav","Johann Justinus Gebauer","116473207","Gebauer","Halle","1753","Die Warheit der Geschichte von der Auferstehung Jesu unsers theuresten Erlösers, wider Edelmans Angriffe in seinem sogenanten Glaubensbekentnis vertheidiget"
"006628338","11262273","Aav","Johann Justinus Gebauer","116473207","Gebauer","Halle","1753","Ein Bestrafungsschreiben an Hrn. Nicolaus Ludewig Grafen von Zinzendorf und höchsten Sachwalter der Brüdergemeine"
"006502148","11169699","Aav","Johann Justinus Gebauer","116473207","Gebauer","Halle","1753","Christian Friederich Helwings des Gymnasiums zu Lemgo Rektors Grenzen der philosophischen und theologischen Moral"
"00647134X","11148594","Aav","Johann Justinus Gebauer","116473207","Gebauer","Halle","1753","Christoph Matth. Möllings Rectors des Collegii zu Herford Entwurf einer Chronologie der heiligen Schrift"
"006434673","11125098","Aav","Johann Justinus Gebauer","116473207","Gebauer","Halle im Magdeburgischen","1753","Joh. Bernh. von Fischer, gewesenen Leibarztes der höchstseligen Kayserin Anna, und Archiaters des Rußischen Reichs, wie auch Mitgliedes der Römisch-Kayserl. Acad. Nat. Curios. Liefländisches Landwirthschaftsbuch, auf die Erdgegend von Lief- Est- und Curland eingerichtet"
"006419453","11114479","Aav","Johann Justinus Gebauer","116473207","Gebauer","Halle","1753","Denkmal der Ehrfurcht und Dankbarkeit, welches bey dem Grabe des Wohlgebornen und Hochgelerten Herrn Herrn Carl Gottlieb Knorre, Sr. königl. Majestät in Preussen hochbetrauten geheimen Raths ... als Derselbe den 14ten Sept. 1753 im Herrn selig  entschlafen errichten wollen Ma die sämtlichen Convictores der Königlichen Freitische"
"006331874","1105784X","Aav","Johann Justinus Gebauer","116473207","Gebauer","Halle","1753","Christian Wilh. Franz Walchs Deutsche Reichshistorie"
"005107717","10259287","Aav","Johann Justinus Gebauer","116473207","Gebauer","Halae Magdeburg.","1753","Iacobi Bvrckhardi, Sereniss. Brvnsvic. Lvnebvrg. Dvcis Consiliarii Qvondam Avl. Et Bibliothecarii Catalogvs Librorvm Ad Hvmaniora Stvdia, Litterariam, Civilem Atqve Ecclesiasticam Historiam Potissimvm Pertinentivm"
"004716221","10017232","Aav","Johann Justinus Gebauer","116473207","Gebauer","Halle","1753","Samuel Gotthold Langens Schreiben an den Verfasser der gelehrten Artikel in den Hamburgischen Correspondenten wegen der im 178 und 179sten Stück eingedruckten Beurtheilung der Uebersetzung des Horatz"
"023134569","11140658","Aav","","","Gebauer","Halae","1754","Breviarium Historiae Christianae"
"023133678","11200499","Aav","","","Gebauer","Halle","1754","Georg Friedrich Meiers der Weltweisheit ordentlichen Lehrers und der Berlinschen Academie der Wissenschaften Mitgliedes, Gedanken vom Philosophischen Predigen"
"02128864X","1058451X","Aav","Johann Michael Kühn|||August Anton Rhode|||Johann Michael Ludwig Teubner|||Johann Justinus Gebauer||| Haude und Spener <Berlin>","","Kühn; Autor|||Teubner|||Haude|||Gebauer|||Pietsch","Guben||Cotbus|||Leipzig|||Berlin|||Halle|||Breßlau","1754","August Anton Rhodens Diaconi bey der Kirche zu Groß-Hennerdorf in der Ober-Lausitz, unweit Zittau Avertissement Von gewissen Schriften wider die Herrnhuter, so nach und nach im Verlag des Buchdrucker Kühns in Cotbus und dessen Compagnie, auf Praenumeration gedruckt werden sollen ..."
"021288631","10584501","Aav","Gottlob Hebold|||Johann Michael Ludwig Teubner|||Johann Justinus Gebauer||| Haude und Spener <Berlin>","","Autor|||Hebold|||Teubner|||Haude|||Gebauer","[S.l.]|||Sorau|||Leipzig|||Berlin|||Halle","1754","August Anton Rhodens, bey der Kirche zu Großhennersdorf in der Ober-Lausitz, unweit Zittau ... Diaconi, und ... Inspectoris ... Armer Evangelischer Prediger in der Hand der Herrnhuter, und dessen Behandlung von ihnen"
"013853031","13790056","Aav","","","[Gebauer]","[Halle]","1754","Die der Hochedelgebohrnen, Hochgelahrten und Hocherfahrnen Frauen Dorotheen Christianen Erxleben gebohrnen Leporinin, wohlverdient ertheilte höchste Würde in der Arzeneigelahrtheit besingt Johann Friedrich Rahn aus Pommern"
"006681166","11303573","Aav","Johann Justinus Gebauer","116473207","Gebauer","Halae","1754","Dissertatio Historico-Theologica De Regeneratione Monastica Ad Illvstrandos Libros Symbolicos"
"006547761","1120267X","Aav","Johann Justinus Gebauer","116473207","Gebauer","Halae Magdeburgicae","1754","Singvlaris Dei Circa Scholas Providentia Ex Vetervm Genio Natali Asseritvr Et Natalis Dies Gymnasii Halensis C LXXXVIIII A. D. XXVIII Avgvsti M D CCLIV Celebrandvs Indicitvr A Ioanne Petro Millero A. M. Gymnasii Rectore"
"006528058","11188537","Aav","Johann Justinus Gebauer","116473207","Gebauer","Halle","1754","Als der Hochedelgebohrnen, Hocherfahrnen und Hochgelahrten Frauen, Frauen Dorotheen Christianen, gebohrnen Leporinin ... der wohlverdiente Gradvs Doctoris in der Medicin von der hochlöblichen Medicinischen Facultät auf der Königlichen Preußischen Friedrichs-Universität hieselbst nach vielfältig abgelegten Proben Jhrer Geschicklichkeit, rühmlichst überstandenen Examine, ausgearbeitetem Specimine Inavgvrali und hierauf erhaltener ... Specialapprobation den 12. Junii des 1754. Jahres ertheilet worden, besung diese ausserordentliche Begebenheit Johann Joachim Lange, der Mathematic öffentlicher Lehrer"
"006440134","11128720","Aav","Johann Justinus Gebauer","116473207","Gebauer","Halle","1754","Opfer allerunterthänigster Ehrfurcht und Treue dem Allerdurchlauchtigsten Großmächtigsten Könige und Herrn Herrn Friedrich dem Grossen Könige in Preussen ... bei Höchst-Deroselben erfreulichsten Gegenwart zu Halle im Brachmonate 1754 in tieffster Ehrerbietung gewidmet von denen auf hiesiger Königl. Friedrichs-Universität Studirenden"
"006388981","11094281","Aav","Johann Justinus Gebauer","116473207","Gebauer","Halle","1754","Siegm. Jacob Baumgartens Abhandlung von dem Geschlechtsregister Jesu Christi"
"006366120","11079673","Aav","Johann Justinus Gebauer","116473207","Gebauer","Halae","1754","Symbolarvm Literariarvm Ad Incrementvm Scientiarvm Omne Genvs"
"005407869","1041195X","Aav","Johann Justinus Gebauer","116473207","Gebauer","Halae","1754","Dissertatio Historico-Theologica De Regeneratione Monastica Ad Illvstrandos Libros Symbolicos"
"005215684","10311378","Aav","Johann Justinus Gebauer","116473207","Gebauer","Halle","1754","D. Siegmund Jacob Baumgartens Auslegung der evangelischen Texte am Tage Pauli Bekehrung und am Grünen Donnerstage. Nebst einigen homiletischen Zergliederungen derselben"
"005108993","10259937","Aav","Johann Justinus Gebauer","116473207","Gebauer","Halle","1754","M. Anton Friederich Büsching Mitglieds der kosmographischen Geselschaft zu Nürnberg Einladungsschrift zu seiner Lehrstunde über die Staatsverfassung der vornehmsten europäischen Reiche"
"004716205","10017224","Aav","Johann Justinus Gebauer","116473207","Gebauer","Halle","1754","M. S. G. Langens Predigers zu Laublingen und Mitglieds der Königl. Academie der Wissenschaften zu Berlin u.a.m. Schreiben an Herrn Pr. N. zu Fr. welches die Streitigkeit mit dem Herrn Leßing wegen der Uebersetzung des Horaz betrift"
"024366293","11182520","Aav","Johann Justinus Gebauer","116473207","Gebauer","Halle","1755","Zeugnis brüderlicher Liebe bey dem Hochzeitfest des HochwohlEhrwürdigen und Hochgelahrten Herrn Herrn Johann George Panse treufleißigen Predigers bey der christlichen Gemeinde zu Grossenwerther mit der Hoch Edlen und Tugendbegabten Jungfer Jungfer Gerdrute Fried. Magdalene des ... Herrn Johann Sebastian Kleineweg wohlverdientgewesenen vierzigjährigen Predigers zu Großenwerther ... Tochter welches am 17ten Junii 1755 vergnügt gefeyret wurde abgelegt von ... Johann Friedrich Kleineweg Prediger bey der Zuchthaus-Kirche und dritten Collegen bey dem Gymnasio zu Halle"
"022615318","11114797","Aav","","","verlegts Johann Justinus Gebauer","Halle","1755","Johann Heinrich Denffers, genannt Jansen, Vernunft- und Erfahrungsmäßiger Discours, darin überhaupt die wahren Ursachen der Fruchtbarkeit, wie auch die Schein-Ursachen der Unfruchtbarkeit der Erden abgehandelt sind, um die gute Sache des göttlichen Segens wider die Ankläger derselben zu vertheidigen"
"021804346","14186292","Aav","","","Johann Justinus Gebauer","Halle","1755","Gedanken von der Glückseligkeit"
"020133782","10221875","Aav","Johann Justinus Gebauer","","Gebauer","Halle","1755","Abhandlung von der Grundsprache des Evangelii Matthäi"
"014002302","10290710","Aav","Johann Justinus Gebauer","116473207","Gebauer","Halle","1755","Academische Abhandlung von der gar zu geschwinden und angenehmen, aber deswegen öfters unsichern Heilung der Krankheiten"
"013853023","13790048","Aav","","","[Gebauer]","[Halle]","1755","Als der Hochedelgebohrnen, Hocherfahrnen und Hochgelahrten Frauen, Frauen Dorotheen Christianen, gebornen Leporinin, des ... Herrn Joh. Christian Erxleben, Diaconi an der St. Nicolai Kirche in Quedlinburg Ehegenoßin, der wohlverdiente Gradvs Doctoris in der Medicin ... nach ... ausgearbeitetem Specimine Inavgvrali, und hierauf erhaltener allerhöchsten Königl. Specialapprobation den 12. Junii des 1754sten Jahres ertheilet worden"
"006547710","11202637","Aav","Johann Justinus Gebauer","116473207","Gebauer","Halle","1755","Nachricht von der ietzigen Verfassung des Evangelisch-Lutherischen Gymnasii zu Halle, womit zugleich alle Gönner und Freunde zur Anhörung einiger Reden auf den 28sten August, als den 190sten Stiftungstag der Schule, geziemen einladet"
"006407633","11106751","Aav","Johann Justinus Gebauer","116473207","Gebauer","Halae Magdeburgicae","1755","Academiae Sacri Romani Imperii Leopoldino-Carolinae Natvrae Cvriosorvm Historia"
"004793919","10071474","Aav","Johann Justinus Gebauer","116473207","Gebauer","Halae Saxonvm","1755","Qvaestionvm Scholasticarvm Problema Primvm Qvo Actvm Oratorivm A. D. VIII. Ianvar. CIƆ IƆCCLV. In Auditorio Classis Primae Gymnas. Hal. Celebrandvm"
"004786696","10067175","Aav","Johann Justinus Gebauer","116473207","Gebauer","Halle","1755","Fortgesetzte Prüfung der Böldickischen Lehr-Sätze von der Freyheit des Willens, dem Fall der Menschen, der Zulassung des Bösen, dem Orte der Höllen, und von der göttlichen Offenbarung, welche er in seinem abermahligen Versuch einer Theodicee vorgetragen hat"
"021760640","14145162","Aav","Johann Justinus Gebauer||| Officina Gebaueriana <Halle (Saale)>","","Gebauer","Halae Magdeburgicae","1756","Sacrae Caesareae Maiestatis Mandato Et Privilegio Leges S. R. I. Academiae Naturae Curiosorum Confirmatae Atque Munitae"
"009461388","90254740","Aav","Johann Justinus Gebauer","116473207","Gebauer","Halle","1756","Drama Der Sieg der schönen Wissenschaften"
"008493502","14392550","Aav","Johann Justinus Gebauer","116473207","Gebauer","Halle","1756","Unterricht von dem rechtmäßigen Verhalten eines Christen, oder Theologische Moral"
"008106185","13195573","Aav","","","gedruckt bey Johann Justinus Gebauer","Halle","1756","Exegetische Untersuchung der Stelle Ebr. IV, 1--3"
"007981945","13077929","Aav","Johann Justinus Gebauer","116473207","Gebauer","Halle","1756","Trauerreden und Gedächtnispredigten"
"006667422","1129289X","Aav","Johann Justinus Gebauer","116473207","Gebauer","Halle","1756","Die Mechanik der Himmelskörper zur Erklärung der Beschaffenheit der Erdbeben"
"006662390","11289082","Aav","","","bey Johann Justinus Gebauer","Halle","1756","Das Wort des Herrn im Hagel und Sturm, an ein Volk, das des Herrn Wort übergehet"
"006631118","11264209","Aav","Johann Justinus Gebauer||Gebauer","116473207","Gebauer","Hala","1756","La Vita D'Ernesto Il Pio Duca Di Sassonia"
"006503055","11170298","Aav","Johann Justinus Gebauer","116473207","Gebauer","Halle","1756","Eine Braut Jesu in ihrem geistlichen Schmucke wurde bey dem bethränten Grabe der Hochwohlgebohrnen Fräulein ... Augusta Erdmuthe geb. von Burkersroda des ... Herrn August von Bukersroda Fürstl. Merseburgischen Cammerraths ... ältesten Fräulein Tochter nachdem Dieselbige am 12. Augustmonaths 1756 durch einen frühzeitigen ... Tod .... berufen war in einer Leichenrede vorgestellet /von M. Gottlob Hering Pasor in Crumpa"
"006124879","1092258X","Aav","","","gedruckt bey Joh. Justinus Gebauer","Halle","1756","Anmerkungen über eines Ungenanten Gedanken von Gott dem Vater, dem Sohn, und dem heiligen Geiste"
"005413303","10415033","Aav","Johann Justinus Gebauer","116473207","Gebauer","Halle","1756","Anweisung zum erbaulichen Predigen"
"02020793X","1038619X","Aav","Johann Justinus Gebauer","","Gebauer","Halle","1757","M. Johann Michael Uhlichs Einleitung in die öffentlichen und äusserlichen Gebräuche und Handlungen des Evangelischen Gottesdienstes welche nach dem Fürbild der heilsamen Lehre in erbaulichen Predigten über die Sonn- und Festtagsevangelien, aufgekläret, vertheidiget und zu einer gottgefälligen Ausübung angewendet werden"
"009484221","90268962","Aav","Johann Justinus Gebauer","116473207","Gebauer","Halle","1757","Denkmal schuldiger Liebe und Hochachtung dem Andenken des Wohlgebohrnen und Hochgelehrten Herrn Herrn D. Michael Alberti Sr. Königl. Majest. in Preussen Hof- und Magdeburgischer Consistorial-Rath ... Welcher ... den 17ten Mai 1757 das Zeitliche mit dem Ewigen verwechselte ... geweihet von der königl. preußischen Friederichsuniversität zu Halle"
"009484205","90268954","Aav","Johann Justinus Gebauer","116473207","Gebauer","Halle","1757","Als der Wohlgebohrne und Hochgelehrte Herr Herr D. Michael Alberti Königl. Preußischer Hof- und Magdeburgischer Consistorialrath ... den 17ten Mai 1757 ... verschied bezeugte ihr egebenstes Mitleid die medicinische Facultät der Akademie zu Halle"
"008400628","13478648","Aav","Johann Justinus Gebauer","116473207","Gebauer","Halle","1757","Siegmund Jacob Baumgartens Entwurf verschiedener homiletischen Zergliederungen oder Dispositionen von Predigten über alle son- und festtägliche Episteln des ganzen Jahrs"
"007393032","1188519X","Aav","Johann Justinus Gebauer","116473207","Gebauer","Halle","1757","Moralische Gedanken von der Andächteley"
"006628354","11262281","Aav","Johann Justinus Gebauer","116473207","Gebauer","Halae","1757","Brevi Tractatione De Ivre Singvlorvm Praemissa Lectiones Academicas Instante Hoc Semestri Svb Svmmi Nvminis Avspiciis Habendas Annvnciat Ernestvs Christianvs Westphal I. V. D."
"006603327","11243864","Aav","","","Gebauer","Halle","1757","D. Joh. Salom. Semlers kurze Vorstellung wider die neue dreifache Paraphrasin über das Hohe Lied"
"006547788","11202688","Aav","Johann Justinus Gebauer","116473207","Gebauer","Halae Magdeb.","1757","Qvaestionvm Scholasticarvm Problema Secvndvm Qvo De Moribvs Ferarvm Exponitvr Et Actvs Oratorivs A. D. VII. Januar. MDCCLVII In Avditorio Classis Primae Gymnas. Hal. Celebrandvs Indicitvr"
"006504337","11171170","Aav","Johann Justinus Gebauer","116473207","Gebauer","Halle","1757","M. August Hertzogs weil. Jnsp. und Past. zu Löbejün Christenthums-Grund"
"006416446","11112468","Aav","Johann Justinus Gebauer","116473207","Gebauer","Halle","1757","Die Wunder der Macht und Güte Gottes im Kriege und Siege"
"005448220","1043500X","Aav","Johann Immanuel Gebauer","1037512014","Gebauer","Halle","1757","Leopold Frantz Friderich Lehrs, ehemaligen wohlverdienten und gesegneten Predigers der Evang. Lutherischen Gemeine in Cöthen, himlisches Vergnügen in Gott und Christo: bestehend in geistlichen Gedichten. Zusammen getragen und mit einer Vorrede durch den Druck bekant gemacht, auch mit einigen geistlichen Oden vermehret"
"005407907","10411976","Aav","Johann Justinus Gebauer","116473207","Gebauer","Halae Magdeb.","1757","D. Io. Salom. Semleri Theologiae P. P. O. In Regia Fridericiana Societatis Latinae Ienensis Membri Honarii Spicilegivm Critico-Theologicvm De Avctoritate Archaeologiae Ad Flavianam Exercitationem Lipsiensem Primam"
"00521565X","1031136X","Aav","Johann Justinus Gebauer","116473207","Gebauer","Halle","1757","D. Siegmund Jacob Baumgartens Auslegung der Leidens- Sterbens- und Auferstehungsgeschichte Jesu Christi nach harmonischer Ordnung der vier Lebensbeschreibungen desselben"
"026206579","90560868","Aav","Johann Justinus Gebauer","116473207","Gebauer","Halle","1758","Die unrichtigen Begriffe von der Obrist-Reichs-Richterlichen Gewalt des Kaisers"
"021287759","10583661","Aav","Johann Justinus Gebauer","","Gebauer","Halle","1758","Ehrengedächtnis des weiland Hochwürdigen und Hochgelarten Herrn Herrn Siegmund Jacob Baumgartens, der heil. Schrift Doctors"
"021280045","10576444","Aav","Johann Justinus Gebauer","","Gebauer","Halae Magdeburg","1758","Disputatur De Divina Providentia Futura Mortalibus Fata Sapientissime Occultante Et Actus Oratiorius"
"009348158","90179676","Aav","Johann Justinus Gebauer","116473207","Gebauer","Halle","1758","Die unrichtigen Begriffe von der Obrist-Reichs-Richterlichen Gewalt des Kaisers"
"007347235","1184860X","Aav","Johann Justinus Gebauer","116473207","Gebauer","Halle","1758","Poetische Erzählungen von den vornemsten Thaten Friedrichs des Grossen und Seiner Helden in dem jetzigen Kriege"
"00641950X","11114517","Aav","Johann Justinus Gebauer","116473207","Gebauer","Halle","1758","Denkmal der über Halle waltenden Güte Gottes bey Gelegenheit des herlichen Sieges, welchen Gott den Waffen Sr. Königl. Majestät in Preussen über die vereinigte feindliche Armee am 5. November 1757 bey Roßbach im Stift Merseburg verliehen"
"005281997","10344349","Aav","Johann Justinus Gebauer","116473207","Gebauer","Halle","1758","Der Frau Maria le Prince de Beaumont Lehren der Tugend und Weisheit für die Jugend"
"023128348","11094362","Aav","","","Gebauer","Halle","1759","Siegm. Jac. Baumgartens Unterricht von Auslegung der heil. Schrift ehemals für seine Zuhörer ausgefertiget"
"006546277","1120172X","Aav","Johann Justinus Gebauer","116473207","Gebauer","Halle","1759","Die gerechten Klagen und Thränen bey dem Grabe des Hochehrwürdigen und Hochgelahrten Herrn Herrn Johann Christian Merian wohlverdienten ... Seelsorgers, der Gemeinden zu Falkenhagen, Prödel ... nachdem Derselbe den ersten Februar 1759 im 66sten Jahre Seines ... Lebens ... in die ewigen Hütten des Friedens abgefordert ... weihet aus kindlicher Liebe ... des Wohlseeligen hinterlassener einziger Sohn Carl Christian Merian d. h. G. G. B."
"006099637","10903119","Aav","","","gedruckt bey Johann Justinus Gebauer","Halle","1759","Jus Theelachticum Redivivum, oder Neu revidirtes Theel-Recht"
"021279276","10575707","Aav","Johann Justinus Gebauer","","Gebauer","Halle","1760","George Friedrich Meiers ...Auszug aus der Vernunftlehre"
"006503098","11170328","Aav","Johann Justinus Gebauer","116473207","Gebauer","Halle","1760","Der Gerechte als ein Palmbaum, der auch unter der Last grünet und wächset"
"023007532","10533311","Aav","","","Gebauer","Halle","1761","D. Siegmund Jacob Baumgartens Auslegung der beiden Briefe St. Pauli an die Corinthier"
"023005041","10532315","Aav","","","Gebauer","Halle","1761","Versuch den Gebrauch der Quellen in der Staats- und Kirchengeschichte der mitlern Zeiten zu erleichtern"
"020111703","10201807","Aav","Johann Justinus Gebauer","","Gebauer","Halle","1761","Siegm. Jac. Baumgartens Erleuterungen der im christlichen Concordienbuch enthaltenen symbolischen Schriften der evangelischlutherischen Kirche"
"006547672","11202610","Aav","Johann Justinus Gebauer","116473207","Gebauer","Hallae Magdeb.","1761","Filvm Qvod In Rvdimentis Historiae Litterariae Hvc Vsqve In Scholis Svis Seqvvtvs est, Svis, In Svavissimo Hoc Itinere Comitibvs"
"005281490","1034408X","Aav","Johann Justinus Gebauer","116473207","Gebauer u. Stettin","Halle","1761","Samuel Lentzens Hochfürstlich-Cöthenschen Hof- und Weimarischen Regierungs-Raths Stamm-Tafeln aus Dessen Historisch-Genealogischen Untersuchungen entworfen so viel derselben zur Reichs-Historie dienlich und nöthig sind"
"023127228","10744118","Aav","","","Gebauer","Halle","1762","D. Siegmund Jacob Baumgartens Auslegung des Evangelii St. Johannis"
"020183003","1036482X","Aav","Johann Immanuel Gebauer","","Gebauer","Halle","1762","Georg Friedrich Meiers der Weltweisheit ordentlichen Lehrers und der Berlinschen Academie der Wissenschaften Mitgliedes Gedanken vom Philosophischen Predigen"
"006478484","11153261","Aav","Johann Justinus Gebauer","116473207","Gebauer","Halle","1762","Das hohe Geburtsfest Friedrichs des Grossen"
"006394779","11098155","Aav","Johann Justinus Gebauer","116473207","Gebauer","Halle","1762","Kurzer Bericht von einer zu Doetinchem oder Deutecom im holländischen Geldern im Jahr 1761 neu errichteten hochdeutschen Gemeine von der Augsburgschen Confeßion, welche daselbst das freye exercitium religionis erhalten ... weil solches das erste Exempel in den holländischen Provinzien"
"005268877","10337164","Aav","Johann Immanuel Gebauer","1037512014","Gebauer","Halle","1762","D. Joh. Salomo Semlers ordentlichen öffentlichen Lehrers der Gottesgelartheit auf der königl. preußl. Friedrichsuniversität, umständliche Untersuchung der dämonischen Leute oder so genannten Besessenen, nebst Beantwortung einiger Angriffe"
"023031557","10201793","Aav","","","Gebauer","Halle","1763","D. Siegmund Jacob Baumgartens Erklärung des Briefes St. Pauli an die Hebräer"
"022691715","14032724","Aav","","","Gebauer","Halae","1763","De Cura Quam Praesens Textus Hebraei Conditio Requirit Dissertatio"
"020135955","10223762","Aav","Johann Justinus Gebauer","","Gebauer","Halle","1763","Johann Arndts weiland Generalsuperintendentens des Führstenthums Lüneburg Sechs Bücher vom wahren Christenthum"
"00755964X","12138053","Aav","","","Chez Jean Emanuel Gebauer","Halle","1763","Nouvel Abrégé De La Vie De Divers Princes Illustres Et Des Grands Capitaines"
"005280265","10343423","Aav","Johann Justinus Gebauer","116473207","Gebauer","Halle","1763","Der Glorreiche Friede im Jahre 1763"
"004771443","10057536","Aav","Johann Justinus Gebauer","116473207","Gebauer","Halle","1763","D. Siegmund Jacob Baumgartens Erklärung des Briefes St. Pauli an die Hebräer"
"02529640X","11202343","Aav","Johann Immanuel Gebauer","1037512014","Gebauer","Halle","1764","Als der Magnificus Hochwürdige und Hochgelahrte Herr, Herr D. Christian Benedict Michaelis, der theologischen Facultät, z. Z. Decanus, Senior der Academie, der Gottes-Gelahrtheit und Griechischen sowol als Morgenländischen Sprachen öffentlicher ordentlicher Lehrer auf der Friedrichs-Universität zu Halle, der königl. Frey-Tische Ephoro, Aufseher der Universitäts-Bibliothec, Mitglied der Königl. Preuß. Soc. der Wissenschaften zu Berlin, den 26sten Januar 1764 das Andenken Seines funfzig Jahr rühmlich geführten academischen Lehr-Amtes und glücklich erlebten fünf und achzigsten Geburtstages begieng, weiheten Seiner Hochwürdigen Magnificenz ihre ehrfurchtsvollen Wünsche"
"021283559","10579699","Aav","Johann Justinus Gebauer","","Gebauer","Halle","1764","Ode dem hohen Geburtstage am 1sten August 1764 der ... Frauen Fried. Sophia Charlotta Augusta Erb- und Landes-Prinzeßin zu Würtemberg-Oels und Bernstadt u. w. in unterthänigster Ehrfurcht geheiligt"
"007203047","11729775","Aav","Johann Justinus Gebauer","116473207","Gebauer","Halae Magdeburgicae","1764","Ad Publicam Orationem Qua Viro Summe Reverendo ... Christiano Benedicto Michaelis Philosophiae Et Theologiae Doctori Huiusque Ac Linguarum Graecae Et Orientalium Professori Public. Ordin. ... Die XXVI: Ianuarii H. X. In Auditorio Publico Pietatem Suam Et Observantiam Civium Nostrorum Nobilissimorum Theologiae Studiosorum Numerus Non Exiguus Testatam Faciet Serenissimum Principem Anhalt. Bernburgicum Utriusque Reipublicae Proceres Illustrissimos Comites ... Quam Humanissime Invitat Academ. Frider. Prorector Ac Director Johannes Tobias Carrach Reg. Maiest. A Consiliis Intimes, Fac. Iurid. Ordninarius Profess. Iuris Primar. ... Praemittitur Brevis Disputatio De Luculentis Sapientiae Atque Benignitatis Divinae Vestigiis In Variis Per Varia Temporis Spatia Vitae Humanae Terminis Et Senectutis Conditionibus Aequissimis"
"005157587","10283455","Aav","Johann Justinus Gebauer","116473207","Gebauer","Halae Magdeb.","1764","D. Johan. Salom. Semleri Admonitio De Observandis Hebraicorum Manuscriptorum Membranis, Quae Tegendis Aliis Libris Serviunt"
"021298009","10593330","Aav","Johann Justinus Gebauer","","Gebauer","Halle","1765","Die Unterweisung eines Vaters zu einen fünfjährigen Academischen Fleis und Lebenswandel"
"021237751","10536388","Aav","Johann Immanuel Gebauer","","Gebauer","Halle","1765","Betrachtungen über des Kayser Julians Abfall von der Christlichen Religion und Vertheidigung des Heidenthums"
"00663818X","11269618","Aav","","","verlegt von Johann Immanuel Gebauer","Halle","1765","Herrn Carl Tomkins Vertheidigung der apostolischen Lehre von Jesu Christo, dem Mittler zwischen Gott und Menschen"
"006547834","11202734","Aav","Johann Justinus Gebauer Erben","6146495-8","Gebauer","Halle","1765","M. Johann Peter Miller's Schule des Vergnügens"
"006547699","11202629","Aav","Johann Justinus Gebauer","116473207","Gebauer","Halle","1765","Die Hofnung besserer Zeiten für die Schulen"
"006502806","11170123","Aav","","","bey Johann Justinus Gebauer","Halle","1765","Nicolaus Friedrich Herbsts, Königl. Preußl. Consistorial-Raths und Superintendentens des Fürstenthums Minden und Pastoris primarii in Petershagen Betrachtungen über die Glaubens-Lehren der Heil. Schrift"
"006063705","10878734","Aav","Johann Immanuel Gebauer","1037512014","Gebauer","Halle","1765","Denkmaal ehelicher und väterlicher Liebe"
"005383803","10397698","Aav","Johann Justinus Gebauer","116473207","Gebauer","Hallae","1765","Sacra Saecvlaria In Ivbilaeo Secvndo Gymnasii Evangelico-Lvtherani Ante Hos CC. Annos Sollemni Ritv Inavgvrati Celebranda Et Orationes Cvm Sacram Tvm Saecvlarem In Aede Gymnasii A. D. XXVIII Avg. Ab Hor. Matvt. IX. Habendas Indicit M. Ioannes Petrvs Miller Gymn. Rector"
"006718450","11332891","Aav","Johann Justinus Gebauer","116473207","Gebauer","Hallae Magdeburgicae","1766","De Orthodoxia Cvm Dogmatica, Tvm Ethica Ivste Invicem Conivgenda"
"006718434","11332883","Aav","Johann Justinus Gebauer","116473207","Gebauer","Halae","1766","Ad Inavgvralem Dispvtationem Viri S. Reverendi Excelllentissimi Atqve Clarissimi Domini Io. Petri Milleri Gymnasii Halensi Nvper Rectoris Meritissimi Nvnc Ad Academiam Gottingensem Vocati Professoris Theologiae Ordinarii Qvam Pro Gradv Doctoris Theologi Impetrando Ad D. XVII. Septembris Pvblice Defendet ... Eos Invitat D. Io. Avgvstvs Noesselt Theol. Ordin. Professor ..."
"006662358","11289058","Aav","","","bey Johann Justinus Gebauer","Halle","1766","Die Empfindungen eines Herzens in geistlichen Gesängen von dem äuserlich- und innerlichen Gottesdienste aus den Sonn- und Festtagsevangelien mitgetheilet"
"006547753","11202661","Aav","Officina Gebaueriana|||Johann Justinus Gebauer","104526539X|||116473207","Typis Exscripsit Io. Iust. Gebauer","Hallae Magd.","1766","Oratio Saecvlaris Dicta In Ivbilaeo Altero Gymnasii Hallensis Evang. Lvth. In Aede Gymnasii A. D. XXIX. Avg. MDCCLXV. A M.  Ioanne Petro Millero Rectore"
"006547648","11202599","Aav","Johann Justinus Gebauer","116473207","Gebauer","Hallae Magdeb.","1766","Doctrinam De Gradibvs Beatitatis Fvtvrae Ivvenilis Pietatis Incitamentvm"
"022999507","10528911","Aav","","","Gebauer","Halle","1767","Herrn Thomas Abbts Bückeburgischen Hof-und Regierungs-Raths Fragment der ältesten Begebenheiten des menschlichen Geschlechts"
"022653465","15336352","Aav","","","Gebauer","Halle","1767","Historisch-diplomatische Geschichte der Altstadt Colberg"
"021249156","10547266","Aav","Johann Justinus Gebauer","","Gebauer","Halle","1767","Siegmund Jacob Baumgartens ausführlicher Vortrag der Theologischen Moral"
"020143354","1023019X","Aav","Johann Justinus Gebauer","","Gebauer","Halle","1767","D. Siegmund Jacob Baumgartens Auslegung der Briefe Pauli an die Galater, Epheser, Philipper, Colosser, Philemon und Thessalonicher"
"009193529","90018788","Aav","Johann Justinus Gebauer|||Johann Jakob Gebauer","116473207|||116473169","Gebauer","Halle","1767","Das Leben und der Character des Hochwohlgebohrnen Herrn Herrn Johann Ernst von Breitenbauch weiland Herrn auf Petzkendorf, Ranis und Burgranis wie auch Königl. Preußischen Hauptmanns des Hochseeligen hinterlassenen Kindern zur Nachahmung entworfen"
"007156669","11695528","Aav","","","bey Johann Justinus Gebauer","Halle","1767","Ernst August Bertlings, der Theologie Professors, Rectors und Pastors zu Danzig, Neue Harmonie der vier Evangelisten"
"006745024","11353260","Aav","Johann Justinus Gebauer","116473207","Gebauer","À Halle","1767","Dictionnaire Instructif, Où L'On Trouve Les Principaux Termes Des Sciences Et Des Arts Dont L'Explication Peut Être Utile Ou Agréable Aux Personnes Qui N'ont Pas Fait Des Études Approfondies"
"006502822","1117014X","Aav","","","zu finden bey Johann Justinus Gebauer","Halle","1767","Betrachtungen über die Tugend- und Sittenlehre der gereinigten christlichen Religion"
"006314791","1104750X","Aav","Johann Immanuel Gebauer","1037512014","Gebauer","Halle","1767","Romanzen"
"008484430","14376962","Aav","","","bey Johann Justinus Gebauer","Halle","1768","Geschichte der Schiffahrten und Versuche, welche zur Entdeckung des Nordöstlichen Weges nach Japan und China von verschiedenen Nationen unternommen worden"
"006569048","11218460","Aav","","","bey Johann Justinus Gebauer","Halle","1768","D. Siegm. Jac. Baumgartens Theologische Moral in Tabellen"
"005912024","90456424","Aav","Johann Justinus Gebauer","116473207","Gebauer","Halle","1768","Herrn Peter Roques Gestalt eines Evangelischen Lehrers nebst einem Anhang so Desselben auserlesene Predigten über einige wichtige Pflichten der Sittenlehre Jesu enthält"
"023135441","11239433","Aav","","","Gebauer","Halle","1769","Anthropotheologia das ist Anweisung wie man aus der Betrachtung des Menschen nemlich seines Leibes, dessen Glieder und deren Verrichtungen der Seele und ihren Kräften Vermehrung und Unterhaltung des menschlichen Geschlechtes, des Lebens, der Geburt, des Alters, Lebensziels, Krankheiten, Todes, und Auferstehung von den Toden [et]c. die Allmacht, Weisheit, Gerechtigkeit, Güte und Vorsorge Gottes erkennen könne zur Verherrlichung des grossen Gottes und Erbauung des Nechsten"
"021290741","1058644X","Aav","Johann Justinus Gebauer","","Gebauer","Halle","1769","Ausführliche Nachricht von den Churfürstlich-Sächsischen Land- und Ausschußtägen von 1185. bis 1728"
"021281823","10578099","Aav","Johann Justinus Gebauer","","Gebauer","Halle","1769","Von dem menschlichen Verstande und den nothwendigen Vernunftwahrheiten die man den zufälligen entgegen setzt"
"007160178","11698187","Aav","Johann Immanuel Gebauer","1037512014","Gebauer","Halle","1769","Ollivier"
"006503071","11170301","Aav","Johann Justinus Gebauer|||Johann Jakob Gebauer","116473207|||116473169","Gebauer","Halle","1769","Betrachtungswürdige Fußstapfen der geschäftigen Taufgnade in dem kurzen Lebenslaufe weiland Fräulein Carolinen Augusten Elisabeth des Hochwohlgebohrnen Herrn Herrn Carl Casimir von Beust Churfürstl. Sächsischen Cammerjunkers Herrn auf Langenorl und Saalthal ältester Fräulein Tochter welche am 2ten Junii 1769 in Crumpa seelig entschlief in einer Trauerrede bemerkt von M. Gottlob Hering, Pfarr. in Crumpa"
"00659672X","1123900X","Aav","Johann Jakob Gebauer","116473169","Gebauer","Halle","1770","Biographien Griechischer Aerzte"
"005424054","10421076","Aav","Johann Justinus Gebauer","116473207","Gebauer","Halae","1771","Dissertatio Inavgvralis Medica De Methodo Morbos Inflammatorios A Fvlmine Ortos Cvrandi"
"005222168","10314563","Aav","Johann Justinus Gebauer","116473207","Gebauer","Halle","1771","Abris der römischen Geschichte von dem Ursprunge ihres Staats an bis auf den Untergang des abend- und morgenländischen Kaiserthums"
"023139307","11048689","Aav","","","Gebauer","Halle","1772","Herrn Johann Georg Palm, weiland Hauptpastoris zu S. Petri, und Senioris E.E. Ministerii in Hamburg, Historie der deutschen Bibel-Uebersetzung D. Martini Lutheri"
"023133651","1104215X","Aav","","","Gebauer","Halle","1772","Johann Ludolph Lyßmanns, gewesenen Predigers zu Closter Meding, und nachherigen Superintendenten zu Fallersleben, Historische Nachricht von dem Ursprunge, Anwachs und Schicksalen des im Lüneburgischen Herzogthum belegenen Closters Meding, dessen Pröbsten, Priorinnen und Abbatißinnen"
"020108532","10198881","Aav","Johann Justinus Gebauer","","Gebauer","Halle","1772","Herrn Johann Georg Palm, weiland Hauptpastoris zu S. Petri ... in Hamburg Historie der deutschen Bibel-Uebersetzung D. Martini Lutheri von dem Jahr 1517 an bis 1534"
"00638742X","11093293","Aav","Officina Gebaueriana|||Johann Bernhard: Libri elementaris pars ... sive prima educationis elementa$CGBV Digitalisierte Ausg.$aBasedow","104526539X","Gebauer","Halae","1772","Libri Elementaris Pars ... Sive Prima Edvcationis Elementa"
"024473146","13602594","Aav","","","Gebauer","Halle","1773","Des Vaters Josephs Torrubia Vorbereitung zur Naturgeschichte von Spanien"
"023137967","11101679","Aav","","","Gebauer","Halle","1773","Herrn Karl Bonnets Abhandlungen aus der Insektologie"
"009275495","90103947","Aav","Johann Jakob Gebauer","116473169","Gebauer","Halle","1773","Heinr. Matth. Aug. Cramers Adiunctus des Ministerii zu Quedlinburg Nachrichten zur Geschichte der Herculanischen Entdeckungen."
"006398227","11100583","Aav","Johann Justinus Gebauer Erben","6146495-8","Gebauer","Halle","1773","M. Jmm. Karl Heinr. Börners Sämmtliche Kameral-Wissenschaften nach ihren ersten Grundsätzen"
"006305091","11041714","Aav","Johann Jakob Gebauer","116473169","Gebauer","Halle","1773","Heinr. Matth. Aug. Cramers Adiunctus des Ministerii zu Quedlinburg Nachrichten zur Geschichte der Herculanischen Entdeckungen."
"005271622","10338675","Aav","Johann Justinus Gebauer Erben|||Johann Jakob Gebauer","6146495-8|||116473169","Gebauer","Halle","1773","Unterschied der freien und mechanischen Malerey"
"02300178X","10542965","Aav","","","bei J.J. Gebauers Witwe und J. Jac. Gebauer","Halle","1774","Geschichte von den Seelen der Menschen und Thiere"
"021261229","10558659","Aav","Marie Sophie Gebauer|||Johann Jakob Gebauer","","Gebauer","Halle","1774","Predigten für Familien"
"006515215","11179058","Aav","Johann Justinus Gebauer Erben","6146495-8","Gebauer","Halle","1774","Die Weissagungen des Propheten Jesaias"
"023000937","10558284","Aav","","","bey Gebauers Wittwe und Joh. Jac. Gebauer","Halle","1775","Untersuchung über die Sittenlehre der Alten"
"022637842","10403647","Aav","","","Gebauer","Halle","1775","Leben und Charakter des seligen Herrn Oberconsistorialraths und Inspectors, D. Friedrich Eberhard Rambach"
"021242658","10541071","Aav","Johann Justinus Gebauer <Erben>","","Gebauer","Halae Magdeburgicae","1775","Semioticae Physiologicam Et Pathologicam Generalem Complexa"
"01524752X","15236366","Aav","","","bey Joh. Just. Bebauers Wittwe, und Joh. Jacob Gebauer","Halle","1775","Johann Melchior Goezens Hauptpastors zu St. Catharinen in Hamburg Versuch einer Historie der gedruckten Niedersächsischen Bibeln vom Jahr 1470 bis 1621"
"009191852","90017838","Aav","Johann Justinus Gebauer Erben","6146495-8","Gebauer","Halle","1775","Der Koran, oder Das Gesetz für die Moslemer, durch Muhammed den Sohn Abdall."
"005237726","1032223X","Aav","Johann Justinus Gebauer Erben|||Johann Jakob Gebauer","6146495-8|||116473169","Gebauer","Halle","1775","Die Frage: Ob Christus wahrer Gott sey? Aus den neuesten Offenbarungen Gottes in Briefen und Erzählungen, verdeutschet von Hrn. D. Carl Friedrich Bahrdt, der Theologie ordentlicher Lehrer, des Consistorii Assessor, Definitor und Prediger an der St. Pancratiuskirche zu Giessen, beantwortet"
"023132833","11056355","Aav","","","Gebauer","Halle","1776","Biographie Kaisers Carls des Sechsten"
"006574181","11222255","Aav","","","bey J. J. Gebauers Witwe und Joh. Jacob Gebauer","Halle","1776","Betrachtungen und Gebete den Landleuten bey ihrer Mühe und Arbeit"
"006542093","11198591","Aav","","","bey J. J. Gebauers Witwe und Joh. Jacob Gebauer","Halle","1776","Ein Versuch über die symbolische Offenbarung Gottes in den verschiedenen Verfassungen seines Reiches"
"006468535","11146761","Aav","Johann Justinus Gebauer Erben","6146495-8","Gebauer","Halle","1776","Ueber die Schönheiten des poetischen Enthusiasmus"
"023129956","11142464","Aav","","","Gebauer","Halle","1777","Joann Melchior Goezens Hauptpastors zu St. Catharinen in Hamburg Verzeichnis seiner Samlung seltener und merkwürdiger Bibeln in verschiedenen Sprachen"
"023010746","11367849","Aav","","","Gebauer","Halae","1777","Ioachimi Camerarii De Vita Philippi Melanchthonis Narratio"
"022693866","13053744","Aav","","","Gebauer","Halle","1777","Zusätze und wichtigere Veränderungen im ersten und zweeten Theil der Charakteristick der Bibel"
"006503128","11170352","Aav","Johann Jakob Gebauer","116473169","Gebauer","Halle","1777","Anthropologische und pnevmatologische Aphorismen"
"006449336","11134720","Aav","Johann Jakob Gebauer","116473169","Gebauer","Halle","1777","Benjamin Blayney Predigers an der Königlichen Kapelle zu Whitehall neuer Versuch über die Weissagung Daniel IX, 20 - 27. oder die sogenannten siebenzig Jahrwochen"
"006433073","11124008","Aav","Johann Jakob Gebauer","116473169","Gebauer","Halle","1777","Unterredungen verstorbener Personen über wichtige Begebenheiten der ältern, mittlern und neuern Geschichte"
"004772318","10058117","Aav","Johann Jakob Gebauer","116473169","Gebauer","Halle","1777","Der Talmudische Tractat Brachoth von den Lob-Sprüchen als das erste Buch im ersten Theil nach der Hierosolymitan- und Babylonischen Gemara"
"020879105","11405619","Aav","Johann Jakob Gebauer","","Gebauer","Halae","1778","Via Et Ratio Formulas Medicas Conscribendi"
"020135025","10222952","Aav","Johann Jakob Gebauer","","Gebauer","Halle","1778","Die Psalmen"
"006528902","11189118","Aav","Johann Jakob Gebauer","116473169","Gebauer","Halle","1778","Leben Georg Friedrich Meiers"
"005393787","10403663","Aav","Johann Jakob Gebauer","116473169","Gebauer","Halle","1778","Archäologische Untersuchungen"
"022977295","11815965","Aav","","","Gebauer","Halle","1779","Versuche über die sämmtlichen Weissagungen Daniels, nebst Anmerkungen über die berühmtesten Erklärer desselben"
"022693874","1343876X","Aav","","","Gebauer","Halle","1779","Ueber das Leben und Charakter Davids"
"021144230","11640901","Aav","Johann Jakob Gebauer","","Gebauer","Halle","1779","Ueber das schüchterne Wesen unsrer paradox gesonnenen Geistlichen"
"020943563","11460474","Aav","Johann Jakob Gebauer","","Gebauer","Halle","1779","Die Geschichte der Flußconchylien mit vorzüglicher Rücksicht auf diejenigen welche in den thüringischen Wassern leben"
"007407904","11897929","Aav","Johann Jakob Gebauer","116473169","Gebauer","Halle","1779","Philosophische Briefe an meine Schwester, über den Menschen nach seinen verschiedenen Verhältnissen"
"007184972","11715758","Aav","Johann Jakob Gebauer","116473169","Gebauer","Halle","1779","Betrachtungen über Erziehung der Söhne und Töchter, aus Erfahrung gesammlet"
"006349455","11069082","Aav","","","Apud Ioannem Iacobum Gebauer","Halae","1779","Io. Christ. Wilh. De Steck Observationum Subsecivarum Specimen"
"005744083","10658238","Aav","Johann Jakob Gebauer","116473169","Gebauer","Halle","1779","Ueber den Werth der humanistischen Wissenschaften zur Bildung der Jugend, und der dahin führenden Lehrmethode"
"022609709","1108927X","Aav","","","Gebauer","Halle","1780","Galanterie-Mineralogie und Vorschläge zur Naturwissenschaft für die Damen"
"02107156X","11573961","Aav","Johann Jakob Gebauer","","Gebauer","Halle","1780","Des Publius Ovidius Naso fünf Bücher Trauergedichte"
"020967780","11482265","Aav","Johann Jakob Gebauer","","Gebauer","Halae","1780","Tentamen De Catalepsi"
"020159234","10243992","Aav","Johann Jakob Gebauer","","Gebauer","Halae","1780","Tractatus Pathologicus De Catalepsi"
"007352999","11852860","Aav","Johann Jakob Gebauer","116473169","Gebauer","Halle","1780","Jakob Harris Abhandlungen über Kunst, Musik, Dichtkunst und Glückseligkeit ; Aus dem Englischen, nach der dritten sehr vermehrten und verbesserten Londner Ausgabe übersetzt"
"007337779","11841869","Aav","Johann Jakob Gebauer","116473169","Gebauer","Halle","1780","Gedichte des Herrn Johann von Alxinger"
"007246676","11766107","Aav","Johann Jakob Gebauer","116473169","Gebauer","Halle","1780","Taufhandlung mit einer erwachsenen Mennonitin Tochter nebst ihrem abgelegten Glaubensbekenntniß beym öffentlichen Nachmittags-Gottesdienst verrichtet zu Driesen am 8ten Sonntage nach Trinitatis den 16ten Jul. 1780."
"007185170","1171591X","Aav","Johann Jakob Gebauer","116473169","Gebauer","Halle","1780","Johann Jakob Mochels Reliquien verschiedener philosophischen, pädagogischen, poetischen und anderer Aufsätze"
"006630901","11264039","Aav","Johann Jakob Gebauer","116473169","Gebauer","Halle","1780","Moralische und Historische Denkwürdigkeiten"
"006353762","11072067","Aav","Johann Jakob Gebauer","116473169","Gebauer","Halae","1780","Xenophōntos Apomnēmoneumatōn Sōkratus Bibloi 4."
"004916050","10158952","Aav","Johann Jakob Gebauer","116473169","Gebauer","Halle","1780","Ueber die Sittlichkeit des Theaters"
"004703812","1000663X","Aav","Johann Jakob Gebauer","116473169","Gebauer","Halle","1780","Anhang zu Benjamin Blayney neuem Versuche über die Weissagung Daniel IX, 20 - 27. enthaltend Johann Cayerhills chronologische Tafeln, ohne welche keine wahrscheinliche Erklärung dieser Stelle versucht werden kann"
"020204817","10383549","Aav","Johann Jakob Gebauer","","Gebauer","Halle","1781","Mohammeds Leben in drey Büchern"
"005432049","10425519","Aav","Johann Jakob Gebauer","116473169","Gebauer","Halle","1781","Eine Probe von den bürgerlichen und kriegerischen Grundsätzen des Timur oder Tamerlan"
"022638962","15321851","Aav","","","Gebauer","Halle","1782","Ueber Gotthold Ephraim Lessing's Genie und Schriften"
"02082498X","11362367","Aav","Johann Jakob Gebauer","","Gebauer","Halae","1782","J. L. E. Püttmanni Antecessoris LipsiensisDe Thrasonismo Litterario Commentatio"
"006564429","11215178","Aav","Johann Jakob Gebauer","116473169","[J. Jak. Gebauer]","[Halle]","1782","Vermischte Phantasien an einige Pariser Schönen"
"005839319","1071345X","Aav","Johann Jakob Gebauer","116473169","Gebauer","Halle","1782","Ueber die Aufklärung des Landvolks"
"005686709","10621911","Aav","Johann Jakob Gebauer","116473169","Gebauer","Halle","1782","Versuch über Handels- und Schiffahrtsverträge"
"005220343","10313656","Aav","Johann Jakob Gebauer","116473169","Gebauer","Halle","1782","Lehrbuch für die neueste Polemik, oder Grundriß einer litterarischen und theologischen Einleitung in die Kenntniß und Beurtheilung der seit fünf und zwanzig Jahren in der evangelischen Kirche über das System und Bekenntniß der Religionswahrheiten, über Vorstellungsarten der christlichen Lehre und andere zum Kirchenwesen gehörige Stücke, entstandenen Irrungen"
"022679898","11071575","Aav","","","bey Johann Jacob Gebauer","Halle","1783","D. Johann Salomo Semlers Nachlese zur Bonnetischen Insektologie"
"022663355","15346250","Aav","","","Gebauer","Halae Saxon","1783","Theogonia Hesiodea"
"022649719","15332608","Aav","","","bey Johann Jacob Gebauer","Halle","1783","Ueber den Aberglauben bey Ertrunkenen"
"020931522","11450134","Aav","Johann Jakob Gebauer","","Gebauer","Halle","1783","Commentar über die Commentarien des Cäsar"
"020107277","10197737","Aav","Johann Jakob Gebauer","","Gebauer","Halle","1783","Hugh Farmer's Briefe an D. Worthington über die Dämonischen in den Evangelien"
"014270862","90549325","Aav","","","bey Johann Jocob Gebauer","Halle","1783","Beyträge zur Geschichte des teutschen Bergbaus, vornehmlich aus den mittlern und spätern Jahrhunderten unserer Zeitrechnung"
"006620302","11256117","Aav","Johann Jakob Gebauer","116473169","Gebauer","Halle","1783","Die Briefe der Apostel Petrus, Johannes, Jacobus und Judas"
"006605532","11245425","Aav","Johann Jakob Gebauer","116473169","Gebauer","Halle","1783","Venus und Adonis; Tarquin und Lukrezia. Zwei Gedichte"
"006597483","11239522","Aav","Johann Jakob Gebauer","116473169","Gebauer","Halle","1783","Methodenbuch für angehende Lerer die den ersten Cursus des Neuen Elementarwerks bei ihrem Unterrichte zum Grunde legen"
"006425070","11118407","Aav","","","bey Johann Jacob Gebauer","Halle","1783","Ueber die Zeichen der Aufklärung einer Nation"
"006344828","11066024","Aav","","","bey Johann Jacob Gebauer","Halle","1783","Ueber den Krieg der Engländer in Ostindien"
"006327125","11055073","Aav","Johann Jakob Gebauer","116473169","Gebauer","Halle","1783","Zusätze zu Herrn O. C. R. Tellers Schrift über Herrn D. Ernesti Verdienste"
"005760372","10667989","Aav","Johann Jakob Gebauer","116473169","Gebauer","Halle","1783","Ode auf den Tod des Ritters Anton Raphael Mengs"
"023016116","11485043","Aav","","","Gebauer","Halle","1784","Heinrich Sanders gutes Leben und Ende"
"022672796","11642815","Aav","Johann Jakob Gebauer","116473169","Gebauer","Halle","1784","George Wilh. Constantins von Wilcke Sammlung der wichtigsten Regeln in der Küchen-Gärtnerey"
"021051356","11555890","Aav","Johann Jakob Gebauer","","Gebauer","Halle","1784","Anfangsgründe der Differenzial- und Integral-Rechnung zum Gebrauch des Ingenieurs und Artilleristen"
"020931123","11449748","Aav","Johann Jakob Gebauer","","Gebauer","Halle","1784","Deutsches Kirchenwörterbuch"
"020175914","10358773","Aav","Johann Jakob Gebauer","","Gebauer","Halle","1784","Ueber die Gespensterfurcht"
"02013276X","10220984","Aav","Johann Jakob Gebauer","","Gebauer","Halle","1784","Versuch einer critischen englischen Sprachlehre"
"00742566X","11912677","Aav","Johann Jakob Gebauer","116473169","Verl. d. Vernunfthauses|||[Gebauer]","Ebenezer|||[Halle]","1784","Horus oder Astrognostisches Endurtheil über die Offenbarung Johannis und über die Weissagungen auf den Messias wie auch über Jesum und seine Jünger"
"007387571","11880449","Aav","Johann Jakob Gebauer","116473169","Gebauer","Halle","1784","Summarischer Abriß von den wichtigsten Pflichten der Schulhalter in deutschen Schulen"
"006609236","11248114","Aav","Johann Jakob Gebauer","116473169","Gebauer]","[Halle","1784","Essais Sur Quelques Sujets Intéressans Pour L'Homme D'Etat Et De Lettres"
"006598498","11240318","Aav","Johann Jakob Gebauer","116473169","Gebauer","Halle","1784","Italiänisch-Buchhälterisches Elementar- und Methodenbüchlein"
"005842956","10715576","Aav","Johann Jakob Gebauer","116473169","Gebauer","Halle","1784","D. J. M. F. Schulzens Anfangsgründe des Italiänischen doppelten Buchhaltens."
"005763924","1067005X","Aav","Johann Jakob Gebauer","116473169","Gebauer","Halle","1784","Pauli Erster Brief an die Korinther"
"005411297","10413871","Aav","Johann Jakob Gebauer","116473169","Gebauer","Halle","1784","Ausführungen einiger gemeinnützlichen Materien"
"005407273","10411623","Aav","Johann Jakob Gebauer","116473169","Gebauer","Halle","1784","Predigt bey der Einweihung der neuerbauten Orgel in der St. Moritz-Kirche zu Halle"
"005391695","1040242X","Aav","Johann Jakob Gebauer","116473169","Gebauer","Halle","1784","Summarischer Abriß von den wichtigsten Pflichten der Schulhalter in deutschen Schulen"
"023012498","11401702","Aav","","","Gebauer","Halle","1785","Geschichte der Streitigkeiten welche über die Baiersche Erbfolge entstanden, und durch den Friedensschluß zu Teschen beygelegt sind"
"02298321X","11685999","Aav","","","Gebauer","Halle","1785","Maximilian Julius Leopold Herzog von Braunschweig und Lüneburg"
"022660461","11587865","Aav","","","Gebauer","Halle","1785","D. Johann Salomo Semlers Zusätze zu der teutschen Uebersetzung von Fludds Schutzschrift für die Rosenkreuzer"
"021483752","13187694","Aav","Johann Jakob Gebauer","","Gebauer","Halle","1785","Geschichte von Littauen, Kurland und Liefland"
"020872550","11400080","Aav","Johann Jakob Gebauer","","Gebauer","Halle","1785","George Wilh. Const. von Wilcke Handbuch für Lustgärtner und Blumenfreunde"
"008652198","14641771","Aav","August Mylius|||Johann Jakob Gebauer","138422230|||116473169","Mylius|||Gebauer","Berlin|||Halle","1785","Ueber das theologische Studium auf Universitäten"
"007668449","12785458","Aav","Johann Jakob Gebauer","116473169","Gebauer","Halle","1785","Pauli Zweiter Brief an die Korinther"
"006966713","11520868","Aav","Johann Jakob Gebauer","116473169","Gebauer","Halle","1785","Vorlesungen über die allgemeinen Grundsätze und Pflichten der Religion und Sittenlehre"
"006598501","11240326","Aav","Johann Jakob Gebauer","116473169","Gebauer","Halle","1785","Elementarische Erläuterung der Meilenkarte"
"006515533","11179260","Aav","Johann Jakob Gebauer","116473169","Gebauer","Halle","1785","Erläuterungen über einige Punkte des Bombardier Prussien"
"006402267","11103205","Aav","Johann Jakob Gebauer","116473169","Gebauer","Halle","1785","Briefe über die Geschichte und den Geist der geschriebenen Offenbarung oder der philosophischen Briefe an meine Schwester zweiter Theil"
"005670055","10611614","Aav","Johann Jakob Gebauer","116473169","Gebauer","Halae","1785","Ad Illustrem Virum Samuel Formey Friderico Regi A Secretioribus Consiliis, Regiae Scientiarum Societatis Proprium Secretarium Epistola D. Jo. Salomonis Semleri Theologiae In Fridericiana Regia Professoris Senioris"
"023138114","11118377","Aav","","","bey Friedrich Nicolai|||gedruckt bey Johann Jacob Gebauer","Berlin|||Halle","1786","Sittenlehre der Vernunft"
"023129565","11045531","Aav","","","Gebauer","Halle","1786","Versuch einer natürlichen Geschichte des Spiesglases, dessen Chemischer Zerlegung, arzneiischen und ökonomischen Gebrauch"
"023129352","11091789","Aav","","","bey Johann Jacob Gebauer","Halle","1786","Über den Werth der Empfindsamkeit besonders in Rücksicht auf die Romane"
"022647384","15330273","Aav","","","Gebauer","Halle","1786","Geschichte der Maratten bis auf den lezten Frieden mit England den 17. May 1782"
"021892024","14265575","Aav","Johann Jakob Gebauer","","Gebauer","Halle","1786","Gedächtnißpredigt bey dem Tode Sr. Höchstseligen Majestät Friedrich des Zweyten Königs von Preußen"
"021025347","11532653","Aav","Johann Jakob Gebauer","","Gebauer","Halle","1786","Versuch über die Ewigkeit und ihre Freuden"
"007346425","11848014","Aav","Johann Jakob Gebauer","116473169","Gebauer","Halle|||Halle, Saale","1786","Einleitung in die Bücher der heiligen Schrift altes und neues Testaments"
"006387039","1109303X","Aav","Johann Jakob Gebauer","116473169","Gebauer","Halle","1786","Naturgeschichte der Bandwurmgattung überhaupt und ihrer Arten insbesondere"
"005098041","10254773","Aav","Johann Jakob Gebauer","116473169","Gebauer","Halle","1786","Grundsätze der technischen Chemie"
"023137134","11199555","Aav","","","bei Johann Jacob Gebauer","Halle","1787","George Wilh. Constantins von Wilcke monatliche Anleitung zur Beförderung einer ergiebigen Erziehung des Obstes"
"022679901","90175824","Aav","","","Gebauer","Halle","1787","Vorbereitung auf die königlich-großbritannische Aufgabe von der Gottheit Christi"
"02265562X","11077468","Aav","","","Gebauer","Halle","1787","George Wilhelm Constantin von Wilcke über die Giftpflanzen unsrer Küchengärten"
"022650652","1533354X","Aav","","","Gebauer","Halle","1787","R. L. Sullivans Übersicht der neuesten Staatsveränderungen in Ostindien"
"021146330","11642807","Aav","Johann Jakob Gebauer","","Gebauer","Halle","1787","George Wilh. Constantins von Wilcke neueste Sammlung der wichtigsten Gärtner-Regeln"
"021052972","11557257","Aav","Johann Jakob Gebauer","","Gebauer","Halle","1787","Denkwürdigkeiten der Pfalzgräfin Anna von Gonzaga"
"009316795","90131584","Aav","Johann Jakob Gebauer","116473169","Gebauer","Halle","1787","Unterthänigste nähere Ausführung der Beschwerden, Erklärung über den projektirten Vergleich und Vorschläge Seitens des evangelischen Stadt-Magistrats und der evangelischen Bürgerschaft der Stadt Fürstenau im Hochstifte Osnabrück wider die jetzige evangelische hohe Landes-Regierung zu Osnabrück mit Anlagen von Lit. A. bis O. im Betreff des daselbst eingeführt werden sollenden Simultaneums und anderer vorhabenden Neuerungen zum Unterricht eines edel denkenden Publikums und zur Belehrung einiger Journalisten und Zeitungsschreiber, so wie solche bey einem hochpreislichen Corpore Evangelicorum zu Regensburg übergeben worden ist"
"006598528","11240334","Aav","Johann Jakob Gebauer","116473169","Gebauer","Halle","1787","Kleines Lehrbuch der natürlichen Gränz- und Länderkunde"
"006343392","11065125","Aav","Johann Jakob Gebauer","116473169","Gebauer","Halle","1787","Des M. Porcius Cato Buch von der Landwirthschaft"
"005860741","10728317","Aav","Johann Jakob Gebauer","116473169","Gebauer","Halle","1787","Abmüßigungen"
"023067233","13697129","Aav","","","bey Johann Jacob Gebauer","Halle","1788","Neue vermischte Schriften"
"021072108","11574453","Aav","Johann Jacob Gebauer","","Gebauer","Halle","1788","Abhandlung über die Vortheile und Nachtheile, die für Europa aus der Entdeckung von America entstehen"
"020913907","11434775","Aav","Johann Jakob Gebauer","","Gebauer","Halle","1788","Thomas Murners der heil. Schrift und beyder rechte Doctors Schelmenzunft"
"007386680","11879637","Aav","Johann Jakob Gebauer","116473169","Gebauer","Halle","1788","An Seine Königliche Hoheit Prinz Ferdinand von Preußen, von D. Joh. Sal. Semler als er dreizehn Grane Luftgold unterthänigst einschickte"
"006639348","11270381","Aav","Johann Jakob Gebauer","116473169","Gebauer","Halae Magdeburgicae","1788","D. Ernesti Christiani Westphal Jur. Prof. Orationes Duae"
"006522173","11184086","Aav","Johann Jakob Gebauer","116473169","Gebauer","Halle","1788","Bey dem Antritte des öffentlichen Lehramtes der Mathematik und Naturlehre auf der Friedrichs-Universität zu Halle zeigt seine nächst zu haltenden Vorlesungen an, und verbindet mit dieser Anzeige eine geometrische Entwickelung der Eigenschaften der stereographischen Projection Georg Simon Klügel, der Weltw. Doctor und Correspondent der Königl. Gesellsch. der Wissenschaften zu Göttingen"
"006515525","11179252","Aav","Johann Jakob Gebauer","116473169","Gebauer","Halle","1788","Iulians Spottschrift Die Kaiser"
"005726808","10647414","Aav","Johann Jakob Gebauer","116473169","Gebauer","Halle","1788","George Wilhelm Constantins von Wilcke Versuch einer Anleitung die wilden Bäume und Sträucher unsrer deutschen Wälder und Gehölze auf ihren bloßen Anblick und ohne weitere mündliche Belehrung mit Sicherheit erkennen und unterscheiden, auch ihren Nutzen beurtheilen zu lernen"
"007386664","11879602","Aav","Johann Jakob Gebauer","116473169","Gebauer","Halae","1789","Eclogae Ex Ciceronis Libello De Senectute, Quibus Fridericianae Magistratum III. Suscepturus, Commilitonibus Se Commendat D. Jo. Salomo Semler Ordinis Theologici Senior"
"006542069","11198575","Aav","","","bei Johann Jacob Gebauer","Halle","1789","Die Gerechtsame der Kirche und ihres Lehrbegriffes"
"006509096","11174498","Aav","","","bey Johann Jacob Gebauer","Halle","1789","Des Hrn. S. Hollingworth's Abhandlung von den Sitten, der Regierungsart und dem Geist der Völker in Africa"
"006424651","11118148","Aav","Johann Jakob Gebauer","116473169","Gebauer","Halle","1789","Würtembergische Heiligen-Legende oder das Leben der heiligen Tabea von Stuttgard"
"006402283","11103221","Aav","","","bey Johann Jacob Gebauer","Halle","1789","Ist die neuere dogmatische Darstellung der christlichen Religionslehre dem wahren Geist und Endzweck unserer symbolischen Bücher gemäß oder zuwider?"
"005411351","10413898","Aav","Johann Jakob Gebauer","116473169","Gebauer","A Halle","1789","Échantillon D'Essais Sur Divers Sujets Intéressans Pour L'Homme D'Etat Et De Lettres"
"024961205","90434773","Aav","Johann Jakob Gebauer","116473169","[Gebauer]","[Halle]","1790","Catholicon oder Wörterbuch der europäischen Sprachen"
"023024747","11643900","Aav","","","Gebauer","Halle","1790","Leben und Character Jacob Friedrich Feddersens, Königl. Dänischen Consistorialraths und Kirchenprobsten des Altonaischen und Pinnebergischen Consistorii"
"023009160","11381051","Aav","","","bey Johann Jacob Gebauer","Halle","1790","Adolph Bayers Bergstaatsrechtslehre"
"00804919X","13141457","Aav","Johann Justinus Gebauer Erben|||Johann Jakob Gebauer","6146495-8|||116473169","Gebauer","Halle","1790","Kritik und Antikritik"
"006402275","11103213","Aav","Johann Jakob Gebauer||| Johann Justinus Gebauer Erben","116473169|||6146495-8","Gebauer","Halle","1790","Erzählung und Beurtheilung der wichtigsten Veränderungen die vorzüglich in der zweyten Hälfte des gegenwärtigen Jahrhunderts in der gelehrten Darstellung des dogmatischen Lehrbegriffs der Protestanten in Deutschland gemacht worden sind"
"006319289","11050322","Aav","Johann Jakob Gebauer","116473169","Gebauer","A Halle","1790","Essais Sur Plusieurs Matieres Interessantes Pour L'Homme D'Etat Et De Lettres"
"022708375","1384685X","Aav","","","Gebauer","Halle","1791","Beyspiele für Traurige und Leidende"
"022639101","11078154","Aav","","","Gebauer","Halle","1791","Versuch einer Geschichte des Negersclavenhandels"
"016425545","12548189","Aav","","","bey Johann Jacob Gebauer","Halle","1791","Der Mädchenspiegel oder Lesebuch für Töchter in Land- und Stadtschulen"
"00783974X","12944122","Aav","Johann Jakob Gebauer","116473169","Gebauer","Halle","1791","Catholicon oder Encyclopädisches Wörterbuch aller Europäischen Sprachen"
"007327064","11833521","Aav","Johann Jakob Gebauer","116473169","Gebauer","Halle","1791","Trauercantate dem Andenken unsers unvergeßlichen Lehrers Herrn Doctor Johann Salomo Semlers"
"007155557","11694688","Aav","Johann Jakob Gebauer","116473169","Gebauer","Halae","1791","Programma In Memoriam Viri Perillustris D. Daniel Nettelbladtii, Consiliarii Regis Intimi, Directoris Et Senioris Academiae, Ordinarii Iureconsultorum Ordinis, Professoris Publici Ordinarii, D. III. Septembris MDCCXCI.  Beate Defuncti"
"006602835","11243554","Aav","Johann Jakob Gebauer","116473169","Gebauer","Halle","1791","Trauerode am Sarge des Herrn D. Johann Salomo Semler, des treuen und allbeweinten Lehrers der Friedrichsuniversität Halle, von den Zöglingen derselben"
"006542077","11198583","Aav","","","bey Johann Jacob Gebauer","Halle","1791","Die Rechte des Gewissens bey dem Lehrvortrag in der protestantischen Kirche"
"006472419","11149272","Aav","Johann Jakob Gebauer","116473169","Gebauer","Halle","1791","Ueber die nothwendigsten sittlichen Eigenschaften und Pflichten eines militairischen Unterwundarzts"
"020984669","11496118","Aav","Johann Jakob Gebauer","","Gebauer","Halle","1792","Freymüthige Gedanken über die vorgeschlagene Verbesserung der Juden in den Preußischen Staaten"
"020904606","11426993","Aav","Johann Jakob Gebauer","","Gebauer","Halle","1792","Catechetischer Unterricht zum Feldbaue oder freundschaftliche Gespräche über die vorzüglichsten Gegenstände der alten und neuen Landwirthschaft"
"020195648","10375414","Aav","Johann Jakob Gebauer","","Gebauer","Halle","1792","Ideen zu einer Kriminalpsychologie"
"015444538","11365730","Aav","Johann Jakob Gebauer","116473169","Gebauer","Halle","1792","Wissenschaftliches Naturrecht"
"007179960","11711981","Aav","Johann Jakob Gebauer","116473169","Gebauer","Halle","1792","Theodor's Morgengespräche mit seinen Freunden"
"020814038","1135562X","Aav","Johann Jakob Gebauer","","Gebauer","Halae","1793","Xenophōntos Apomnēmoneumatōn Sōkratu Bibloi 4"
"007558619","12133515","Aav","Johann Jakob Gebauer","116473169","Gebauer","Halle","1793","Philosophie der Religion überhaupt und des christlichen Glaubens insbesondere"
"006589820","11233818","Aav","Johann Jakob Gebauer","116473169","Gebauer","Halle","1793","Versuch über Aufklärung, Freyheit und Gleichheit"
"005728657","10648747","Aav","Johann Jakob Gebauer","116473169","Gebauer","Halle","1793","Allgemeines Real-Hand-Wörterbuch der gemeinnützigsten Sachkenntnisse"
"004787056","1006740X","Aav","Johann Jakob Gebauer","116473169","Gebauer","Halle","1793","Wilhelm Friedrich Hezel's Fürstl. Hessischen Geheimen R. Raths und Professors zu Gießen [et]c. Kritisches Wörterbuch der Hebräischen Sprache"
"022627952","15310841","Aav","","","Gebauer","Halle","1794","Von den Nebengefäßen der Pflanzen und ihrem Nutzen"
"020874723","1140180X","Aav","Johann Jakob Gebauer","","Gebauer","Halle","1794","P. F. A. Nitsch's, gewesenen Adjunct's und Pfarrer's zu Bibra, Wörterbuch der alten Geographie"
"007328400","11834412","Aav","Johann Daniel Friedrich||| Johann Justinus Gebauer Erben","1037496612|||6146495-8","Friedrich|||Gebauer","Libau|||Halle","1794","Practische Logik für junge Leute die nicht studiren wollen"
"006566219","11216301","Aav","Johann Jakob Gebauer","116473169","Gebauer","Halle","1794","Predigten an Festtagen und bei besondern Veranlassungen gehalten"
"00656108X","11212675","Aav","","","bey Johann Jacob Gebauer","Halle","1794","Einleitung in die Geschichte des Canons sämmtlicher Schriften des neuen Testaments"
"02121722X","11941480","Aav","Johann Jakob Gebauer","","Gebauer","Halle","1795","Anweisung zur guten Pferdezucht und Wartung, auch wie man ein guter Pferdekenner werden könne"
"020167512","10351256","Aav","Johann Jakob Gebauer","","Gebauer","Halle","1795","J. P. Gundlings Nachricht von den Commerzien und Manufacturen in der Churmark Brandenburg, den Herzogthümern Magdeburg, Pommern, dem Fürstenthum  Halberstadt - in dem Jahre 1712"
"007416342","11905158","Aav","Johann Jakob Gebauer","116473169","Gebauer","Halae Ad Salam","1795","Zoologia Indica"
"006589715","11233753","Aav","Johann Jakob Gebauer","116473169","Gebauer","Halle","1795","Kritische Abhandlungen zur philosophischen Rechtslehre"
"026206110","11233826","Aav","","","bey Johann Jacob Gebauer","Halle","1796","Versuch eines neuen Systems des natürlichen Rechts"
"021056935","11560673","Aav","Johann Jakob Gebauer","","Gebauer","Halle","1796","Leben, Meinungen und Schicksale D. Martin Luther's"
"006644635","11274832","Aav","Johann Jakob Gebauer","116473169","Gebauer","Halle","1796","Grammatisch-kritisches Handbuch für angehende Lehrer in der lateinischen Sprache"
"006588506","11232897","Aav","Johann Jakob Gebauer","116473169","Gebauer","Halle","1797","George Santi, Professor zu Pisa, naturhistorische Reise durch einen Theil von Toscana"
"006359302","11075457","Aav","Johann Jakob Gebauer","116473169","Gebauer","Halle","1797","Psalmen, gesungen vor Davids Thronbesteigung oder in Beziehung auf seine frühere Lebensperiode"
"005131367","10270582","Aav","Johann Jakob Gebauer","116473169","Gebauer","Halle","1797","Relation De Ma Fuite Des Prisons De La République De Venise Appellées Les Plombs"
"020900589","11423463","Aav","Johann Jakob Gebauer","","Gebauer","Halle","1798","Die Wolken"
"014694573","14825570","Aav","","","Gebauer","Halle","1798","Geschichte der Republik Frankreich unter der Directorial-Regierung"
"006513395","11177683","Aav","Johann Jakob Gebauer","116473169","Gebauer","Halle","1798","Verzeichniß der Käfer Preußens"
"006435238","11125497","Aav","Johann Jakob Gebauer","116473169","Gebauer","Halle","1798","Beschreibung der Pocken-Krankheit der Schaafe und der Wirkung einer angewandten Jnoculation der Pocken auf dem Ritterguthe Cösitz"
"006435211","11125489","Aav","Johann Jakob Gebauer","116473169","Gebauer","Halle","1798","Beantwortung der von dem Chev. J. Sinclair, Bart. Membre du Parlement, à Whitehall zu London, aufgeworfenen Fragen, betreffend die verschiedenen Schaafarten in Deutschland."
"005213568","10310266","Aav","Johann Jakob Gebauer","116473169","Gebauer","Halis Magdeburgicis","1798","Arrianu Indikē"
"020135726","10223576","Aav","Johann Jakob Gebauer","","Gebauer","Halis Magdeburgicis","1799","Antylli, Veteris Chirurgi, Ta Leipsana"
"020135173","10223088","Aav","Johann Jakob Gebauer","","Gebauer","Halis Saxonum","1799","Anthologia Minor Sive Florilegium Epigrammatum Graecorum"
"006679285","11302054","Aav","Johann Jakob Gebauer","116473169","Gebauer","Halle","1799","Versuch einer neuen Behandlung der Griechischen Conjugation und Declination"
"006524958","11186259","Aav","Johann Jakob Gebauer","116473169","Gebauer","Halle","1799","Philosophisch-kritischer Entwurf der Versöhnungslehre"
"006456715","1113951X","Aav","","","bey Johann Jacob Gebauer","Halle","1799","Jesus, wie er lebte und lehrte, nach den Berichten der Evangelisten"
"00546272X","10444483","Aav","Johann Jakob Gebauer","116473169","Gebauer","Halle","1799","Verschiedene Schriften und Beantwortungen, betreffend die Schaafzucht in Deutschland und Verbesserungen der groben Wolle, aus eigener Erfahrung und Thathandlung"
"005419034","10418113","Aav","Johann Jakob Gebauer","116473169","Gebauer","Halle","1799","Das Neue Testament"
"025791680","13155555","Aav","","","bey Johann Jacob Gebauer","Halle","1800","Der Rathgeber in der Schreibestunde, oder Aufsätze für Schulmeister in Knaben- und Mädchenschulen"
"00745564X","11938595","Aav","Johann Jakob Gebauer","116473169","Gebauer","Halle","1800","Rathschläge für angehende christliche Religionslehrer zur zweckmässigen Führung ihres Amtes"
"00645643X","11139323","Aav","Johann Jakob Gebauer","116473169","Gebauer","Halle","1800","Horazens Satyren"
