"ppn","vd18_nr","type","printer","printer_gnd","publisher","place","date","title"
"005912148","10763988","Ocv","Johann Justinus Gebauer","116473207","Gebauer","Halle","1747","Der Liefländischen Chronik ... Theil ... Oder die Origines Livoniæ Sacræ Et Civilis"
"024587583","11149663","Ocv","Johann Justinus Gebauer","116473207","Gebauer","Halle","1750","Beschreibung des Schulzischen Münzkabinet"
"025898515","11165685","Ocv","Johann Justinus Gebauer","116473207","Gebauer","Halle","1753","Histoire Romaine Depuis La Fondation De Rome Jusqu'à La Bataille D'Actium: C'Est-A-Dire Jusqu'a La Fin De La République"
"006389147","11094338","Ocv","Johann Justinus Gebauer","116473207","Gebauer","Halle","1753","Siegm. Jac. Baumgartens theologische Gutachten"
"006612199","11250267","Ocv","Johann Justinus Gebauer","116473207","Gebauer","Halae","1754","Dissertatio Theologica ... De Obsignatione Christi Et Credentivm"
"008746540","14803747","Ocv","Johann Justinus Gebauer|||Johann Gottfried Trampe","116473207|||14311297X","Gebauer|||Trampe","Halae Magdeburgicae","1755","Academiae Caesareae Leopoldino-Carolinae Natvrae Cvriosorvm Bibliotheca Physica, Medica, Miscella Partim Sociorvm Mvnificentia Partim Ipsivs Svmtibvs Comparata"
"026254867","11243791","Ocv","Johann Justinus Gebauer","116473207","Gebauer","Halle","1757","D. Joh. Salom. Semlers Versuch einer nähern Anleitung zu nützlichem Fleisse in der ganzen Gottesgelersamkeit für angehende Studiosos Theologiä"
"024588261","11192402","Ocv","Johann Immanuel Gebauer","1037512014","Gebauer","Halle","1762","Algemeine Geschichte von Europa unter der Regierung Ludwig des dreyzehnten"
"024821128","12928305","Ocv","Marie Sophie Gebauer|||Johann Jakob Gebauer","1045265640|||116473169","Gebauer","Halle","1772","Geschichte von Frankreich"
"006468292","11146605","Ocv","Johann Justinus Gebauer Erben|||Johann Jakob Gebauer","6146495-8|||116473169","Gebauer","Halle","1775","Johann Potters Griechische Archäologie, oder Alterthümer Griechenlandes"
"006470785","11148268","Ocv","Johann Jakob Gebauer","116473169","Gebauer","Halae","1778","Bibliotheca Sacra Post CL. CL. VV. Jacobi Le Long Et C. F. Boerneri Iteratas Cvras Ordine Disposita, Emendata, Svppleta, Continvata Ab Andrea Gottlieb Masch Sereniss. Dvci Regn. Megapol. ..."
"026028220","10728406","Ocv","Johann Jakob Gebauer","116473169","Gebauer","Halle","1781","Tacitus"
"006585647","11230789","Ocv","Johann Jakob Gebauer","116473169","Gebauer","Halle","1783","Samlung von Stadt- Land- und Reisebeschreibungen"
"024767212","11147776","Ocv","Johann Jakob Gebauer","116473169","Gebauer","Halle","1784","Leben Hyder Allys Nabobs von Mysore"
"006506267","11172576","Ocv","Johann Jakob Gebauer","116473169","Gebauer","Halle","1784","Sammlung der gemeinnützigsten praktischen Aufsätze und Beobachtungen aus den Schriften der Königl. Medicinischen Gesellschaft zu Paris gezogen"
"025255444","90482735","Ocv","Johann Jakob Gebauer","116473169","Gebauer","Halle","1785","Die Bibel für gemeine Christen von einem Laien"
"007528256","11999101","Ocv","Johann Jakob |Gebauer","","Gebauer","Halle","1787","Johann Georg August Galletti, Prof. der Geschichtkunde am Gymnasium zu Gotha, Geschichte von Deutschland"
"009178627","90010876","Ocv","Johann Jakob Gebauer","116473169","Gebauer","Halle","1789","Merkwürdige Rechtsfälle verhandelt bey verschiedenen Tribunalen besonders in Frankreich"
"00662734X","11261447","Ocv","Johann Jakob Gebauer","116473169","Gebauer","Gotha||Halle","1793","Der Schöne Geist, oder Compendiöse Bibliothek des Wissenswürdigsten aus dem Gebiet der schönen Wissenschaften"
"025260170","11266708","Ocv","Johann Jakob Gebauer","116473169","Gebauer","Halle","1794","Johann Ernst Fabri, Professors der Philosophie, Elementargeographie"
"006637698","11269278","Ocv","Johann Jakob Gebauer","116473169","Gebauer","Eisenach||Halle","1795","Der Physiker oder Compendiöse Bibliothek des Wissenswürdigsten aus dem Gebiete der Naturlehre"
"024393185","12967599","Ocv","Johann Jakob Gebauer","116473169","Gebauer","Halle","1797","Geschichte des Ungrischen Reichs und seiner Nebenländer"
"024364657","11082453","Ocv","Johann Jakob Gebauer","116473169","Gebauer","Halle","1798","Die Versammlungen der Weisen"
"025779095","11297387","Ocv","Johann Jakob Gebauer","116473169","Gebauer","Halle","1799","Deutsche Flora"
"006648207","11277718","Ocv","Johann Jakob Gebauer","116473169","Gebauer","Halle","1799","Religionslehre in Beispielen"
"025529943","13288091","Ocv","","","Universitätsbibliothek","Rostock","2016","D. Adam Struensee, Königlich-Dänischer Consistorialraths, Probsts der Kirchen und Schulen in Altona ... Heilsame Betrachtungen über die Sonn- und Festtags-Evangelia, zur Gründung, Erbauung und Befestigung im wahren Christenthum"
"025499823","90202627","Ocv","","","Universitätsbibliothek","Rostock","2016","Charakteristick der Bibel"
"025334131","11250267","Ocv","","","Universitätsbibliothek","Rostock","2016","Dissertatio Theologica ... De Obsignatione Christi Et Credentivm"
"026054078","10625623","Ocv","","","Niedersächsische Staats- und Universitätsbibliothek","Göttingen","2017","Lebensbeschreibung der römischen Dichter"
"026022664","10680195","Ocv","","","Niedersächsische Staats- und Universitätsbibliothek","Göttingen","2017","Characteristik edler und merkwürdiger Menschen, nebst einzelnen schönen Characterzügen"
"026346826","10881352","Ocv","","","Niedersächsische Staats- und Universitätsbibliothek","Göttingen","2018","Geschichte des menschlichen Geschlechts so weit selbige in Europa bekant worden vom Anfange der Welt bis auf unsere Zeiten"
"026636166","12766399","Ocv","","","Universitäts- und Landesbibliothek Sachsen-Anhalt","Halle, Saale","2019","D. Siegmund Jacob Baumgartens Auslegung der epistolischen Texte auf alle Son- und Festtage des ganzen Jahres"
"026635917","90751310","Ocv","","","Universitäts- und Landesbibliothek Sachsen-Anhalt","Halle, Saale","2019","Siegmund Jacob Baumgartens Entwurf verschiedener homiletischen Zergliederungen oder Dispositionen von Predigten über alle son- und festtägliche Evangelia"
"026635704","11094265","Ocv","","","Universitäts- und Landesbibliothek Sachsen-Anhalt","Halle, Saale","2019","D. Siegmund Jacob Baumgartens Auslegung der evangelischen Texte auf alle Son- und Festtage des ganzen Jahres"
