"ppn","vd18_nr","type","printer","printer_gnd","publisher","place","date","title"
"005912148","10763988","Ocv","Johann Justinus Gebauer","116473207","Gebauer","Halle","1747","Der Liefländischen Chronik ... Theil ... Oder die Origines Livoniæ Sacræ Et Civilis"
"005872472","10736182","Ocv","","","Gebauer","Halle","1747","Samlung von Erleuterungsschriften und Zusätzen zur algemeinen Welthistorie"
"024587583","11149663","Ocv","Johann Justinus Gebauer","116473207","Gebauer","Halle","1750","Beschreibung des Schulzischen Münzkabinet"
"009239693","90069331","Ocv","","","Gebauer","Halle","1752","Wahrhaftige Geschichte der seligen Frau Catharina von Bora, D. Mart. Luthers Ehegattin"
"025898515","11165685","Ocv","Johann Justinus Gebauer","116473207","Gebauer","Halle","1753","Histoire Romaine Depuis La Fondation De Rome Jusqu'à La Bataille D'Actium: C'Est-A-Dire Jusqu'a La Fin De La République"
"006389147","11094338","Ocv","Johann Justinus Gebauer","116473207","Gebauer","Halle","1753","Siegm. Jac. Baumgartens theologische Gutachten"
"009070451","15307409","Ocv","","","Gebauer","Halle","1754","Daniel Neals Geschichte der Puritaner oder protestantischen Nonconformisten"
"006612199","11250267","Ocv","Johann Justinus Gebauer","116473207","Gebauer","Halae","1754","Dissertatio Theologica ... De Obsignatione Christi Et Credentivm"
"006320600","11051094","Ocv","","","Gebauer","Halle","1754","Samlung von merkwürdigen Lebensbeschreibungen"
"008746540","14803747","Ocv","Johann Justinus Gebauer|||Johann Gottfried Trampe","116473207|||14311297X","Gebauer|||Trampe","Halae Magdeburgicae","1755","Academiae Caesareae Leopoldino-Carolinae Natvrae Cvriosorvm Bibliotheca Physica, Medica, Miscella Partim Sociorvm Mvnificentia Partim Ipsivs Svmtibvs Comparata"
"026254867","11243791","Ocv","Johann Justinus Gebauer","116473207","Gebauer","Halle","1757","D. Joh. Salom. Semlers Versuch einer nähern Anleitung zu nützlichem Fleisse in der ganzen Gottesgelersamkeit für angehende Studiosos Theologiä"
"009367411","90192443","Ocv","","","Gebauer","Halle","1759","Schicksal der Protestanten in Frankreich"
"00931735X","90131983","Ocv","","","Gebauer","Halle","1759","Schicksal der Protestanten in Frankreich"
"006389058","11094303","Ocv","","","Gebauer","Halle","1759","D. Siegmund Jacob Baumgartens Erbauliche Erklärung der Psalmen"
"006355900","11073349","Ocv","","","Gebauer und Stettin","Halle","1761","Paul Sarpius Historie des Tridentinischen Concilii"
"024588261","11192402","Ocv","Johann Immanuel Gebauer","1037512014","Gebauer","Halle","1762","Algemeine Geschichte von Europa unter der Regierung Ludwig des dreyzehnten"
"006555764","11208600","Ocv","","","Gebauer und Stettin","Halle","1762","Daniel Neals Geschichte der Puritaner oder protestantischen Nonconformisten"
"006687857","11308508","Ocv","","","Gebauer","Halle","1763","Wilhelm Burkitt weiland Vicarii zu Dedham in der Grafschaft Essex practische Erklärung des Neuen Testamentes"
"006361722","11077034","Ocv","","","Gebauer","Halle","1767","Die Allgemeine Welthistorie die in England durch eine Gesellschaft von Gelehrten ausgefertiget worden"
"006334334","11059400","Ocv","","","Gebauer","Halle","1767","Die Allgemeine Welthistorie durch eine Gesellschaft von Gelehrten in Teutschland und Engelland ausgefertiget"
"006546528","11201886","Ocv","","","Gebauer","Halle","1771","Französische Biographie"
"006209459","10978720","Ocv","","","Gebauer","Halle","1771","Geschichte der Vereinigten Niederlande von den ältesten bis zu den gegenwärtigen Zeiten"
"024821128","12928305","Ocv","Marie Sophie Gebauer|||Johann Jakob Gebauer","1045265640|||116473169","Gebauer","Halle","1772","Geschichte von Frankreich"
"009271147","90100735","Ocv","","","Gebauer","Halle","1774","D. Franz Dominicus Häberlins, Herzogl. Braunschweig-Lüneburg. Geheimen-Justitz-Raths, ersten Lehrers der Rechte, des Teutschen Staats-Rechtes und der Geschichte auf der Julius-Carls-Universität zu Helmstedt, Teutsche Reichs-Geschichte"
"008425175","13503618","Ocv","","","Gebauer","Halle","1774","D. Franz Dominicus Häberlins Neueste Teutsche Reichs-Geschichte"
"009382267","90202627","Ocv","","","Gebauer","Halle","1775","Charakteristick der Bibel"
"006468292","11146605","Ocv","Johann Justinus Gebauer Erben|||Johann Jakob Gebauer","6146495-8|||116473169","Gebauer","Halle","1775","Johann Potters Griechische Archäologie, oder Alterthümer Griechenlandes"
"009382259","90202619","Ocv","","","Gebauer","Halle","1778","Charakteristick der Bibel"
"006498728","11167041","Ocv","","","Gebauer","Halle","1778","Materialien zu einer neuen Erklärung des Hohenliedes"
"006470785","11148268","Ocv","Johann Jakob Gebauer","116473169","Gebauer","Halae","1778","Bibliotheca Sacra Post CL. CL. VV. Jacobi Le Long Et C. F. Boerneri Iteratas Cvras Ordine Disposita, Emendata, Svppleta, Continvata Ab Andrea Gottlieb Masch Sereniss. Dvci Regn. Megapol. ..."
"009382135","90202511","Ocv","","","Gebauer","Halle","1780","Charakteristick der Bibel"
"026028220","10728406","Ocv","Johann Jakob Gebauer","116473169","Gebauer","Halle","1781","Tacitus"
"008650403","14638150","Ocv","","","Gebauer","Halle","1781","D. Johann Peter Millers, Unterhaltungen für denkende Christen zur täglichen Vermehrung ihrer Ueberzeugung, Tugend und Gemüthsruhe"
"025440853","11230789","Ocv","","","Gebauer","Halle","1783","Samlung von Stadt- Land- und Reisebeschreibungen"
"009241175","9007081X","Ocv","","","Gebauer","Halle","1783","Matthias Christian Sprengel, ordentlichen Professor der Geschichte in Halle, Geschichte von Großbrittannien und Irrland"
"006585647","11230789","Ocv","Johann Jakob Gebauer","116473169","Gebauer","Halle","1783","Samlung von Stadt- Land- und Reisebeschreibungen"
"006353282","11071710","Ocv","","","Gebauer","Halle","1783","Einleitung in die Conchylienkenntniß nach Linné"
"006331750","11057777","Ocv","","","Gebauer","Halle","1783","Archivische Nebenarbeiten und Nachrichten vermischten Inhalts mit Urkunden"
"024767212","11147776","Ocv","Johann Jakob Gebauer","116473169","Gebauer","Halle","1784","Leben Hyder Allys Nabobs von Mysore"
"006506267","11172576","Ocv","Johann Jakob Gebauer","116473169","Gebauer","Halle","1784","Sammlung der gemeinnützigsten praktischen Aufsätze und Beobachtungen aus den Schriften der Königl. Medicinischen Gesellschaft zu Paris gezogen"
"025255444","90482735","Ocv","Johann Jakob Gebauer","116473169","Gebauer","Halle","1785","Die Bibel für gemeine Christen von einem Laien"
"00946591X","90258126","Ocv","","","Gebauer","Halle","1785","Charakteristick der Bibel"
"005716527","10640606","Ocv","","","Gebauer","Halle","1786","Staatistik aller katholisch-geistlichen Reichsstifter in Deutschland"
"008667004","14670011","Ocv","","","Gebauer","Halle","1787","Versuch einer Anleitung zur Kenntniß und Geschichte der Pflanzen"
"007528256","11999101","Ocv","Johann Jakob |Gebauer","","Gebauer","Halle","1787","Johann Georg August Galletti, Prof. der Geschichtkunde am Gymnasium zu Gotha, Geschichte von Deutschland"
"009178627","90010876","Ocv","Johann Jakob Gebauer","116473169","Gebauer","Halle","1789","Merkwürdige Rechtsfälle verhandelt bey verschiedenen Tribunalen besonders in Frankreich"
"006335268","1105994X","Ocv","","","Gebauer","Halle","1789","Repertorium der Geschichte und Staatsverfassung von Teutschland"
"006314163","1104716X","Ocv","","","Gebauer","Halle","1789","Vollständige Geschichte der siebenjährigen Verwirrungen und der darauf erfolgten Revolution in den vereinigten Niederlanden"
"025439324","11195096","Ocv","","","Gebauer","Halle","1791","Geschichte des dreyßigjährigen Kriegs und des Westphälischen Friedens"
"00679873X","1138980X","Ocv","","","Gebauer|||Macklot","Halle|||Frankfurt","1791","Versuch einer Geschichte des Teutschen Reichs im siebenzehnten Jahrhundert"
"006748732","11355956","Ocv","","","Gebauer|||Macklot","Halle|||Frankfurt","1791","D. Franz Dominicus Häberlins Neuere Teutsche Reichs-Geschichte bis auf unsere Zeiten"
"006329519","11056509","Ocv","","","Gebauer","Halle","1791","Historische Nachrichten und Bemerkungen über die merkwürdigsten Zuchthäuser in Deutschland"
"007620209","12546259","Ocv","","","Nemnich ; Müller|||Gebauer","Hamburg|||Halle","1793","Allgemeines Polyglotten-Lexicon Der Naturgeschichte"
"00662734X","11261447","Ocv","Johann Jakob Gebauer","116473169","Gebauer","Gotha||Halle","1793","Der Schöne Geist, oder Compendiöse Bibliothek des Wissenswürdigsten aus dem Gebiet der schönen Wissenschaften"
"025439405","12710679","Ocv","","","Gebauer","Halle","1794","Charakteristik der Bibel"
"025260170","11266708","Ocv","Johann Jakob Gebauer","116473169","Gebauer","Halle","1794","Johann Ernst Fabri, Professors der Philosophie, Elementargeographie"
"006637698","11269278","Ocv","Johann Jakob Gebauer","116473169","Gebauer","Eisenach||Halle","1795","Der Physiker oder Compendiöse Bibliothek des Wissenswürdigsten aus dem Gebiete der Naturlehre"
"006484301","1115733X","Ocv","","","Gebauer","Halle","1795","Handbuch der technischen Chemie"
"024393185","12967599","Ocv","Johann Jakob Gebauer","116473169","Gebauer","Halle","1797","Geschichte des Ungrischen Reichs und seiner Nebenländer"
"024364657","11082453","Ocv","Johann Jakob Gebauer","116473169","Gebauer","Halle","1798","Die Versammlungen der Weisen"
"025779095","11297387","Ocv","Johann Jakob Gebauer","116473169","Gebauer","Halle","1799","Deutsche Flora"
"006648207","11277718","Ocv","Johann Jakob Gebauer","116473169","Gebauer","Halle","1799","Religionslehre in Beispielen"
"02459363X","11374837","Ocv","Johann Justinus Gebauer","","Gebauer","Halle","17XX","D. Siegmund Jacob Baumgartens Evangelische Glaubenslehre"
"024587052","11120851","Ocv","Johann Jakob Gebauer","","Gebauer","Halae","17XX","Epistolarum Historico-Ecclesiasticarum Seculo XVI. A Celeberrimis Viris Scriptarum Semicenturia"
