"zdb_nr","type","place","publisher","place_prev","publisher_prev","first_date","last_date","title"
"1137875-X","Abvz","Halle","Gebauer","","","1747","1765","Samlung von Erleuterungsschriften und Zusätzen zur algemeinen Welthistorie"
"313248-1","Abvz","Halle","Gebauer","","","1748","1750","Der Gesellige"
"513481-X","Abvz","Halle","Gebauer","","","1748","1751","Nachrichten von einer hallischen Bibliothek"
"331668-3","Abvz","Halle","Gebauer","","","1751","1756","Der Mensch"
"501871-7","Abvz","Halle, S.","Gebauer","","","1752","1755","Altes und Neues von Schulsachen"
"305716-1","Abvz","Halle","Gebauer","","","1757","1762","Das Reich der Natur und der Sitten"
"513473-0","Abvz","Halle","Gebauer","","","1758","1757","Siegm. Jac. Baumgartens Nachrichten von merkwürdigen Büchern"
"528105-2","Abxz","Halle","Gebauer","","","1761","1767","George Friedrich Meiers ... philosophische Betrachtungen über die christliche Religion"
"538815-6","Abvz","Halle","Gebauer","","","1763","1768","Der Glückselige"
"514157-6","Abvz","Halle","Gebauer","","","1767","1770","Allgemeines historisches Magazin"
"502012-8","Abvz","Halle","Gebauer","","","1767","1771","Deutsche Bibliothek der schönen Wissenschaften"
"557323-3","Abvz","Halle","Gebauer","","","1767","1771","Allgemeine historische Bibliothek"
"982902-7","Abvz","Halle","Gebauer","","","1769","1769","Philosophische Bibliothek"
"973757-1","Abvz","Halle","Gebauer","","","1772","1775","Magazin der deutschen Critik"
"1067291-6","Abvz","Halle","Gebauer","","","1773","1774","Der Andächtige"
"548031-0","Abvz","Halle","Gebauer","","","1774","1777","Fortgesetzte Betrachtungen über die neuesten historischen Schriften"
"985770-9","Abvz","Halle","Gebauer","","","1774","1780","Die Akademie der Grazien"
"516102-2","Abvz","Halle","Gebauer","","","1774","1804","Der Naturforscher"
"532565-1","Abvz","Halle","Gebauer","","","1775","1779","Der Geschichtforscher"
"306583-2","Abvz","Halle","Gebauer","","","1778","1782","Neueste philosophische Litteratur"
"895283-8","Abvz","Halle","Gebauer","","","1780","1781","Der brittische Theologe"
"1280100-8","Abvz","Halle","Gebauer","","","1781","1781","Magazin für die Erziehung und Schulen besonders in den Preußischen Staaten"
"529249-9","Abvz","Halle","Gebauer","","","1782","1787","Geographisches Lesebuch zum Nutzen und Vergnügen"
"548746-8","Abvz","Halle","Gebauer","","","1783","1784","Historische Miscellaneen"
"529499-X","Abvz","Halle","Gebauer","","","1784","1784","Litterarische Spaziergänge"
"550652-9","Abvz","Halle","Gebauer","","","1784","1785","Versuch eines Briefwechsels über das öffentliche Schul- und Erziehungswesen"
"1488251-6","Abvz","Halle","Gebauer","","","1785","1786","Medicinischer Briefwechsel"
"2186199-7","Abvz","Halle","Gebauer","","","1788","1788","Handbuch zum Gebrauche derjenigen, die sich von der Gelehrsamkeit überhaupt einige Bücherkenntniß zu erwerben wünschen"
"515334-7","Abvz","Halle","Gebauer","","","1788","1791","Philosophisches Magazin"
"1456914-0","Abvz","Halle","Gebauer","","","1788","1793","Handbuch für Bücherfreunde und Bibliothekare"
"311975-0","Abvz","Halle","Gebauer","","","1789","1789","Merkwürdige Rechtsfälle, verhandelt bey verschiedenen Tribunalen besonders in Frankreich"
"2513046-8","Abvz","Eisenach||Halle|||Göttingen|||Gotha||Halle","bey Johann Jacob Gebauer|||bey Johann Christian Dieterich|||bey J. J. Gebauer","","","1790","1796","Der Freymaurer, oder Compendiöse Bibliothek alles Wissenswürdigen über geheime Gesellschaften"
"1456932-2","Abvz","Halle","Gebauer","","","1791","1791","Handbuch für Bücherfreunde und Bibliothekare"
"1488107-X","Abvz","Eisenach||Halle|||Gotha||Halle","Gebauer|||Gebauer [[1794]]","Gotha","Perthes","1792","1796","Der Mineraloge, oder Compendiöse Bibliothek alles Wissenswürdigen aus dem Gebiete der Mineralogie"
"1456920-6","Abvz","Halle","Gebauer","","","1793","1793","Bibliographie interessanter und gemeinnütziger Kenntnisse"
"1467223-6","Abvz","Eisenach||Halle, S.","Gebauer","Gotha||Halle, S.","Gebauer","1793","1796","Der Botaniker oder compendiöse Bibliothek alles Wissenswürdigen aus dem Gebiete der Kräuterkunde"
"2021092-9","Abvz","Gotha","Gebauer","","","1794","1796","Compendiöse Bibliothek der gemeinnützigsten Kenntnisse für alle Stände"
"3006593-8","Abxz","Eisenach||Halle","Gebauer","","","1795","1796","Compendiöse Bibliothek der gemeinnützigsten Kenntnisse für alle Stände"
"1272676-X","Abvz","Eisenach [u.a.]","Gebauer","","","1796","1796","Compendiöse Bibliothek der gemeinnützigsten Kenntnisse für alle Stände"
"2155368-3","Abxz","Eisenach [u.a.]","Gebauer","","","1797","1797","Compendiöse Bibliothek der gemeinnützigsten Kenntnisse für alle Stände"
"602761-1","Abvz","Halle","Gebauer","Wechselnde Verlagsorte","","1798","1798","Der Geistliche oder Religionslehrer"
"152613-3","Abvz","Halle","Gebauer","","","1801","1808","Liturgisches Journal"
"541662-0","Abvz","Halle","Gebauer","","","1803","1806","Gartenzeitung"
