"zdb_nr","type","place","publisher","place_prev","publisher_prev","first_date","last_date","title"
"2794221-1","Obxz","Halle","Gebauer","","","1748","1751","Nachrichten von einer hallischen Bibliothek"
"2821884-X","Obxz","Halle, S.","Gebauer","","","1752","1755","Altes und Neues von Schulsachen"
"2794220-X","Obvz","Halle","Gebauer","","","1752","1758","Siegm. Jac. Baumgartens Nachrichten von merkwürdigen Büchern"
"2556002-5","Obvz","Halle","Gebauer","","","1757","1762","Das Reich der Natur und der Sitten"
"2794854-7","Obxz","Halle","Gebauer","","","1763","1768","Der Glückselige"
"2793164-X","Obxz","Halle","Gebauer","","","1764","1764","Der Gesellige"
"2752219-2","Obxz","Halle","Gebauer","","","1764","1767","Der Mensch"
"2794253-3","Obvz","Halle","Gebauer","","","1767","1770","Allgemeines historisches Magazin"
"2959465-0","Obxz","Halle","Gebauer","","","1767","1771","Deutsche Bibliothek der schönen Wissenschaften"
"2401984-7","Obvz","Halle","Gebauer","","","1767","1771","Allgemeine historische Bibliothek"
"2406214-5","Obvz","Halle","Gebauer","","","1769","1769","Philosophische Bibliothek"
"2796271-4","Obvz","Halle","Gebauer","","","1772","1775","Magazin der deutschen Critik"
"2660796-7","Obxz","Halle","Gebauer","","","1773","1774","Der Andächtige"
"2796417-6","Obvz","Halle","Gebauer","","","1774","1776","Die Akademie der Grazien"
"2402361-9","Obvz","Halle","Gebauer","","","1774","1778","Fortgesetzte Betrachtungen über die neuesten historischen Schriften"
"2440774-4","Obvz","Halle","Gebauer","","","1774","1802","Der Naturforscher"
"2794726-9","Obvz","Halle","Gebauer","","","1775","1779","Der Geschichtforscher"
"2792789-1","Obxz","Halle","Gebauer","","","1780","1782","Neueste philosophische Litteratur"
"2789030-2","Obxz","Halle","Gebauer","","","1781","1781","Magazin für die Erziehung und Schulen besonders in den Preußischen Staaten"
"2021339-6","Obvz","Halle","Gebauer","","","1781","1781","Magazin für die Erziehung und Schulen besonders in den Preußischen Staaten"
"2810358-0","Obxz","Halle","Gebauer","","","1783","1784","Historische Miscellaneen"
"2771308-8","Obxz","Halle","Gebauer","","","1785","1786","Medicinischer Briefwechsel"
"2433287-2","Obvz","Halle","Gebauer","","","1788","1791","Philosophisches Magazin"
"2794340-9","Obxz","Halle","Gebauer","","","1789","1792","Philosophisches Magazin"
"2748575-4","Obxz","Eisenach||Halle|||Gotha||Halle","Gebauer|||Gebauer [[1794]]","Gotha","Perthes","1792","1796","Der Mineraloge, oder Compendiöse Bibliothek alles Wissenswürdigen aus dem Gebiete der Mineralogie"
"2959693-2","Obxz","Halle","Gebauer","Wechselnde Verlagsorte","","1798","1798","Der Geistliche oder Religionslehrer"
"2748612-6","Obxz","Halle","Gebauer","","","1801","1808","Liturgisches Journal"
"2794893-6","Obxz","Halle","Gebauer","","","1804","1806","Gartenzeitung"
