[{
   "_id" : "09192622X",
   "record" : [
      [
         "001A",
         "",
         "0",
         "9831:22-05-09"
      ],
      [
         "001B",
         "",
         "0",
         "9831:03-10-19",
         "t",
         "13:42:00.000"
      ],
      [
         "001D",
         "",
         "0",
         "9831:03-10-19"
      ],
      [
         "001U",
         "",
         "0",
         "utf8"
      ],
      [
         "001X",
         "",
         "0",
         "0"
      ],
      [
         "002@",
         "",
         "0",
         "Aax"
      ],
      [
         "003@",
         "",
         "0",
         "09192622X"
      ],
      [
         "003O",
         "",
         "0",
         "(OCoLC)644832122"
      ],
      [
         "006X",
         "",
         "c",
         "CERL",
         "0",
         "DE-604.VK.BV035502032"
      ],
      [
         "006Y",
         "",
         "0",
         "(DE-599)BVBBV035502032"
      ],
      [
         "007Y",
         "",
         "c",
         "Other Standard Identifier",
         "0",
         "urn:nbn:de:bvb:12-bsb00081844-2"
      ],
      [
         "009@",
         "",
         "b",
         "DE-604"
      ],
      [
         "009B",
         "",
         "b",
         "DE",
         "c",
         "Bayerische Staatsbibliothek München"
      ],
      [
         "009P",
         "09",
         "y",
         "Volltext // 2013 digitalisiert von: Bayerische Staatsbibliothek, München. Exemplar mit der Signatur: München, Bayerische Staatsbibliothek -- 2 H.lit.p. 88#Beibd.11",
         "a",
         "http://nbn-resolving.de/urn/resolver.pl?urn=urn:nbn:de:bvb:12-bsb00081844-2",
         "z",
         "kostenfrei"
      ],
      [
         "009P",
         "09",
         "a",
         "http://bvbd2.bib-bvb.de/opt-cgi/order/bestand.pl?ID=BV035502032",
         "z",
         "Holdings within Bibliotheksverbund Bayern (BVB)"
      ],
      [
         "010@",
         "",
         "a",
         "lat"
      ],
      [
         "011@",
         "",
         "a",
         "1830",
         "n",
         "[1830]"
      ],
      [
         "021A",
         "",
         "a",
         "Auspiciis Sapientissimis Felicissimusque ... Domini Friderici Guilelmi III. ... Virum Perillustrem Et Praecalarissimum Iohannem Schulzium Philosophiae Doctorem Augustissimo Borussorum Regi ... Literarum Divinarum Pariter Atque Humanarum Scientissimum Meritorum In Rem Publicam Christianam Atque In Fridericianam Utramque Halis Consociatam Multitudine Et Magnitudine Insignem Scripturae Sacrae Doctorem Inter Ipsa Sacra Augustanae Confessionis Secularia Tertia Dei XXV. Iun. A. MDCCCXXX Creatum Palamque Renunciatum Esse Hac Tabula Ordinis Sui Sigillo Munita Non Sine Summa Animio Laetitia Declarat",
         "h",
         "Friderico Blumio ; Friderico Augusto Schmelzeo ; Iohannem Schulzium"
      ],
      [
         "028A",
         "",
         "d",
         "Friedrich",
         "a",
         "Bluhme",
         "h",
         "1797-1874",
         "B",
         "Verfasser, *aut"
      ],
      [
         "028C",
         "",
         "d",
         "Friedrich August",
         "a",
         "Schmelzer",
         "h",
         "1759-1842",
         "B",
         "Sonstige, *oth"
      ],
      [
         "028C",
         "01",
         "d",
         "Johannes",
         "a",
         "Schulze",
         "h",
         "1786-1869",
         "B",
         "Sonstige, *oth"
      ],
      [
         "033A",
         "",
         "p",
         "Halis Saxonum",
         "n",
         "Gebauer"
      ],
      [
         "033D",
         "",
         "p",
         "Halis Saxonum",
         "u",
         "http://thesaurus.cerl.org/record/cnl00029460",
         "4",
         "ct1"
      ],
      [
         "034D",
         "",
         "a",
         "[1] Bl."
      ],
      [
         "047A",
         "",
         "a",
         "006 m|||| o||u| ||||||"
      ],
      [
         "047A",
         "",
         "a",
         "007 t"
      ],
      [
         "047A",
         "",
         "a",
         "007 cr|uuu---uuuuu"
      ],
      [
         "047A",
         "",
         "a",
         "008 090522s1830             |||| 00||| lat d"
      ],
      [
         "047A",
         "",
         "a",
         "040   $aDE-604$bger$erakwb"
      ],
      [
         "047A",
         "",
         "a",
         "100 1 $aBluhme, Friedrich$d1797-1874$eVerfasser$0(DE-588)118852086$4aut"
      ],
      [
         "047A",
         "",
         "a",
         "700 1 $aSchmelzer, Friedrich August$d1759-1842$eSonstige$0(DE-588)11745642X$4oth"
      ],
      [
         "047A",
         "",
         "a",
         "700 1 $aSchulze, Johannes$d1786-1869$eSonstige$0(DE-588)118860283$4oth"
      ]
   ]
}]
