[{
   "_id" : "025178733",
   "record" : [
      [
         "001A",
         "",
         "0",
         "2049:16-06-16"
      ],
      [
         "001B",
         "",
         "0",
         "2049:16-06-16",
         "t",
         "04:04:08.000"
      ],
      [
         "001D",
         "",
         "0",
         "2049:16-06-16"
      ],
      [
         "001U",
         "",
         "0",
         "utf8"
      ],
      [
         "001X",
         "",
         "0",
         "0"
      ],
      [
         "002@",
         "",
         "0",
         "Tbv1"
      ],
      [
         "003@",
         "",
         "0",
         "025178733"
      ],
      [
         "003U",
         "",
         "a",
         "http://d-nb.info/gnd/6146939-7"
      ],
      [
         "004B",
         "",
         "a",
         "kiz"
      ],
      [
         "007K",
         "",
         "a",
         "gnd",
         "0",
         "6146939-7"
      ],
      [
         "007N",
         "",
         "a",
         "gkd",
         "0",
         "6146939-7",
         "v",
         "zg"
      ],
      [
         "008A",
         "",
         "a",
         "f",
         "a",
         "d",
         "a",
         "xdr"
      ],
      [
         "029@",
         "",
         "a",
         "Gebauersche Buchdruckerei",
         "g",
         "Halle (Saale)"
      ],
      [
         "029@",
         "",
         "a",
         "Libraria Gebaueria",
         "g",
         "Halle (Saale)"
      ],
      [
         "029@",
         "",
         "a",
         "Gebauer'sche Buchdruckerei",
         "g",
         "Halle, Saale"
      ],
      [
         "029A",
         "",
         "a",
         "Gebauersche Buchhandlung",
         "g",
         "Halle (Saale)"
      ],
      [
         "041R",
         "",
         "9",
         "011824824",
         "V",
         "Tsv1",
         "6",
         "gnd/4133333-0",
         "a",
         "Druckerei",
         "4",
         "obin"
      ],
      [
         "042A",
         "",
         "a",
         "10.12b"
      ],
      [
         "042B",
         "",
         "a",
         "XA-DXDE"
      ],
      [
         "060R",
         "",
         "a",
         "1835",
         "4",
         "datb"
      ],
      [
         "065R",
         "",
         "9",
         "010895337",
         "W",
         "Tgv1",
         "6",
         "gnd/4023025-9",
         "w",
         "gik",
         "A",
         "Halle (Saale)",
         "4",
         "orta",
         "X",
         "1"
      ]
   ]
}]
